:020000040000FA
:0600000071EF1DF012007B
:020006000400F4
:0600080036EF12F01200B9
:02000E001200DE
:020010000218D4
:03001200FF0000EC
:020015000000E9
:0600180036EF12F01200A9
:02001E0030317F
:0E002000323334353637383941424344454691
:02002E000001CF
:0E00300002030405060708090A0B0C0D0E0F4B
:02003E000400BC
:1000400015000000BA0200000200000012000000CB
:10005000B302000003000000FC3A0000DC010000D5
:100060000D00000010000000B802000002000000B7
:1000700000001200B8EC0CF049E800EBE6FFD6CF28
:10008000E6FF52EC1BF041E9E750036E035021E01C
:1000900003068DEC0AF0046EF451056EF551066E00
:1000A000F651076E8DEC0AF0086EF451096EF551A9
:1000B0000A6EF6510B6EBBEC0BF0D950040FB2EC8C
:1000C0000AF0D8803E0EF355000EA3EC0CF0EAE2E5
:1000D000DDD74AE9B6EF0AF0C6EC0CF055E8C0EC03
:1000E0000EF0000901E115D302015DB570D3016B7B
:1000F0007851040B01E0010E030BF36EFC0E0115A9
:10010000F310016F78510197080B01E001877851D6
:10011000030B010802E1010E01D0000E019BE8B0C3
:10012000018B7851019D800B01E0018D78AF08D0E3
:100130008051019FE8B0018F79C204F27AC205F2C2
:1001400081C202F282C203F27FC20AF27EC209F2C7
:100150005D957851030B010A01E13CD2020A01E1ED
:100160009ED1030A01E0D0D20A0E7D5D01E2CCD21D
:10017000020E9AEC0AF00B6E030E9AEC0AF00C6E6B
:10018000040E9AEC0AF0116E050E9AEC0AF0126E4B
:10019000060E9AEC0AF00D6E070E9AEC0AF00E6E3F
:1001A000080E9AEC0AF00F6E090E9AEC0AF0106E27
:1001B00078510197080B01E001870151030B0009F9
:1001C00006E11150FC08FF0E125401E382D04951A0
:1001D0000F180AE14A51101807E14B510D1804E1BC
:1001E0004C510E1801E190D2FE0E115CFF0E125818
:1001F00001E28AD2026A050E025C1CE24BEC0CF0B2
:10020000EF5016E0A6EC0AF00F50EE1811E1105076
:10021000ED180EE1A6EC0AF0020EA2EC0AF0EFCF08
:10022000F3F10A0E02019AEC0AF00101F35D02E01B
:10023000022AE1D7050E025C01E266D2026A050ECF
:10024000025C06E24BEC0CF0EF5002E0022AF7D71A
:10025000050E025C23E2A6EC0AF00FEBEEFF10EBBA
:10026000EDFF0A0EA9EC0CF0A6EC0AF0020EA2ECCF
:100270000AF047EC0CF04BEC0CF0030EEF6E88EC40
:100280000CF0A6EC0AF0040EA2EC0AF0FBC1EEFFA3
:10029000F4C1EEFFF5C1EEFFF6C1EEFF111C06E161
:1002A000121C04E10201018101934FD0FE0E1118CE
:1002B00006E1FF0E121803E10201018108D0FD0ED4
:1002C000111843E1FF0E121840E102010191018370
:1002D0003CD04B510B1801E017D24C510C1801E0E7
:1002E00013D24951111801E00FD24A51121801E0FE
:1002F0000BD2010E9AEC0AF0040B27E0C4EC0BF0D1
:100300000DEB02F00EEB03F00FEB04F010EB05F039
:10031000EFEC0AF00A0E020133EC0CF0EFCF0AF01A
:1003200000010B6B300E0C6F02010D0E486F716BEC
:10033000718B24EC0DF04BC276F24CC277F239ECA3
:100340000CF093EC0BF0020101850B0E02019AEC0C
:100350000AF001E07AD00C0E9AEC0AF0300864E062
:100360000C0E9AEC0AF0110A01E0CED1136A080EC5
:10037000135C0BE20B0E1324020F9AEC0AF0E66EEC
:10038000135044EC0BF0132AF2D78D0E5E6F150E4E
:100390009AEC0AF0800B01E05E91150E33EC0CF044
:1003A000EFCF56F2160E33EC0CF0EFCF57F24BC2F4
:1003B00058F24CC259F28FDB0201616FFF0E615D92
:1003C00008E0615118EC0CF0EFCF5EF25E855E87BD
:1003D00004D08D0E5E6F56BF5E91D3DB0201616F5C
:1003E000FF0E615D1EE2136A010E135C0CE2170E34
:1003F0001324A9EC0CF061512BEC0CF0135012EC0F
:100400000DF0132AF1D70E0EE66EE66A0201615175
:100410006AEC0BF00201615150EC0BF002016081BB
:1004200001D06091609370D10A0E9AEC0AF001013C
:10043000E65D08E102015A510F1804E15B51101802
:1004400001E15D970F5080085FD10B0E7D5D086F55
:100450000B0E7B25066F000E7C21076F0DEB02F261
:100460000EEB03F2080E9AEC0AF0FF080AE1090EFF
:100470009AEC0AF0FF0805E179C204F27AC205F2AB
:1004800007D0018F080E7B25046F000E7C21056FBD
:10049000018D0851000801E337D15D8535D1146A1B
:1004A000040E14249AEC0AF05D0807E0040E1424EC
:1004B0009AEC0AF04D0801E027D15DA125D181C257
:1004C00058F282C259F279EC0BF014509AEC0AF00F
:1004D000FF0801E019D114289AEC0AF0156E040EF9
:1004E0000B5D01E311D160EC0BF0F5EC0BF001E2D8
:1004F0000BD121EC0DF0E4C1EFFF21EC0DF00B0E60
:10050000A2EC0AF009C2EFFF21EC0DF00C0EA2ECF8
:100510000AF00AC2EFFF21EC0DF0090EA2EC0AF07E
:1005200058C2EEFF59C2EDFF2FEC0CF0EF6A2FEC32
:100530000CF0EF8C60EC0BF0060BE8420101F36F5E
:1005400002012FEC0CF00101F351030BF36EFC0ED2
:10055000EF14F310EF6E60EC0BF0080B04E00201F7
:100560002FEC0CF0EF8660EC0BF0F5EC0BF004E3F5
:1005700002012FEC0CF0EF8A02012FEC0CF0EF8E51
:1005800004C2E9FF05C2EAFFC9EC0CF047EC0CF02D
:10059000010EEA6A0425E96E0551EA22C9EC0CF065
:1005A000CAEC0BF047EC0CF0026A010E025C0FE2A1
:1005B000060E14240224A9EC0CF021EC0DF00E0E12
:1005C00044EC0DF0025012EC0DF0022AEED70201BD
:1005D0000B2B9AD07BC2E9FF7CC2EAFFEF50030AE3
:1005E00060E0010A01E090D0030E9AEC0AF04FE1BE
:1005F000010E33EC0CF0EFCF49F2020E33EC0CF0AD
:10060000EFCF4AF2DFEC0AF002015D83BF0E5E6FAE
:10061000026A080E025C03E24FEC0CF0FAD74D516F
:100620001CEC0CF0EECF56F2EDCF57F24BC258F265
:100630004CC259F2A6DA02014D6F4D5108EC0BF095
:10064000026A010E025C0CE2040E0224A9EC0CF01A
:100650004D512BEC0CF0025012EC0DF0022AF1D7A8
:10066000C3EC0AF01EEC0DF0C6EC0AF00E0EE66EBE
:10067000E66A02014D516AEC0BF002014D5150EC5B
:100680000BF0BA0EE66E2E0E21EC0BF03DD04D694C
:100690004B694C6988EC0BF0C6EC0AF0C3EC0AF02D
:1006A00033D05DA331D0805108E079EC0BF013DA40
:1006B000166EFF0E165C0DE127D0026A080E025C72
:1006C00003E24FEC0CF0FAD72DDA166EFF0E165C33
:1006D0001BE01650FFEC0CF0200B16E0026A0A0E2D
:1006E000025C05E2025029EC0DF0022AF8D793ECE7
:1006F0000CF0C6EC0AF01EEC0DF0C3EC0AF0FCECBA
:100700000AF0EEEC19F046E902015DB502D0F5EC15
:100710000FF08DEC0AF0036EF451046EF551056E86
:10072000F651066E026A050E025C22E24BEC0CF0FA
:10073000EF5000081BE203EBF7F104EBF8F105EBD7
:10074000F9F106EBFAF1A6EC0AF0040EA2EC0AF0BD
:10075000EE50010167EC0CF0D880120EF3557A0EC2
:10076000A3EC0CF003E24BEC0CF0EF6A022ADBD7AF
:10077000020160A32CD060B12AD0D950030FF2EC53
:100780000CF06D51EE5C0101F36F02016E51EE58F9
:100790000101F46F02016F51EE580101F56F020182
:1007A0007051EE580101F66FF351076EF451086E67
:1007B000F551096EF6510A6E07506C08DC0E0854AC
:1007C000020E0954000E0A5402E20201609356E937
:1007D000B6EF0AF091EC0AF088E90201716B015062
:1007E000030BF36EFC0E7115F310716F02500310C2
:1007F00001E171857151040B02E0000E01D0010E80
:10080000719BE8B0718B718F02EB72F203EB73F2A4
:10081000080E0014000803E2010E746F01D0746B1F
:10082000040E0014000803E2010E756F01D0756B11
:1008300004EBE9FF05EBEAFFEFCF76F20428E96E5F
:10084000000E0520EA6EEFCF77F2D5EC0AF05BECF4
:100850000CF041E9B6EF0AF0C6EC0CF041E8026A90
:100860000A0E025C08E202505BEC0DF002E102505D
:1008700003D0022AF5D7FF0E42E9B6EF0AF0B8EC32
:100880000CF042E8FF0E005C28E1AA0EE66E2E0E88
:1008900021EC0BF0036A080E035C0CE2070ED88013
:1008A0000354EA6ADC0FE96E010EEA22F8EC0AF062
:1008B000032AF1D79B0EE66E2E0E21EC0BF09BEC7B
:1008C0000BF0910EE66E2E0E21EC0BF0A2EC0BF06D
:1008D000850EE66E2E0EBFEC0CF03D0EE66E2E0E73
:1008E00021EC0BF0FF0E005C63E1036A0A0E035C6F
:1008F00001E3B0D003505BEC0DF058E003EBE6FFF2
:10090000BBEC0CF020EC0CF020EC0CF062EC0DF0E9
:100910000350FFEC0CF0010B02E0590E01D04E0E1B
:1009200002EC0DF00350FFEC0CF0020B02E0590E4C
:1009300001D04E0E02EC0DF00350FFEC0CF0080B52
:100940000FE00350ADEC0CF0F8EC0AF003502CEC87
:100950000DF0035030EC0DF0035035EC0DF002D0EB
:1009600055EC0DF041E962EC0DF00350FFEC0CF09A
:10097000040B08E0046A080E045C04E2035040EC37
:100980000CF0F9D762EC0DF0046AD89003E3CEECDA
:100990000CF0FBD7046A010E045C06E203502BEC5A
:1009A0000CF0D4EC0CF0F7D7D6EC0CF0032A9ED761
:1009B00000505BEC0DF04EE000EBE6FFBBEC0CF002
:1009C00020EC0CF0200E5EEC0DF0010B02E0590E55
:1009D00001D04E0E5EEC0DF0020B02E0590E01D07C
:1009E0004E0E5EEC0DF0080B0FE00050ADEC0CF07D
:1009F000F8EC0AF000502CEC0DF0005030EC0DF04B
:100A0000005035EC0DF002D055EC0DF041E962ECF0
:100A10000DF00050FFEC0CF0040B08E0046A080E27
:100A2000045C04E2005040EC0CF0F9D762EC0DF0ED
:100A3000046AD89003E3CEEC0CF0FBD7046A010EF5
:100A4000045C06E200502BEC0CF0D4EC0CF0F7D771
:100A5000D6EC0CF043E9B6EF0AF0C6EC0CF041E836
:100A600002016091EAEC1CF0FBC16DF2FCC16EF278
:100A7000FDC16FF2FEC170F20201566B576B0B0E97
:100A8000486FBBEC0AF0EF6ABBEC0AF0100EEF6E99
:100A9000026A080E025C09E20250EA6ADC0FE96EA3
:100AA000010E05EC0DF0022AF4D7026A010E025C79
:100AB00005E2025065EC0DF0022AF8D7E66AE66A14
:100AC000560EE66E020EE66ED6DB44E90201608346
:100AD00042E9B6EF0AF0C6EC0CF041E8026A0A0EF1
:100AE000025C1CE202505BEC0DF016E00250FFECE1
:100AF0000CF0080B11E002501CEC0CF00AEC0CF0AE
:100B0000020156510101F31907E102015751010198
:100B1000F41902E1025003D0022AE1D7FF0E42E9A4
:100B2000B6EF0AF0C6EC0CF042E8026A0A0E025C6C
:100B300024E202505BEC0DF01EE00250FFEC0CF0E2
:100B4000040B19E0036A080E035C13E2DBEC0CF003
:100B5000EACFF5F103500101EA6AE924E96EF551A3
:100B6000EA22EFCFF3F1D2EC0BF0F35D04E1032ABC
:100B7000EAD7025003D0022AD9D7FF0E43E9B6EFD5
:100B80000AF0C6EC0CF042E8026802015EA502D051
:100B9000C9DF03D05EA702D09EDF026EFF0E025CAB
:100BA00002E15ADE026EFF0E025C2CE0025018ECED
:100BB0000CF05EC2EFFF02015EA510D0036A080EC2
:100BC000035C0CE2D2EC0BF0E66EDBEC0CF0EACF4F
:100BD000F4F1035012EC0DF0032AF1D702015EA7E5
:100BE00007D002501CEC0CF056C2EEFF57C2EDFFCE
:100BF00002507FEC0AF058C2EEFF59C2EDFF0250DE
:100C000008EC0BF0025043E9B6EF0AF091EC0AF061
:100C100086E941E8066A080E065C14E206500224E2
:100C2000A9EC0BF0EFCFF3F106500024E96E000EB3
:100C30000120EA6EEF500101F35D02E0000E03D0E7
:100C4000062AE9D7010E42E9B6EF0AF0B8EC0CF03B
:100C500044E83AEC1AF0020149694A69340E4B6FD4
:100C6000120E4C6F066A0A0E065C05E2065029EC6D
:100C70000DF0062AF8D702015D6B5F6B606B006BAD
:100C8000E0EC1CF00201486B066A0A0E065C05E205
:100C9000065008EC0BF0062AF8D7005045E02CEC83
:100CA0000BF0CEEC0BF0200E0101E45D09E2C9EC83
:100CB0000AF0CEEC0BF00201491D04E14A1D02E1ED
:100CC000000E6BD073EC0CF0CEEC0BF038EC0BF0AC
:100CD000CEEC0BF013EC0BF0FCEC0AF0CEEC0BF0CE
:100CE000C9EC0AF0CEEC0BF07CEC0CF0CEEC0BF087
:100CF000310EE66E2E0EBFEC0CF0290EE66E2E0EB7
:100D000021EC0BF0A2EC0BF01E0EE66E2E0E21EC89
:100D10000BF09BEC0BF0E4C1E6FF14EC0CF0DFEC05
:100D20000AF002015D8312D0C3EC0AF02CEC0BF048
:100D300063EC0CF038EC0BF063EC0CF0FCEC0AF01C
:100D400063EC0CF01EEC0DF0C6EC0AF0036A03969F
:100D50000398039A038C038200500394E8B0038441
:100D6000DC0E046E010E056E03EBE6FF04EBE6FFFE
:100D700005EBE6FFFAEC11F043E9DFEC0AF0E4C121
:100D8000E6FF14EC0CF002010081008713EC0BF07D
:100D9000D6CF5CF2F292F288010E45E9E7D3B8ECC7
:100DA0000CF0E66A00EBE6FF74EC11F042E9000992
:100DB00008E000EBE4F12CEC0BF063EC0CF0010E1E
:100DC00001D0000E41E9D2D3B8EC0CF0005003087A
:100DD00009E300EBE5F113EC0BF038EC0BF0EEEC73
:100DE00019F046E941E9C2D39CDB87E94EE8010EE0
:100DF000086E096A0A6A0B6A0101E4510C6E076AFF
:100E0000040E075C05E2075081DBEF68072AF8D77C
:100E100002010B6B5D81076A200E075C01E377D04E
:100E200001EBF4F102EBF5F103EBF6F10101F36BE9
:100E3000F80EF417070EF617BBEC0BF007501F0B5C
:100E400008E00101D890F737F837F937FA37E806A4
:100E5000F9E10101F751F317F851F417F951F517BA
:100E6000FA51F617F351F411F511F6114EE00E0E8A
:100E7000E66E2E0EE6DB07EBE6FF01EC1CF041E927
:100E800007EBE6FF14EC0CF0F7EC0CF0070EEF6E3E
:100E900072DBE4C1EFFF58695969E66A010EE66E3C
:100EA000000EE66EE66A580EE66E020EE66E92DC04
:100EB00046E933DBDAEC0BF0F2EC0BF001E040D961
:100EC0002CDBE2EC0BF011EBF7F112EBF8F113EB8A
:100ED000F9F114EBFAF1D9500D0F44DB0450040D75
:100EE000F3CFF6FFF4CFF7FF860EF6263A0EF72281
:100EF000F3510900F55CF4510900F558F55109006A
:100F0000F558F6510900F558D7E2072A85D70CEBBA
:100F1000E6FF14EC0CF002015D910B514FE926D372
:100F200000DB84E94AE8030E046E00040DE195DD60
:100F3000020160A305D0F2EC0BF0FAE001D9F8D77A
:100F400060A1EFD06151F2D0005001E0EED0FF0E71
:100F5000015C24E10101010EF36FF46BF56BF66B9C
:100F60000101E4511F0B08E00101D890F337F43779
:100F7000F537F637E806F9E1F3C1E6FFF4C1E6FF1D
:100F8000F5C1E6FFF6C1E6FF0A0EE66E2DDF45E984
:100F9000000903E10406DEE1C4D0016AA0EC0CF014
:100FA000090ED0DAEECF58F2EDCF59F2A0EC0CF0EA
:100FB000EE52EFCF56F2A0EC0CF0EE52EBDBEFCF9F
:100FC00057F289DD02014D6FFF0E4D5D06E144DCF5
:100FD00002014D6FFF0801E1A4D04D5129EC0DF045
:100FE000A0EC0CF0090EAEDA0AEC0CF04D5187DAE9
:100FF000F3C1EEFFF4C1EDFFA0EC0CF0EE52EF50A8
:1010000047EC0DF047EC0CF0A0EC0CF0EE52C2DB1C
:10101000EF5047EC0DF0E92AEA2247EC0CF04D5175
:1010200018EC0CF0EF86056A010E055C1AE2A0ECE4
:101030000CF00E0E87DAE9CFF5F1EACFF6F10550A4
:101040000101EA6AE924E96EF651EA22EF50E66E00
:1010500002014D512BEC0CF0055012EC0DF0052A5D
:10106000E3D702014D51E4DBEF824D51E1DBEF8A22
:101070004D51DEDBEF80A0EC0CF0EFCFE6FFD4DBD0
:1010800002014D513CDAEECF4BF2EDCF4CF240DB9A
:10109000F7EC0CF0010EEF6E6EDA00C2EFFF056A9E
:1010A000010E055C05E2055065EC0DF0052AF8D748
:1010B000080EE66E010E47EC0DF0EDDA4BEC0DF08C
:1010C0004D511DDAE9CFF5F1EACFF6F14BEC0DF019
:1010D000EAEC03F046E921DA066EF451076EF551A9
:1010E000086EF651096E02014D51FFEC0CF0100B29
:1010F0001AE178DB01E024D810DA0A6EF4510B6EA5
:10110000F5510C6EF6510D6E0AEBF7F10BEBF8F1A1
:101110000CEBF9F10DEBFAF1D950060FB0EC0CF035
:10112000E2E2FF0E03D04D5101D0FF0E4BE91ED27B
:101130006CEC00F002015D51040B01E0010E1200A5
:1011400002015D95F5EF0FF0B8EC0CF000EBE6FF57
:10115000010EE66E03D842E941E908D2E2D984E9FA
:1011600013DB4BC202F04CC203F00150020A0AE04A
:10117000010A06E0020A02E0000E13D0046904D05E
:10118000FE0E01D0FD0E046F056929DA0201E0ECC4
:101190000CF0718500507197E8B071872DDB05DA8E
:1011A000C2DA41E9E3D1BDD984E949E801505BECF9
:1011B0000DF05CE00101E7510CE000010B5109E08A
:1011C00002015D875CC2E6F101503AEC0DF0060EBB
:1011D00003D002015D97020E046EE8C100F004EB3B
:1011E00001F001508CD9EFCF02F00150B6DBEFCF08
:1011F00003F0015021DBEFCF04F001501DDBE7DBF2
:1012000064DAE8B0718724EC0DF04D5196DBCDD94E
:1012100052DB000929E002015D51080B29E0015071
:101220000BDBF8DA800E0101F35D22E276D9056E60
:10123000F451066EF551076EF651086ED3DA01E0EF
:101240007FDF02015DB702D0010E13D066D9C2DA8A
:1012500009EBF7F10AEBF8F10BEBF9F10CEBFAF112
:10126000D950050F7DDBEAE202015D97000E01D047
:10127000010E4AE97BD155D986E953E8015030E1A6
:10128000CEDAEFCF56F2022864DAEFCF57F202013E
:101290005651FC08FF0E575523E2FD0E561902E188
:1012A000E868571916E0FE0E561902E1E86857196A
:1012B0000CE0E868561901E0CFD0E868571901E062
:1012C000CBD000EBE6FF010E07D000EBE6FF030EEC
:1012D00003D000EBE6FF020EE66E40DF42E9BFD02E
:1012E0000101E75109E000010B5106E002015D87B1
:1012F0005CC2E6F1060E03D002015D97020E086E95
:10130000015063E0076A080E075C09E207500224F7
:1013100020DAEF50E66E0750B7D9072AF4D792ECDF
:1013200005F0066EFF0E065C14E12EDA0269036911
:101330000469056954D90201C8D9E8B0718702EB84
:1013400072F203EB73F2746B57DA5D972ED9EBD917
:1013500086D0065054DB080BE8E00101E75102E0BB
:10136000065088DBE8C100F008EB01F00650C7D852
:10137000EFCF02F00650F1DAEFCF03F006505CDA5F
:10138000EFCF04F0065058DA22DB02019ED9E8B014
:10139000718741DB5FE002015DA746D0BED81ADA53
:1013A00021DA01E0CDDE02015DA73ED0B6D802DA37
:1013B0000DEBF7F10EEBF8F10FEBF9F110EBFAF1A1
:1013C000D950090FCDDAECE245D0E8C100F008EBC6
:1013D00001F04BC202F04CC203F021DAEFCF04F06F
:1013E0000228B7D9EFCF05F0FAD85C515C2B000189
:1013F0000A6F15DAEFCF5AF20228ABD9EFCF5BF2C2
:101400000201716B718B00507197E8B0718703DB3B
:1014100021E002015DA722D080D8D4D9E3D901E030
:101420008FDE02015DB702D0010E19D076D8156E9D
:10143000F451166EF551176EF651186E15EBF7F163
:1014400016EBF8F117EBF9F118EBFAF1D950110F8F
:1014500087DAE4E202015D97000E01D0010E54E943
:1014600085D05FD888E90550020A02E0030A02E14C
:10147000000E01D0000E41E979D07ADA41E8FF0E82
:10148000005C16E1036A0A0E035C2FE2035013DBD3
:101490000BE00350B4DA200B07E0A9DA64D903505B
:1014A0004CDA035018DBAFD90350D3DA032AEBD759
:1014B000005001DB22E00050A2DA200B1EE0020106
:1014C0004D51005C1AE1486B56D84DD9005035DAC1
:1014D000005001DB0050BDDA96D9036A0A0E035CA6
:1014E00004E20350B6DA032AF9D71DDAA7DA4BD89B
:1014F0004DD882D8EEEC19F046E942E937D00E0D0E
:1015000032DA000EE926030EEA2212000F0D2BDA62
:101510000C0EE926020EEA221200FAD90101F3515B
:101520001200D9CFE6FFDACFE6FFE1CFD9FFE2CF55
:10153000DAFF120098D9EF501200E66EE1EC1BF0D2
:1015400041E91200E926000EEA2212000250080DBD
:101550000ADA830EE926020EEA2212003EDA89D95F
:101560005BEF0CF03FDAEE5067EF0CF0E5CFDAFFFF
:10157000E7CFD9FF12004851482BEA6A000FE96E05
:10158000000EEA221200AFD963EF0CF0B5D963EF79
:101590000CF0020EE66EE66AD6C1E6FFD7C1E6FFA2
:1015A000490EE66E020EE66E12003FDA72C2E6FFE8
:1015B00073C2E6FF74C2E6FF75C2E6FF120070DA7E
:1015C000490EE66E020EE66ECBEC11F044E9120015
:1015D0000101EA6AE924E96EF451EA2212004BC2E1
:1015E00006F04CC207F049C208F04AC209F01200E6
:1015F000EFCFE6FFBBEF0CF08C0EE66EE66AD2C1D1
:10160000E6FFD3C1E6FF000EE66E030EE66E1200A3
:10161000040DA9D9330EE926000EEA22EE6AEE6A1D
:10162000EE6AEE6A12000101E5510201030BF36E4E
:10163000F346F346F346F346CF0E0015F310006F62
:101640001200E66ECBEC1BF042E91200D880240EAB
:10165000F355F40EA3EF0CF0010EE66EE66ACEC170
:10166000E6FFCFC1E6FFE40EE66E010EE66E120065
:10167000010EE66EE66AD0C1E6FFD1C1E6FFE50ED7
:10168000E66E010EE66E1200EA6A4E0FE96E020E79
:10169000EA2247EF0CF0E9CFF3F1EACFF4F11200C0
:1016A0000E0DF3CFF5F1F4CFF6F1000E0101F527A1
:1016B000030EF623F5C1E6FFF6C1E6FF63EF0CF07B
:1016C000D950150F8FD9EF5012007AD9718B005075
:1016D000719712000E0D0101D251F3240101F36F35
:1016E0000101D351F4200101F46FF3C1E6FFE66E6E
:1016F000120079C2E9FF7AC2EAFFEFCF56F2010E7B
:10170000EA6A7925E96E7A51EA22EFCF57F21200A0
:1017100056695769C5D9560EE66E020EE66ECBECD9
:1017200011F044E912004BC2E6FF4CC2E6FFFDECAB
:101730000FF04AE912004AC2E6FF1DD949C2E6FF8E
:10174000BBEF0CF04CC2E6FF16D94BC2E6FFBBEF75
:101750000CF0E96E000E0320EA6E1200EECF76F276
:10176000EDCF77F21200030EEF6E716B718B71810A
:101770007193FBEF0CF008EBF7F109EBF8F10AEBD2
:10178000F9F10BEBFAF11200E8C100F00001020ED2
:10179000016F1200E92A000EEA221200D9EC19F0BA
:1017A00046E912000350EA6A4E0FE96E020EEA2281
:1017B000EF5012000D6EF4510E6EF5510F6EF65192
:1017C000106E1200116EF451126EF551136EF65137
:1017D000146E1200096EF4510A6EF5510B6EF6513B
:1017E0000C6E1200A5DC00091200300BE842E84242
:1017F000E842E84201081200010E756F4BC276F212
:101800004CC277F21200640EE66EE66A73EC19F0D1
:1018100042E91200EECFF3F1EFCFF4F1120002EB48
:10182000E9FF03EBEAFF1200CFEC06F041E91200FA
:1018300066DE0C0EA2EF0AF062DE020EA2EF0AF0E4
:1018400041D962EF0DF03F0E78DE3F0E76DE3F0E9F
:1018500074DE3F0E120053DE0D0E44EF0DF0F1D892
:101860000D0EA2EF0AF0EA6A7B25E96E7C51EA22AE
:101870001200DBD810D974C2E6FF75C2E6FF120071
:101880003EDE040E01D9070ED8800454F9D0E5528B
:10189000E750EF6E12005ADE030EA2EF0AF002507C
:1018A000EA6A7925E96E7A51EA22EF50E66E025033
:1018B000EBDE022A120076C2E6FF77C2E6FFFDECFD
:1018C0000FF04AE91200EEEC19F046E91200F75D5C
:1018D000F36FEE50F859F46FEE50F959F56FEE5082
:1018E000FA59F66F1200020EE66EE66ACCC1E6FF08
:1018F000CDC1E6FF50EF0DF0010EE66EE66AD8C1ED
:10190000E6FFD9C1E6FF4D0EE66E020EE66E12004E
:10191000EAEC1CF0FBC1F3F1FCC1F4F1FDC1F5F1FF
:10192000FEC1F6F1120002014D6949694A694B692D
:101930004C6945DE02015D931200E1DDAEEF0BF074
:10194000015086EF0AF0F455000EF555000EF655DD
:1019500012000201EFDDE66E1200D1DDCAEF0BF0DE
:1019600001DE26EF0BF0F3CFE9FFF4CFEAFF120020
:10197000D8DD83E91200EFEC1BF041E9120061DED3
:10198000E4C1E6FF01EC1CF041E91200CADD82E986
:101990001200EF50E66E55D8EE5212003A0EE66E87
:1019A0002E0E4FDE042A120004506AD00D0EC5DD43
:1019B0000A0E9DEF0AF00250A2DD040EA2EF0AF01B
:1019C0005C515C2B00010A6F0201716B1200E92A65
:1019D000EA22EFCF05F0EFEF0AF0E9CF72F2EACF9B
:1019E00073F21200E96E000EDA20EA6E12000201B4
:1019F000486BBBEF0AF0010E746F756F120018DFB1
:101A0000EF5012009ADD20EF0CF0EA22EF50E66E64
:101A1000B2DD47EF0CF04D5190DFEDDF4D515BD85B
:101A200000091200D5DD47EF0CF048C2E6FF000EBA
:101A3000E66E000EE66E71C2E6FF1200AADD63EFED
:101A40000CF00B5186EF0AF0D6DF4D51F5DEEDEFCD
:101A50000CF0EEDEEF6A120052DDCADD20EF0CF072
:101A6000EBDEE92AEA22F8EF0AF0E6DEEFCFE6FF46
:101A7000EFEF1BF0E1DEEECF5AF2EDCF5BF212009A
:101A8000A7DDB6DD042A12005DDD4BEF0BF0E66E3C
:101A90004D511CEF0CF0E9CFE6FFEACFE6FF120054
:101AA0004B0EE66E020EE66E1200CDDEABDFCBDE35
:101AB000E66EE1EF1BF0A3DF800B1200A3DF005006
:101AC000FFEF0CF0200E9DEF0AF0EA6AB80FE96E06
:0C1AD000020E05EF0DF0B0DEAEEF0AF0E4
:041ADC000EEC14F008
:101AE00085E941E8F250100B01E0010E056EF29815
:101AF0008B90010101EBF3F102EBF4F1030ED890AE
:101B0000F433F333E804FBE17F0E0101F3158009A0
:101B1000E66E12EC15F0010101EBF3F102EBF4F1CA
:101B2000050ED890F337F437E804FBE1E00E01012D
:101B3000F3151009E66E89EC14F00550E8B0F28850
:101B4000E8A0F29842E91CEF14F00EEC14F084E9DE
:101B500041E8F250100B01E0010E046EF2988B90F8
:101B600001EBE6FF89EC14F00450E8B0F288E8A03D
:101B7000F29842E91CEF14F00EEC14F083E942E80D
:101B8000F250100B01E0010E046EF2988B9000EB06
:101B9000E6FF12EC15F03EEC1DF0036E8B80045056
:101BA000E8B0F288E8A0F298035043E91CEF14F083
:101BB0000EEC14F084E942E8F250100B01E0010E43
:101BC000056EF2988B90010100EBF3F101EBF4F15B
:101BD000030ED890F433F333E804FBE17F0E0101E8
:101BE000F317000EF417800EF311E66E12EC15F0E9
:101BF000010100EBF3F101EBF4F1050ED890F3379E
:101C0000F437E804FBE1E00E0101F315E66E12EC97
:101C100015F03EEC1DF0046E8B800550E8B0F288A4
:101C2000E8A0F298045043E91CEF14F00EEC14F015
:101C300082E943E88B94036A046A2C0E035C010E6C
:101C4000045804E2032A000E0422F7D78B84036AA7
:101C5000046A2C0E035C010E045804E2032A000EF1
:101C60000422F7D7070EE66E550E17EC14F0540E4B
:101C7000A7EC14F0026E070E0214F9E1036A046A7D
:101C8000E80E035C030E045804E2032A000E04224B
:101C9000F7D71EEC15F0E668070E17EC14F0E668AF
:101CA000090E17EC14F0E668030E17EC14F0E66862
:101CB000050E17EC14F0026A080E025C0AE20250EC
:101CC0008FEC14F00250E8240B0F17EC14F0022AEA
:101CD000F3D7800EE66E020EE66EE66E16EC15F099
:101CE000E66A030E30EC14F0900EE66E060E30EC51
:101CF00014F0800EE66E070E30EC14F0100EE66E57
:101D0000080E30EC14F0210EE66E200E30EC14F0CC
:101D1000800EE66E750E17EC14F0400EE66E7D0E2A
:101D200017EC14F0600EE66E7F0E17EC14F0980EB0
:101D3000E66E310E17EC14F0950EE66E5D0E17ECA4
:101D400014F00F0EE66E020E06EC15F0026EA00EF9
:101D50000214A008F6E1E60EE66E650E17EC14F02C
:101D6000030EACEC14F0020EE66E010E30EC14F033
:101D7000E66AC6C1E6FFB8DA42E944E91CEF14F0AE
:101D80000EEC14F082E943E881A0F2820101CBA1BC
:101D90001ED0B4C2F3F1B5C2F4F10101F56BF66BDC
:101DA000D890F651000A08E6800EF35D000EF45953
:101DB000000EF559000EF65906E30201B46BB56B3F
:101DC0000101CB9104D00201B42B000EB523020116
:101DD000B369026A020E025C09E272EC14F00008B8
:101DE00003E202EBB3F202D0022AF4D7020E0201A0
:101DF000B35D01E3F6D0010E046E21EC15F0400B4B
:101E000001E1046A0201786B806B44EC15F0E92A69
:101E1000000EEA22EF50CC0B036E0350080A01E1DA
:101E2000C2D0840A6CE0040A49E0080A38E04C0A8F
:101E300016E0040A01E0B7D0EFEC14F005E1F5EC90
:101E400014F002E1020178850201788F045004E069
:101E5000C4EC14F0070E5CD0E0EC14F06AD0020180
:101E6000788F04500AE0C4EC14F00D0ECBEC14F0A3
:101E7000E70FD3EC14F0150E62D002011AEC15F046
:101E8000EFCF81F233EC15F00E0E30EC15F00F0EA3
:101E9000CBEC14F0E50FD3EC14F0170E50D0020188
:101EA0007885788F010E806FC4EC14F0050ECBECB2
:101EB00014F0F50FD3EC14F0070E41D0EFEC14F052
:101EC00005E1F5EC14F002E1020178850201788F5A
:101ED000010E806F045009E1E0EC14F0CBEC14F03B
:101EE000F10FD3EC14F00B0E2AD0C4EC14F0070E53
:101EF000CBEC14F0F30FD3EC14F0090E20D0020158
:101F0000788F010E806F04500AE0C4EC14F00C0EC0
:101F1000CBEC14F0ED0FD3EC14F00F0E10D044EC1A
:101F200015F00C0E36EC15F01AEC15F03FEC15F030
:101F30000E0ECBEC14F0EB0FD3EC14F0110E0201EB
:101F40007B27000E7C23020121EC15F0080B22E018
:101F5000A1EC14F0F550010A12E0050A0EE0030AA4
:101F60000CE0040A08E0050A06E0040A02E0070A99
:101F700009E1150E05D00D0E03D0090E01D0050E96
:101F800002017D5F050E02017B257B6F000E7C2127
:101F90007C6F7887020121EC15F0070B0EE0030A35
:101FA00008E0020A03E021D8000E1CD0020178915B
:101FB00002D002017881789303D00201788178837E
:101FC000E8EC14F0EF50FE0FB2EC14F0EFCF7FF21C
:101FD000E8EC14F0EF04B2EC14F0EFCF7EF2010E57
:101FE00001D0000E44E91CEF14F0020E0201B35DB3
:101FF00003E201EC14F0EF6A12000EEC14F08CE92D
:102000004CE80D6A0E6A0AEC14F0040B02E0010EB3
:10201000066E0AEC14F0080B01E0076A0AEC14F0F3
:10202000030B010802E1030E06D00AEC14F0030BC7
:10203000000902E1010E0E6E0101C75108180DE101
:10204000C85109180AE1C71D01E1C81D06E0050EC7
:102050000C6E0E8C010E0F6E03D0070E0C6E0F6A05
:10206000065002E0020E01D0080E0C26075002E0D6
:10207000020E01D0080E0C26CDDB080B01E00E8607
:10208000C9DB200B04E0C6DB040B01E10E8AC2DBD6
:10209000030B030807E10E6A070E0C6E0F6A010EB0
:1020A000076E039A0CEBE6FF24EC15F0080B04E036
:1020B0000C500024050F02D00C500024E66EA4DB67
:1020C0000EEBE6FF24EC15F0030B030804E1800E91
:1020D0000BEC15F02ED0065004E0075002E0880EFD
:1020E0000DD0065004E0075002E1C80E07D006509C
:1020F00004E1070402E18C0E01D0CC0E0BEC15F0CC
:1021000083DB08EBE6FF80DB09EBE6FF24EC15F050
:10211000040B04E0E66878DBE6680BD006500BE0C1
:1021200004EBE9FF05EBEAFF27EC15F00428B9EC16
:1021300014F06ADB0BD00E6A080E0E5C07E20E503C
:102140000424B9EC14F060DB0E2AF6D70F5006E138
:10215000C7C1E6FF59DBC8C1E6FF56DB075007E001
:10216000C9C1E6FF51DBCAC1E6FF4EDB09D00E6AEA
:10217000080E0E5C05E20E50D2DB46DB0E2AF8D7C5
:1021800049DB080B3DE00E6A040E0E5C0AE20E50BD
:10219000EA6AB50FE96E010EEA2227EC15F00E2A65
:1021A000F3D70101B52B000EB623B723B823B551E1
:1021B00005E1030EB61502E1FBEC14F0070EF66E16
:1021C000000EF76E0800F5CFE6FF1EDB0E6A100E5C
:1021D0000E5C11E20E50ACDB0E500101F46B800F6F
:1021E000F36F020EF423F3C1E6FFF4C1E6FF16EC31
:1021F00015F00E2AECD7A5DBF5CFE6FF590E17DB5D
:102200000E6A00500E5C0AE20E500124E96E000EC8
:102210000220EA6E27EC15F00E2AF3D70101CB81DC
:10222000F9DA200B07E0F6DA040B04E1050E0E6E76
:10223000CB8303D0010E0E6ECB93ECDA080B01E0DA
:102240000E820EEBE6FF370EF2DA3BDB106EF45136
:10225000116EF551126EF651136E81A0F2820101DA
:10226000CBB104D0CBA53DD0CB9539D02ADB146EB1
:10227000F451156EF551166EF651176E14EBF7F119
:1022800015EBF8F116EBF9F117EBFAF1D950100F45
:10229000E96E000EDA20EA6EEE50F75DF36FEE5055
:1022A000F859F46FEE50F959F56FEE50FA59F66F90
:1022B000D880C40EF355090EF455000EF555000EE6
:1022C000F655CBE2B3DCC70EE66E010EE66EC90E24
:1022D000E66E010EE66E5FD844E90101CB91000E77
:1022E00001D0010E4DE9A8D299DA84E90B0E015C08
:1022F00003E301501A0802E2000E10D001EBC6F110
:102300000B0E015C100DF350030926DB040EE66E84
:102310006D0E8DDAE66A6D0E8ADA010E41E98CD215
:102320007DDA83E942E80A0EE66E00EBE6FF52EC46
:102330001BF041E9E750046E0A0EE66E00EBE6FF83
:102340004FEC1BF041E9E750400DF350036E045091
:10235000050802E2380E17D00450040802E2300EDD
:1023600012D00450030802E2280E0DD004500208D7
:1023700002E2200E08D00450010802E2180E03D039
:10238000045002E0100E032603EBE6FF030E68DAAA
:10239000010E43E951D242DA86E902EBE9FF03EB91
:1023A000EAFFEFCFC9F10228E96E000E0320EA6EC2
:1023B000EFCFCAF100EBE9FF01EBEAFFEFCFC7F186
:1023C0000028E96E000E0120EA6EEFCFC8F1C9C106
:1023D000E6FF070E2CDACAC1E6FF090E28DAC7C1EC
:1023E000E6FF030E24DAC8C1E6FF050E20DA010E6F
:1023F00041E922D213DA85E941E800EBB2F101EBC1
:10240000B3F102EBB4F1D6CFC5F101010B0EC66FEB
:102410000DDC0101CB6B056A020E055C05E205507F
:10242000C8DAEF6A052AF8D7D9CFE9FFDACFEAFF91
:10243000EF50040B0CE005DAD9EC19F046E9040E74
:102440000101B627000EB723B823D5DA0CD001015D
:10245000B56BB66BB76BB86BCEDA0101010EB56F19
:10246000B66BB76BB86B010E42E9E6D1D8CFE4FF8B
:10247000E0CFE4FFE46EE9CFE4FFEACFE4FFFBC185
:10248000E4FFFCC1E4FFFDC1E4FFFEC1E4FFF6CFC1
:10249000E4FFF7CFE4FFF5CFE4FFF3CFE4FFF4CFA1
:1024A000E4FFFACFE4FF01EEF3F0080EE80403E3E3
:1024B000EECFE4FFFBD7E652B1D982E949E8F2500A
:1024C000100B01E165D1F250020B01E161D1F292F2
:1024D000620E3DDA046E02DA010B14E00101CB91C9
:1024E0000201B46BB56B0101CBA30CD0480E2FDAFF
:1024F000066ED950060F84DA010B02E00101CB858C
:102500000101CB93EBD9080B01E1E0D00768026A27
:10251000020E025C07E2E6D903E182EB07F002D08B
:10252000022AF6D7020E075C01E3CCD00101CBA74B
:1025300083D05E0E0CDA086E0101CB9708B27FD013
:10254000060E026E010EB9D9096E09BC02D0020E48
:102550000226020EB2D9096E0C0E09140C0802E113
:10256000080E01D0020E0226036A080E035C0BE27D
:1025700002500201B26B000F88D9B90FE96E010E4B
:102580006ADA032AF2D7036A040E035C0BE20250F4
:102590000201B26B080F79D9C10FE96E010E5BDA47
:1025A000032AF2D7026A0A0E025C1CE29FD90C0EC3
:1025B00062D9EF50800B14E0B90EE66E010EE66EA4
:1025C00095D9040E58D9E9CFAFF2EACFB0F2E9CFEE
:1025D000E6FFEACFE6FF06EC06F044E9000902E177
:1025E000022AE1D70A0E025C2CE25FD9EE5001010B
:1025F000C15DEE50C259EE50C359EE50C4591FE3AD
:10260000E868C1190FE1E868C2190CE1E868C3196C
:1026100009E1E868C41906E148D9EE6AEE6AEE6A93
:10262000EE6A0FD042D9C1C1EEFFC2C1EEFFC3C1F5
:10263000EEFFC4C1EEFF05D0CBA903D0CB99A0D942
:102640003FD0040EE66E730EF2D8E66A030EDED9B2
:10265000020FE66E02D9E552E750EF6EFED8EFCFDB
:10266000AFF2580E0201AF5D28E20101CB8B010EE3
:10267000026EF3D8EF50020FD88002541EE30250CE
:102680000201B26B000FB16F030EB223B1C2E6FFBD
:10269000B2C2E6FFD8EC0DF042E9E66EDED8EE52AB
:1026A000E9CFAFF2EACFB0F202040201EA6AE9240C
:1026B000E96EB051D0D9022ADCD7C0D9E66A730ED0
:1026C000B6D804D0BBD90101CB97CB9907D9100B51
:1026D0005FE00101CBA107D0CB89800EE66E590ED9
:1026E000A6D84ED954D0060E026E010EE6D80A6E58
:1026F0000ABC02D0020E0226020EDFD80A6E0C0EB1
:102700000A140C0802E1080E01D0020E0226036A28
:102710000A0E0224035C07E203500201B06B010FB2
:10272000EDD8032AF5D702500201B06B0C0FE6D8A2
:10273000036E070EF66E000EF76E0800F550035C90
:1027400006E0800EE66E590E72D80101CB890101B8
:10275000CBB91ED0026A100E025C10E20250E8D81B
:1027600002500201B06BB00FAF6F020EB023AFC2C8
:10277000E6FFB0C2E6FF5AD9022AEDD70101CB87A6
:10278000E0D8F550080DF3504009E66E590E4FD8C9
:10279000F2A409D0F2AA07D0F2940201B62BB651E6
:1027A00002E10201B72B0AEC1BF04AE9E5CFDAFFA0
:1027B000E7CFD9FFE55201EEFAF0080EE80403E393
:1027C000E5CFEDFFFBD7E5CFFAFFE5CFF4FFE5CF8F
:1027D000F3FFE5CFF5FFE5CFF7FFE5CFF6FFE5CF58
:1027E000FEF1E5CFFDF1E5CFFCF1E5CFFBF1E5CF63
:1027F000EAFFE5CFE9FFE550E5CFE0FFE5CFD8FF01
:102800001000B351D9EF14F00D500D2AE66EE66AB0
:1028100016EF15F0D950030F00EF15F0D9CFE6FFF2
:10282000DACFE6FFE1CFD9FFE2CFDAFF1200E66EA2
:10283000A5EC0DF042E91200E5CFDAFFE7CFD9FFB2
:102840001200040EE66EE66AD4C1E6FFD5C1E6FFCB
:10285000B50EE66E010EE66E12000750D9EF14F0C9
:10286000E66E020EE66E16EF15F0EE52E9CF79F243
:10287000EACF7AF21200E926000EEA221200EE52A6
:10288000E9CF7BF2EACF7CF21200B16F030EB223E4
:102890000350B125AF6F000EB221B06FAFC2E6FF9B
:1028A000B5D8E66E0350EA6A12000250040DE2D871
:1028B000330EE926000EEA221200E66E030E06EF42
:1028C00015F0EAEC1CF0FBC1F3F1FCC1F4F1FDC121
:1028D000F5F1FEC1F6F10101F3511200D950040FD8
:1028E00000EF15F0025065D8EF50120002500E0DA7
:1028F000C1D8000EE926030EEA221200AF6F030EC4
:10290000B023AFC2E6FFB0C2E6FFD8EC0DF042E95B
:10291000120088D800EBE6FF85D88B8012000101F9
:10292000EA6AB325E96EB451EA22EFCFE6FF12005E
:10293000F76A2E0FF66E000EF7220800F5CFE6FFBD
:102940001200060EF66E000EF76E08001200E66E1C
:10295000BCEC0DF041E91200E66EE66A020EE66E8E
:1029600016EF15F00101EA6AF325E96EF451EA2247
:102970001200E96E000E0520EA6EEFCFE6FF1200AE
:10298000010EE66E1B0E12007FD8030E6FD86BD8B7
:10299000040E30EF15F002017927000E7A230201B0
:1029A00030DFEF50120002017D6F02012ADF3FEF9E
:1029B00014F0590D5FD8000EE926010EEA2212002C
:1029C00063D8070E53D84FD8080E4AD8090E120004
:1029D0005BD8E9CFF3F1EACFF4F101EF14F043D87B
:1029E000050E49DFEF50FF0812003DD8060E43DF09
:1029F000EF50FF08120025DFEEEC19F046E9120057
:102A0000E96E000EDA20EA6EEF501200E66ED8ECA6
:102A10000DF042E91200E66EF7DE0101C551C52B4B
:102A2000E66E120024EC1DF041E912006EEC0DF090
:102A300043E9120018D80D0E3BEF14F0A1DF17EF99
:102A400014F011D8EF501200DFDE0AEF14F0EFCFD0
:102A5000E6FF04EF14F0EA22E552E750EF6E1200B1
:102A60000ADF3FEF15F0CDDEEE52120004DFEFCFAC
:102A700081F21200F3CFE9FFF4CFEAFF1200EFCFAB
:0E2A800082F2BFDE35EF14F0020133EF15F0E5
:022A8E002055D1
:102A90006E6963617374204661696C6564000D0A38
:102AA000556E6963617374204661696C65640D0AD3
:102AB000003A20002066726F6D2000556E696361D8
:102AC0007374205061636B65742077697468205259
:102AD000535349200042726F6164636173742050E4
:102AE00061636B6574207769746820525353492081
:102AF0000053656375726564200020436F6E6E65D8
:102B000063746564205065657220206F6E20436891
:102B1000616E6E656C20256400436F6E6E65637434
:102B2000696E67205065657220206F6E2043686172
:102B30006E6E656C2025642000206973206E6F74B2
:102B400020737570706F7274656420696E20637590
:102B50007272656E7420636F6E646974696F6E2E35
:102B60000D0A000D0A53656C656374696F6E206F02
:102B700066206368616E6E656C20000D0A0D0A00A8
:102B80000D0A20202020202020202020202020206E
:102B900020202020202020626520746F67676C65EC
:102BA000642075706F6E20726563656976696E6703
:102BB000206D657373616765732E20000D0A2020F8
:102BC0002020202020202020202020202020202005
:102BD0002020203220746F20756E69636173742029
:102BE000656E63727970746564206D657373616777
:102BF000652E204C454420322077696C6C000D0A0C
:102C000020202020202020202020202020202020C4
:102C10002020202020427574746F6E203120746F44
:102C20002062726F616463617374206D6573736198
:102C300067652E205075736820427574746F6E003E
:102C40000D0A2020202020202020202020202020AD
:102C500020202020202020746F20696E6469636129
:102C6000746520636F6E6E656374696E6720776943
:102C7000746820706565722E2050757368000D0AA7
:102C80002020202020202020202020202020202044
:102C90002020202020506F776572206F6E2074688E
:102CA0006520626F61726420756E74696C204C459A
:102CB000442031206C6967687473207570000D0AB8
:102CC00020202044656D6F20496E737472756374A3
:102CD000696F6E3A000D0A202020202052462054B1
:102CE00072616E736365697665723A204D52463241
:102CF000344A3430000D0A202020202020202020BB
:102D000020202020204C454420323A2052413100DE
:102D10000D0A2020202020202020202020202020DC
:102D20004C454420313A20524130000D0A202020E9
:102D30002020202020202020202020202020202093
:102D40002020525332333220706F7274000D0A4FBC
:102D5000757470757420436F6E66696775726174FF
:102D6000696F6E3A000D0A202020202020202020AC
:102D70002020427574746F6E20323A205242340023
:102D80000D0A2020202020202020202020427574A1
:102D9000746F6E20313A20524235000D0A496E7030
:102DA000757420436F6E66696775726174696F6EC2
:102DB0003A000D0A5374617274696E67204E6F6435
:102DC000652032206F662053696D706C6520446504
:102DD0006D6F20666F72204D69576928544D292008
:102DE00050524F20537461636B202E2E2E00536976
:102DF0006D706C65204D6957692050524F204D52BF
:102E00004632344A3430204E6F64652032000D0A59
:102E10005363616E204368616E6E656C2000536879
:102E20006F7274416464723A002050414E49443AD2
:102E3000004368616E6E656C3A002020000D0A4107
:102E40007661696C61626C65206E6F6465730D0AF2
:102E500048616E646C652052582044432050414EB6
:102E600049442041444452204C4F4E475F41444422
:102E7000522020202020202020504545525F494EDE
:102E8000464F0D0A0020204368616E6E656C3A2043
:102E900000202050414E49443A2000202053686FC2
:102EA000727420416464723A20000D0A0D0A416474
:102EB00064726573733A203078000D0A4A6F696E48
:102EC00020746865206E6574776F726B207375630C
:0C2ED0006365737366756C6C790D0A0005
:042EDC00D9CFE6FF65
:102EE000DACFE6FFE1CFD9FFE2CFDAFF82E946E8A9
:102EF000036A046A056A066A92EC1AF0C2EC1BF0D7
:102F0000010EE66EE66AEE0EE66E2D0E66D9B20E84
:102F1000E66E2D0E38D99B0EE66E2D0E34D9800E3E
:102F2000E66E2D0E30D9650EE66E2D0E2CD94D0EA7
:102F3000E66E2D0E28D92B0EE66E2D0E24D9100E1E
:102F4000E66E2D0E20D9F50EE66E2C0E1CD9D50E90
:102F5000E66E2C0E18D9BE0EE66E2C0E14D97E0E1F
:102F6000E66E2C0E10D9400EE66E2C0E0CD9FE0E1D
:102F7000E66E2B0E08D9BC0EE66E2B0E04D9800E21
:102F8000E66E2B0E00D97B0EE66E2B0EFCD88990D8
:102F90008992E66A26EC06F041E9B9C2E6FFCFEC79
:102FA00006F041E900090EE1630EE66E2B0EEBD848
:102FB000B9C2E6FF01EC1CF041E9390EE66E2B0EBA
:102FC000E2D8DBD0E66AE4EC06F041E9E66AB9C291
:102FD000E6FF190EE66E2B0E00D9E66AE66890EC65
:102FE00007F042E9026EFF0E025CF7E0010EE66EAA
:102FF000B9C2E6FFFA0EE66E2A0EEFD8E6683FEC9D
:1030000004F041E9898098EC08F0000955E00201DC
:1030100001A704D0F10EE66E2A0EB5D802010151C7
:10302000030B000904E0D50EE66E2A0E03D0BB0E9A
:10303000E66E2A0EA8D809C2E6FFEFEC1BF041E9C4
:10304000020101AD1ED0B40EE66E2A0E9CD802011C
:1030500001AF0CD0010EA4D804C2E9FF05C2EAFFFB
:10306000EFCFE6FFEFEC1BF041E90BD0026A080E50
:10307000025C07E2070ED8800254020191D8022AAE
:10308000F6D7B10EE66E2A0E7ED8026A020108510A
:10309000025C0DE20250EA6A0625E96E0751EA2257
:1030A000EFCFE6FFE1EC1BF041E9022AEFD789728E
:1030B000A0EC08F0062A59D0B4EC1AF0076E0750BD
:1030C000020A24E0030A9FE102010B0E486F73D845
:1030D000000902E198D811D0026A150E025C0DE2D7
:1030E0006AD8FF0F150DF3CFF3F1F4CFF4F1820E90
:1030F0000101F327380E76D8F0D7032AE66AA4EC4C
:1031000008F041E906EBE6FF052A31D002010B0E7B
:10311000486F5AD8000902E176D811D0026A0B0E26
:10312000025C0DE251D8FF0F0B0DF3CFF3F1F4CF9A
:10313000F4F1EB0E0101F327380E54D8F0D7042A2E
:10314000010EE66EE66AD3EC08F042E900090CE1F4
:103150009E0EE66E2A0E17D8010EE66EE66A8E0EF9
:10316000E66E2A0E3AD801D0052A06EBE6FF05EBFB
:10317000E6FFACEC1AF042E946D747E9E5CFDAFFC3
:10318000E7CFD9FF1200E66ECBEC1BF042E912004C
:103190004851482BEA6A000FE96E000EEA2212003D
:1031A000EA6A0425E96E0551EA22EFCFE6FFEFEC6B
:1031B0001BF041E91200060EE66E03EBE6FF52EC4F
:1031C0001BF041E9E7501200060EE66E04EBE6FF45
:1031D00052EC1BF041E9E7501200E66EB0EC1AF039
:1031E00044E91200F4230250F76AF325F66EF45115
:1031F000F7220800F550E66E0201CADFE552E750FB
:10320000EF6E022A12000201C3DF0D0EEF6EC0DF67
:063210000A0EEF6E120031
:0A321600D9CFE6FFDACFE6FFE1CFE3
:10322000D9FFE2CFDAFF86E944E801D056D000EBBF
:10323000E6FF01EBE6FF02EBE6FF03EBE6FF280EFD
:10324000E66EE66AE66AE66A71EC1BF0E552E5CFE7
:10325000F6F1E5CFF5F1E5CFF4F1E7CFF3F10101B8
:10326000F351066EF451076EF551086EF651096E72
:10327000D950060FE96E000EDA20EA6EAF0EEE5E50
:10328000000EEE5A000EEE5A000EEE5A093408E215
:1032900006502D08000E0754000E0854000E095465
:1032A00001E31BD0093408E206500008000E075461
:1032B000000E0854000E095410E20000D950060F09
:1032C000E96E000EDA20EA6E2A0EEE5E000EEE5A6D
:1032D000000EEE5A000EEE5AE5D745E9E5CFDAFFCB
:1032E000E7CFD9FF1200D9CFE6FFDACFE6FFE1CF73
:1032F000D9FFE2CFDAFF84E944E800EBE6FF01EB17
:10330000E6FFE66AE66AA00EE66E0F0EE66EE66A75
:10331000E66A71EC1BF0E552E5CFF6F1E5CFF5F189
:10332000E5CFF4F1E7CFF3F10101F351046EF4516D
:10333000056EF551066EF651076ED950040FE96E11
:10334000000EDA20EA6EAA0EEE5E000EEE5A000EB5
:10335000EE5A000EEE5A073408E20450C308000E7D
:103360000554000E0654000E075402E31CD01BD077
:10337000073408E204500008000E0554000E0654FD
:10338000000E075410E20000D950040FE96E000E41
:10339000DA20EA6E270EEE5E000EEE5A000EEE5AAE
:1033A000000EEE5AE5D745E9E5CFDAFFE7CFD9FFC2
:0233B000120009
:0E33B20095D888E9005001100EE09ED8A69E26
:1033C000A69CA68038EC00F0A1D8A8CFEFFF00069D
:1033D000015A022A0322EFD741E98AD080D888E92E
:1033E00041E80050011020E088D890D8EF50A86E36
:1033F000A69EA69CA684F250800B01E0010E086EEA
:10340000F29E550EA76EAA0EA76EA6820850E8B0CF
:10341000F28EE8A0F29EA6B2FED7A6940006000E99
:10342000015A022A0322DDD742E962D058D886E940
:10343000DA0EE96E010EEA6E0101EE500224F36F1E
:10344000ED500320F46FF3510008040EF45502E22E
:10345000000E0ED000EBE9FF01EBEAFFDAC1EEFF50
:10346000DBC1EDFF01010250DA270350DB23010E1F
:1034700041E93ED034D882E941E8010E026E0101F3
:10348000DA6BDB6BCC0EE66E010EE66E020E21D817
:10349000CE0EE66E010E42D8D00EE66E010E3ED87C
:1034A000D20EE66E010EE66E8C0E13D8D40EE66ECA
:1034B000010EE66E040E0DD8D60EE66E010EE66E17
:1034C000020E07D8D80EE66E010E28D8025042E947
:1034D0000FD0E66EE66AAADF44E902161200D9CFE1
:1034E000E6FFDACFE6FFE1CFD9FFE2CFDAFF120045
:1034F000E5CFDAFFE7CFD9FF1200010103EBF3F1CB
:10350000F46BF3C1AAFF02EBA9FF120004EBE9FF81
:1035100005EBEAFF042A000E05221200E66E010EFA
:0435200069EF1AF045
:0C352400D190F26AF16AF06A9368FD0E23
:103530008B6ED00E946EC00EC76E200EC66E0F0E30
:10354000C16E040E896EF80E926E8B809490F2928A
:10355000D08EF19CF28E12007BD884E941E98ED0A6
:1035600077D886E941E98AD073D882E948E881BAF8
:1035700006D000015B514BE174D8010E49D081B8EF
:1035800006D000015B5143E16CD8020E41D0EAEC59
:103590001CF0FBC1F3F1FCC1F4F1FDC1F5F1FEC17A
:1035A000F6F10101F351066EF451076EF551086E04
:1035B000F651096ED950060FE96E000EDA20EA6E58
:1035C00000015C51EE5C0101F36F00015D51EE58AA
:1035D0000101F46F00015E51EE580101F56F000129
:1035E0005F51EE580101F66FF351026EF451036E14
:1035F000F551046EF651056E0250FF083F0E03545C
:10360000000E0454000E055402E200015B6B000E34
:1036100049E934D0F250100B04E0F250020B01E003
:10362000F292F050100B04E0F050020B01E0F09227
:10363000F250080B04E0F250010B01E0F290A050B0
:10364000020B05E0A150020B02E0A192897012006A
:10365000D9CFE6FFDACFE6FFE1CFD9FFE2CFDAFF3D
:103660001200010E5B6FEAEC1CF0FBC15CF0FCC1C8
:103670005DF0FDC15EF0FEC15FF01200E5CFDAFF44
:06368000E7CFD9FF1200A4
:0A36860042E8D9CFE6FFDACFE6FFF5
:10369000E1CFD9FFE2CFDAFF86E9036A1200F3DF58
:1036A000038003D0F0DF01D00382026A080EE76EC8
:1036B000D890013602360050025C02E3026E012A05
:1036C000E72EF7D703B2120003B081EB00F003A09E
:1036D00082EB00F0E552E5CFDAFFE7CFD9FF43E90F
:1036E000120044E8D9CFE6FFDACFE6FFE1CFD9FFF9
:1036F000E2CFDAFF8EE980EB08F081EB09F082EB94
:103700000AF083EB0BF004500802F350006EF45003
:10371000016E04500902F3500126000EF420026EDF
:1037200004500A02F3500226000EF420036E0450E7
:103730000B02F350032605500802F3500126F45003
:103740000222000E032205500902F3500226F45013
:10375000032205500A02F350032606500802F350D4
:103760000226F450032206500902F35003260750A4
:103770000802F3500326E552E5CFDAFFE7CFD9FF81
:0437800048E9000C08
:0C378400948E949C240EAC6E900EAB6EE4
:10379000330EAF6E120061D884E941E800EBF6FF0A
:1037A00001EBF7FF002A000E01220800F550046E1D
:1037B000045005E004EBE6FF04D841E9EFD742E905
:1037C00055D04BD883E9ACA2FED700EBADFF41E961
:1037D0004DD0ABA202D0AB98AB88AE5012003DD812
:1037E00083E941E880EB03F000380F0B0F0B006E0C
:1037F000005028D80F0E0314006E005023D842E961
:1038000035D02BD883E9640E005C05E3640EE66EC8
:1038100000EBE6FF30D80A0E005C09E30A0EE66E04
:10382000640EE66E00EBE6FF52EC1BF024D80A0EA5
:10383000E66E00EBE6FF52EC1BF041E9E75002D8E0
:1038400041E914D0F76A1E0FF66E000EF722080049
:10385000F5CFE6FFB6DF41E91200D9CFE6FFDACFB8
:10386000E6FFE1CFD9FFE2CFDAFF1200E5CFDAFFC2
:10387000E7CFD9FF12004FEC1BF041E9E75022EFF0
:023880001CF03A
:0E38820020B2202020B22020B220B220202030
:103890002020B220B20D0AB220B220B220B22020E5
:1038A00020B22020B22020B220200D0AB22020B267
:1038B0002020B220B220B22020B22020B220B20DAF
:1038C0000AB22020B22020B220B22020B220B220A2
:1038D000B22020B20D0AB22020B22020B220B220A5
:1038E0002020B220B2202020B20D0AB2B2B2202095
:1038F000B2B2B2B20D0AB22020B220B22020200D06
:103900000AB22020B220B2B2B2B20D0AB22020B266
:1039100020B22020200D0AB2B2B22020B2B2B2B240
:023920000D0A8E
:0E3922003E0EF66E000EF76E000EF86E0101FE
:103930000900F550EE6F0900F550EF6F03E1EE67F7
:1039400001D03DD00900F550E96F0900F550EA6F4C
:103950000900F550EB6F09000900F550E96E090008
:10396000F550EA6E090009000900F550EC6F0900F6
:10397000F550ED6F09000900F6CFF0F1F7CFF1F146
:10398000F8CFF2F1E9C1F6FFEAC1F7FFEBC1F8FFAA
:103990000101EC5302E1ED5307E00900F550EE6E32
:1039A000EC07F8E2ED07F9D7F0C1F6FFF1C1F7FF38
:1039B000F2C1F8FF0101EE07000EEF5BBFD7120066
:1039C000050ED56EF184F294F28AD58E0201B66BA3
:1039D000B76B1200D9CFE6FFDACFE6FFE1CFD9FF10
:1039E000E2CFDAFF82E946E8046A056AF29AF25009
:1039F000040B01E0010E066ED650026ED750036E26
:103A0000F250040B01E0010E076E0750065CEFE177
:103A1000065006E0F2940201B62BB65101E1B72B35
:103A20000201B6510426B7510526F28A02EBFBF1DA
:103A300003EBFCF104EBFDF105EBFEF147E9E5CF0B
:083A4000DAFFE7CFD9FF120005
:083A4800D9CFE6FFDACFE6FF5B
:103A5000E1CFD9FFE2CFDAFF83E941E89E96C95072
:103A6000036EC69E00EBC9FFC6BEFBD79EA6FED75F
:103A700042E9E5CFDAFFE7CFD9FF1200E66AE4DFDB
:063A800041E9C9501200EB
:0A3A860078000000B40000002C01DD
:103A900000001C020000FC030000BC0700003C0FFB
:103AA00000003C1E00003C3C00003C7800003CF064
:103AB00000003CE001003CC003003C8007003C00EB
:023AC0000F00F5
:0E3AC200800EF36E00EE00F00F0E01D8120021
:103AD000EA6002D0EE6AFCD7F350E9601200EE6AA9
:023AE000FCD711
:0E3AE2001EEE00F02EEE00F0F86A91EC1CF0E3
:0C3AF00007EC00F06EEC17F0FBD71200A2
:043AFC000277665592
:093B0000443322110000FF001102
:020000040030CA
:0100010006F8
:010002001FDE
:0100030016E6
:01000500807A
:01000600C138
:00000001FF
