:020000040000FA
:0600000008EF29F01200D8
:020006001200E6
:06000800F2EF11F01200FE
:02000E000001EF
:06001000020304050607CF
:020016001200D6
:06001800F2EF11F01200EE
:02001E000400DC
:10002000585200007D0200000200000056520000FD
:100030007B02000002000000545200007902000020
:10004000020000004B5200006C020000090000009A
:100050000000120092EC0DF049E800EBE6FFD6CF6D
:10006000E6FF1DEC24F041E9E750026E025027E064
:10007000020639EC0BF0036E5551046E5651056EB5
:100080005751066E39EC0BF0076E5551086E5651FC
:10009000096E57510A6E07EB58F208EB59F209EB5B
:1000A0005AF20AEB5BF2D950030F64EC0BF0D880E4
:1000B000270E5455000E9EEC0DF0E4E2D7D74AE926
:1000C000E7CFD9FF120084EC0BF081E955E8C7ECCB
:1000D00010F0000901E118D30001ADB591D3616BB7
:1000E000C951040B01E0010E030BF36EFC0E611508
:1000F000F310616FC9516197080B01E06187C95125
:10010000030B010802E1010E01D0000E619BE8B073
:10011000618BC951619D800B01E0618DC9AF05D034
:10012000618FCAC064F0CBC065F0D0C06AF0CFC0A8
:1001300069F0AD95C951030B010A01E15AD2020AD7
:1001400001E1BBD1030A01E0DAD2016A050E015CCC
:100150000AE28AEC0DF0EF50000803E28AEC0DF0A1
:10016000EF06012AF3D70001CE5169E00A0ECE5DF9
:1001700001E2C5D2020E4DEC0BF00A6E030E4DECFF
:100180000BF00B6E040E4DEC0BF0106E050E4DECEB
:100190000BF0116E060E4DEC0BF00C6E070E4DECD5
:1001A0000BF00D6E080E4DEC0BF00E6E090E4DECC3
:1001B0000BF00F6EC9516197080B01E06187615127
:1001C000030B000906E11050FC08FF0E115401E377
:1001D00074D09D510E180AE19E510F1807E19F51EE
:1001E0000C1804E1A0510D1801E189D2101C01E0A6
:1001F00086D2111C01E083D2016A050E015C1BE26C
:100200008AEC0DF0EF5015E07EEC0BF00E50EE187E
:1002100010E10F50ED180DE17EEC0BF0D7EC0BF078
:10022000EFCF54F20A0E00014DEC0BF00201545DC9
:1002300002E0012AE2D7050E015C03E20001AD9B5A
:100240005ED2016A050E015C06E28AEC0DF0EF5009
:1002500002E0012AF7D7050E015C14E27EEC0BF0F8
:100260000EEBEEFF0FEBEDFF0A0EA4EC0DF07EECB3
:100270000BF0D7EC0BF0E552E750EF6E8AEC0DF087
:10028000030EEF6E101C06E1111C04E100016181F8
:10029000619348D0FE0E101806E1FF0E111803E11D
:1002A0000001618108D0FD0E10183CE1FF0E11180D
:1002B00039E100016191618335D09F510A1801E055
:1002C0001ED2A0510B1801E01AD29D51101801E066
:1002D00016D29E51111801E012D2010E4DEC0BF016
:1002E000040B20E0AAEC0CF00CEB02F00DEB03F099
:1002F0000EEB04F00FEB05F0C4EC0BF00A0E00015E
:1003000030EC0DF0EFCF0AF000010B6B300E0C6FEC
:1003100000010D0E9C6FC66BC68BA15172EC0DF0E7
:10032000000161850B0E00014DEC0BF001E09AD04D
:100330000C0E4DEC0BF0300801E183D00C0E4DECAF
:100340000BF0420A01E17BD0020A59E0510A01E0B8
:10035000D6D1126A040E125C0BE20B0E1224020FAD
:100360004DEC0BF0E66E1250E7EC0BF0122AF2D7D0
:100370008D0EAE6F110E4DEC0BF0800B01E0AE91C7
:10038000110EC4EC0CF0120EC4EC0DF093DB000166
:10039000BA6FFF0EBA5D08E0BA511BEC0DF0EFCF5B
:1003A000AEF0AE85AE8704D08D0EAE6FA6BFAE9117
:1003B000D4DB0001BA6FFF0EBA5D1EE2126A010EB5
:1003C000125C0CE2130E1224A4EC0DF0BA51FDECF9
:1003D0000DF0125036EC0DF0122AF1D70A0EE66E2F
:1003E000E66A0001BA5145EC0CF00001BA511EEC6E
:1003F0000CF00001B98101D0B991B99380D10D0EF3
:100400004DEC0BF00201705D01E079D101EC28F0B8
:10041000F8C1B5F0F9C1B6F0FAC1B7F0FBC1B8F058
:100420000001B0830E0E4DEC0BF01F0BF36EF34684
:10043000F346F346070EB015F310B06F60D1AD9DD3
:100440005ED10A0E4DEC0BF00201725D08E1000175
:10045000AA510E1804E1AB510F1801E1AD970E50EF
:1004600080084DD1AD9B0B0ECE5D686F0B0ECC2579
:10047000666F000ECD21676F0CEB62F00DEB63F041
:10048000080E4DEC0BF0FF080AE1090E4DEC0BF0E5
:10049000FF0805E1CAC064F0CBC065F007D0618FEA
:1004A000080ECC25646F000ECD21656F618D6851FB
:1004B000000801E324D1AD8522D1040E136E13246C
:1004C0004DEC0BF05D0807E0040E13244DEC0BF02F
:1004D0004D0801E014D1ADA112D1CCC0E9FFCDC0CF
:1004E000EAFFEFCFA8F0010E30EC0DF0EFCFA9F04E
:1004F000020EC4EC0CF0030E7AEC0CF013504DEC31
:100500000BF0FF0801E0FBD013284DEC0BF0146E4C
:10051000040E6B5D01E3F3D054EC0CF0F8EC0CF03E
:1005200001E2EDD048EC0EF070C2EFFF48EC0EF0A7
:10053000070E07EC0EF069C0EFFF48EC0EF07CEC04
:100540000BF06AC0EFFF6B51E2EC0DF0A8C0EEFFBC
:10055000A9C0EDFF2CEC0DF0EF6A2CEC0DF0EF8C48
:1005600054EC0CF0060BE8420201546F00012CEC35
:100570000DF002015451030BF36EFC0EEF14F31057
:10058000EF6E54EC0CF0080B04E000012CEC0DF0C5
:10059000EF8654EC0CF0F8EC0CF004E300012CECCA
:1005A0000DF0EF8A016A040E015C0FE201500001B8
:1005B000EA6A6425E96E6551EA22EF50E66E6B51F6
:1005C000B2EC0DF039EC0EF0EED7016A010E015CD1
:1005D0000DE2060E13240124A4EC0DF048EC0EF0FD
:1005E0000A0E95EC0BF039EC0EF0F0D700016B2BF6
:1005F00086D0CCC0E9FFCDC0EAFFEF50030A57E038
:10060000010A01E07CD0030E4DEC0BF046E1010E37
:1006100030EC0DF0EFCF9DF0020E30EC0DF0EFCF8F
:100620009EF0ADEC0BF00001AD83BF0EAE6F016A22
:10063000040E015C03E266EC0DF0FAD7A66B050E22
:10064000C4EC0DF08ADA0001A16FA151EDEC0BF0C2
:10065000016A010E015C0AE2040E0124A4EC0DF013
:10066000A151FDEC0DF039EC0EF0F3D701EC0EF0DA
:1006700078EC0DF081EC0BF00A0EE66EE66A0001F4
:10068000A15145EC0CF00001A1511EEC0CF0A60E9E
:10069000E66E3F0ED9EC0BF032D0A1699F69A069DC
:1006A0005FEC0CF081EC0BF0A2EC0BF026D0ADA3CC
:1006B00026D0016A040E015C03E266EC0DF0FAD765
:1006C0001DDA156EFF0E155C1AE01550ECEC0DF0FE
:1006D000200B15E0016A0A0E015C05E2015012ECE4
:1006E0000EF0012AF8D780EC0DF081EC0BF078ECDD
:1006F0000DF001EC0EF0B9EC0BF046EC0DF0000142
:10070000ADB502D0C8EC11F039EC0BF0026E5551CA
:10071000036E5651046E5751056E0001ADA320D0F3
:10072000ADAB1ED0B0EC0CF09851EE5C0201546FF2
:1007300000019951EE580201556F00019A51EE588F
:100740000201566F00019B516DEC0CF0FF083F0E4B
:100750000754000E0854000E095402E20001AD9B3C
:100760000001B0A32AD0B0EC0CF0B551EE5C020150
:10077000546F0001B651EE580201556F0001B75198
:10078000EE580201566F0001B851EE580201576F42
:10079000D8802C0E5455310E5555010E5655000E6D
:1007A00057550BE20001B051F80BE842E842E8422D
:1007B000E66EA6EC0CF00001B06B0001B9A320D0EE
:1007C000B9B11ED0B0EC0CF0C251EE5C0201546F16
:1007D0000001C351EE580201556F0001C451EE589B
:1007E0000201566F0001C5516DEC0CF0C208C90E34
:1007F0000754010E0854000E095402E20001B99397
:1008000056E9E7CFD9FF120084EC0BF084E9000130
:10081000C66B0050030BF36EFC0EC615F310C66FCB
:100820000150021001E1C685C651040B02E0000E22
:1008300001D0010EC69BE8B0C68BC68F01EBC7F096
:1008400002EBC8F0DEEC0BF088EF0CF0A8EC0DF03A
:10085000016A0A0E015C08E2015051EC0EF002E15F
:10086000015003D0012AF5D7FF0E5BEF0CF092EC9C
:100870000DF042E8FF0E005C28E1960EE66E3F0E9A
:10088000D9EC0BF0026A040E025C0CE2030ED88075
:100890000254EA6A6C0FE96E020EEA22CDEC0BF00C
:1008A000022AF1D7870EE66E3F0ED9EC0BF08CECE6
:1008B0000CF07D0EE66E3F0ED9EC0BF093EC0CF0D5
:1008C000710EE66E3F0EE5EC0DF0290EE66E3F0E62
:1008D000D9EC0BF0FF0E005C62E1026A0A0E025CCA
:1008E00001E3AED0025051EC0EF057E002EBE6FF10
:1008F000AEEC0DF01EEC0DF01EEC0DF058EC0EF011
:100900000250ECEC0DF0010B02E0590E01D04E0E3E
:10091000EFEC0DF00250ECEC0DF0020B02E0590E82
:1009200001D04E0EEFEC0DF00250ECEC0DF0080B88
:100930000FE002507BEC0DF0CDEC0BF002501CEC04
:100940000EF0025020EC0EF0025025EC0EF002D01A
:100950004BEC0EF041E958EC0EF00250ECEC0DF0CF
:10096000040B08E0036A040E035C04E202505FEC2F
:100970000DF0F9D758EC0EF0036A040E035C03E2A5
:10098000CAEC0DF0FAD7036A010E035C04E20250D0
:1009900075EC0DF0F9D7D0EC0DF0022A9FD700507E
:1009A00051EC0EF04DE000EBE6FFAEEC0DF01EEC6E
:1009B0000DF0200E54EC0EF0010B02E0590E01D0A8
:1009C0004E0E54EC0EF0020B02E0590E01D04E0E0A
:1009D00054EC0EF0080B0FE000507BEC0DF0CDEC6A
:1009E0000BF000501CEC0EF0005020EC0EF000500C
:1009F00025EC0EF002D04BEC0EF041E958EC0EF075
:100A00000050ECEC0DF0040B08E0036A040E035CEC
:100A100004E200505FEC0DF0F9D758EC0EF0036AD9
:100A2000040E035C03E2CAEC0DF0FAD7036A010E70
:100A3000035C04E2005075EC0DF0F9D7D0EC0DF03A
:100A400008EF0DF0A8EC0DF00001B99101EC28F0D1
:100A5000F8C1C2F0F9C1C3F0FAC1C4F0FBC1C5F0DE
:100A60000001A66BA76BB9EC0DF0100EEF6E016ADA
:100A7000040E015C09E20150EA6A6C0FE96E020E95
:100A80005AEC0DF0012AF4D7016A010E015C05E26F
:100A900001502AEC0EF0012AF8D7E66AE66AA60EA3
:100AA000E66E000EE66E69EC09F044E90001B983D8
:100AB0005BEF0CF0A8EC0DF0016A0A0E015C1BE282
:100AC000015051EC0EF015E00150ECEC0DF0080B6C
:100AD00010E015EC0EF00CEC0DF00001A651020137
:100AE000541907E10001A7510201551902E1015013
:100AF00003D0012AE2D7FF0E5BEF0CF084EC0BF081
:100B000081E942E8016A0A0E015C24E2015051ECDD
:100B10000EF01EE00150ECEC0DF0040B19E0026A3F
:100B2000040E025C13E2BFEC0DF0EACF56F2025065
:100B30000201EA6AE924E96E5651EA22EFCF54F243
:100B4000C8EC0CF0545D04E1022AEAD7015003D04E
:100B5000012AD9D7FF0E08EF0DF084EC0BF081E9E4
:100B600042E801680001AEA502D0C8DF03D0AEA7FD
:100B700002D0A0DF016EFF0E015C02E167DE016EB4
:100B8000FF0E015C2BE001501BEC0DF0AEC0EFFF3F
:100B90000001AEA510D0026A040E025C0CE2C8ECA3
:100BA0000CF0E66EBFEC0DF0EACF55F2025036ECD9
:100BB0000DF0022AF1D70001AEA706D015EC0EF019
:100BC000A6C0EEFFA7C0EDFF015032EC0BF0A8C0AD
:100BD000EEFFA9C0EDFF0150EDEC0BF0015008EF66
:100BE0000DF084EC0BF085E941E8056A040E055C24
:100BF00014E205500224A1EC0CF0EFCF54F20550A2
:100C00000024E96E000E0120EA6EEF500201545DEF
:100C100002E0000E03D0052AE9D7010E5BEF0CF0CD
:100C2000A8EC0DF000019C51016E9C6B74EC0BF074
:100C3000040EEF6E74EC0BF09DC0EFFF74EC0BF044
:100C40009EC0EFFF010EE66E880EE66E010EE66EA8
:100C5000DBDD43E9000910E00001AD8B01EC28F079
:100C6000F8C198F0F9C199F0FAC19AF0FBC19BF074
:100C700001EB9CF0010E03D001EB9CF0000E5BEF4A
:100C80000CF092EC0DF044E8B5EC23F000019D6906
:100C90009E69340E9F6F120EA06F056A0A0E055CE6
:100CA00005E2055012EC0EF0052AF8D70001AD6BF5
:100CB000AF6BB96B606BF7EC27F000019C6B056ABA
:100CC000050E055C08E205500BEC0EF086EC0CF00E
:100CD000EF6A052AF5D7056A0A0E055C05E205509C
:100CE000EDEC0BF0052AF8D7005048E006EC0CF0CC
:100CF000BCEC0CF0200E0201705D09E289EC0BF0F7
:100D0000BCEC0CF000019D1D04E19E1D02E1000EF3
:100D10006BD0A2EC0BF0E66EBCEC0CF012EC0CF01D
:100D2000BCEC0CF0F8EC0BF0B9EC0BF0E66EBCECA4
:100D30000CF089EC0BF0BCEC0CF0F2EC0DF0E66E74
:100D4000BCEC0CF01D0EE66E3F0EE5EC0DF0150E42
:100D5000E66E3F0ED9EC0BF093EC0CF00A0EE66E4B
:100D60003F0ED9EC0BF08CEC0CF070C2E6FFA6EC59
:100D70000CF0ADEC0BF00001AD8310D001EC0EF0E7
:100D800006EC0CF018EC0EF012EC0CF018EC0EF077
:100D90003DEC0EF078EC0DF081EC0BF0026A02965F
:100DA0000298028A029C028200500294E8B00284F7
:100DB0006C0E036E020E046E02EBE6FF03EBE6FF21
:100DC00004EBE6FF88EC0FF043E9ADEC0BF070C2EA
:100DD000E6FFA6EC0CF000016087F8EC0BF0D6CF34
:100DE000ACF0F094F08A010E45E9E7CFD9FF12008C
:100DF00092EC0DF041E80050020A19E0030A10E0FD
:100E0000010A2AE10001AFA704D03DEC0EF0000179
:100E1000AF97E66A11EC0DF00EE00001AD8F1AD02D
:100E2000E66811EC0DF007E00001AD9F13D0E66815
:100E300011EC0DF002E1010E10D00001AD9FF0DECB
:100E4000000902E1020E09D00001ADAB03D063EC52
:100E500000F0FAD7000E01D0FF0E5BEF0CF092EC21
:100E60000DF0E66A00EBE6FF4CEC0FF042E90009FA
:100E700008E000EB70F206EC0CF018EC0EF0010E3E
:100E800001D0000E88EF0CF092EC0DF0005003083A
:100E900009E300EB71F2F8EC0BF012EC0CF041EC12
:100EA00023F046E988EF0CF084EC0BF086E94EE87D
:100EB000010E076E086A096A0A6A020170510B6E18
:100EC000066A040E065C05E20650E0DBEF68062ABF
:100ED000F8D700016B6BAD81066A200E065C5CE200
:100EE00007EB54F208EB55F209EB56F20AEB57F216
:100EF00006501F0B04E002019AEC0CF0FDE12EEC11
:100F00000CF048E0FA0EE66E3E0ED9EC0BF006EB64
:100F1000E6FF92EC26F041E906EBE6FFA6EC0CF0CA
:100F2000E8EC0DF0070EEF6EDFDB70C2EFFF010E95
:100F3000E66E000EE66EE66A67DC43E99ADBD0EC0B
:100F40000CF0C0EC0CF001E026D993DBD8EC0CF0EF
:100F500010EB58F211EB59F212EB5AF213EB5BF271
:100F6000D9500C0FB1DB0450040DF3CFF6FFF4CFD2
:100F7000F7FF420EF626510EF72254510900F55C98
:100F800055510900F55856510900F55857510900B7
:100F9000F558D7E2062AA1D70BEBE6FFA6EC0CF03A
:100FA0000001AD916B514FE9E7CFD9FF1200ACDBE7
:100FB00083E94AE8030E036E00041CE15ADBE0EC0F
:100FC0000CF040DD0001B9A311D0C0EC0CF001E041
:100FD000E2D838EC0DF0F6E223DE89EB05F08AEB7F
:100FE00006F08BEB07F08CEB08F0ECD7B9A1C2D080
:100FF000BA51C5D0005001E0C1D0FF0E015C20E124
:101000000201010E546F556B566B576B0201705104
:101010001F0B04E002019AEC0CF0FDE154C2E6FF64
:1010200055C2E6FF56C2E6FF57C2E6FF0A0EE66E5D
:101030003BDF45E9000903E10306E2E19BD0016AD9
:101040000150E2EC0DF0EECFA8F0EDCFA9F0046A6C
:10105000040E045C0BE20150B2EC0DF004506BDBAB
:10106000EF50E66E0450B3DB042AF2D747DD0001EF
:10107000A16FFF0EA15D07E126EC04F00001A16F56
:10108000FF0801E177D0A15112EC0EF00150E2EC23
:101090000DF00CEC0DF0A151E5DA54C2EEFF55C293
:1010A000EDFF046A040E045C09E20150EFDAEE522F
:1010B00049EC0DF0040E30EC0EF0F4D70001A15114
:1010C0001BEC0DF0EF84046A010E045C0BE201508E
:1010D000DDDA0A0E07EC0EF049EC0DF0090E30ECEB
:1010E0000EF0F2D70001A1511BEC0DF0EF82A151DF
:1010F0001BEC0DF0EF8AA1511BEC0DF0EF800150BD
:10110000C5DAEFCFE6FFA6EC0CF00001A151AADA98
:10111000EECF9FF0EDCFA0F0D2DBE8EC0DF0010EAA
:10112000EF6EE2DA60C0EFFF046A010E045C05E2D4
:1011300004502AEC0EF0042AF8D7010EE66EA151F5
:1011400091DA040EF2DAE9CFE6FFEACFE6FF04EC2B
:1011500004F043E98EDAE0EC0CF00001A151ECEC74
:101160000DF0100B09E1C0EC0CF001E014D838ECE4
:101170000DF0F3E2FF0E03D0A15101D0FF0E4BE9B9
:10118000E7CFD9FF120063EC00F00001AD51040B72
:1011900001E0010E12000001AD95C8EF11F092ECD4
:1011A0000DF000EBE6FF010EE66E02D842E9B0D387
:1011B000ABDA83E9CFDB9FC002F0A0C003F001509F
:1011C000020A0AE0010A06E0020A02E0000E15D057
:1011D000046904D0FE0E01D0FD0E046F0569D4DA57
:1011E0000001D5EC0DF0C6850050C697E8B0C68763
:1011F000020E015C01E1C68FE1DA8AD385DA83E968
:1012000049E8015051EC0EF05DE0020173510FE02E
:1012100000010B510CE00001AD87ACC072F215EC7F
:101220000EF0EECFAAF0EDCFABF0060E03D000012A
:10123000AD97020E036E74C200F003EB01F0015093
:1012400011DAEFCF02F001507BEC0DF0EFCF03F09D
:1012500015EC0EF0EFCF04F015EC0EF0DCEC0DF019
:101260000FDBE8B0C68740EC0EF02AE00001AD517C
:10127000080B2AE015EC0EF0CFDB800E0201545D66
:1012800023E2F7D9046E5551056E5651066E57513B
:10129000076E76DB01E07FDF0001ADB702D0010E03
:1012A00014D0E7D995DB08EB58F209EB59F20AEBB9
:1012B0005AF20BEB5BF2D950040F04EC0EF0E9E2AA
:1012C0000001AD97000E01D0010E4AE9E7CFD9FF2A
:1012D00012001ADA85E953E8015030E1A7DBEFCFBD
:1012E000A6F002282EDBEFCFA7F00001A651FC08E4
:1012F000FF0EA75523E2FD0EA61902E1E868A71923
:1013000016E0FE0EA61902E1E868A7190CE0E868ED
:10131000A61901E0D3D0E868A71901E0CFD000EB0F
:10132000E6FF010E07D000EBE6FF030E03D000EB53
:10133000E6FF020EE66E3CDF42E9C3D002017351C4
:1013400009E000010B5106E00001AD87ACC072F26C
:10135000060E03D00001AD97020E076E015066E045
:10136000066A040E065C09E206500224EADAEF502F
:10137000E66E06502CDA062AF4D77EEC05F0056EF0
:10138000FF0E055C11E1E6DA02690369046905698B
:10139000FBD9000175DAE8B0C68702EBC7F003EBB2
:1013A000C8F0AD970BDA8DD00550ECEC0DF0080BC2
:1013B000EAE00201735106E005504BDBEECFAAF0E4
:1013C000EDCFABF074C200F007EB01F005504AD945
:1013D000EFCF02F005508FDBEFCF03F0055039DB84
:1013E000EFCF04F0055035DBE7DB000149DAE8B068
:1013F000C68740EC0EF060E00001ADA747D039D9B8
:10140000E7DABEDA01E0C7DE0001ADA73FD031D98F
:10141000C7DA0CEB58F20DEB59F20EEB5AF20FEB68
:101420005BF2D950080FF0DBECE246D074C200F05A
:1014300007EB01F09FC002F0A0C003F0F7DAEFCF96
:1014400004F002287EDAEFCF05F09ED9AC51AC2B28
:1014500000010A6FEBDAEFCFAAF0022872DAEFCFC1
:10146000ABF00001C66BC68B0050C697E8B0C687CC
:1014700040EC0EF021E00001ADA722D0FAD898DAB6
:101480007FDA01E088DE0001ADB702D0010E19D08D
:10149000F0D8146E5551156E5651166E5751176E81
:1014A00014EB58F215EB59F216EB5AF217EB5BF20C
:1014B000D950100FA9DBE4E20001AD97000E01D076
:1014C000010E54E9E7CFD9FF12001ED987E9055074
:1014D000020A02E0030A02E1000E01D0000E18D257
:1014E00013D986E94FE802017051086EC2D806DAB6
:1014F0000001AD8D066A030E065C70E2010E116EEE
:10150000126A136A146A076A0001ADAD56D0B1D8E9
:101510000D6E55510E6E56510F6E5751106E0DEBEC
:1015200058F20EEB59F20FEB5AF210EB5BF2D95076
:10153000090FCAD8D880250E54554B0EFFDA39E270
:101540008DEB09F08EEB0AF08FEB0BF090EB0CF0CB
:1015500007501F0832E311EB54F212EB55F213EB74
:1015600056F214EB57F207501F0B03E00201E2D9C9
:10157000FEE174D905E1072A07501F08ECE22AD0E2
:10158000E60EE66E3E0E15D907EBE6FF92EC26F06E
:1015900041E907EBE6FFDAD9072A0001EADA410E52
:1015A000EF6EA2D870C2EFFFE66A04EBE6FF26DE1C
:1015B00042E9E6D9A9E0EFDDA7D70001ADBD0AD029
:1015C000BE0EE66E3E0E01DBBB0EE66E3E0EF1D8A1
:1015D000010E0AD028EC00F0062A8DD708EBE6FFB2
:1015E000B5D90001AD9D000E50E9E7CFD9FF12003B
:1015F00099DA41E8FF0E005C14E1026A0A0E025C0F
:101600002BE202504EDB09E00250E6DA200B05E047
:10161000DFDAE6D9025066DAF2D9025003DB022A99
:10162000EDD700503EDB1DE00050D6DA200B19E06C
:101630000001A151005C15E19C6B56D8D1D9005036
:1016400051DA0050EFDADBD9026A0A0E025C04E2DA
:101650000250E8DA022AF9D753DA4ADAD2DA51D854
:101660000CDB29D10A0D59DA840EE926010EEA2293
:10167000120001EC28F0F8C154F2F9C155F2FAC198
:1016800056F2FBC157F20201545112000B0D45DA1C
:101690006C0EE926000EEA221200E2D9EF50120089
:1016A000040EB5DAE9CFC7F0EACFC8F03EDAE9CFE9
:1016B000E6FFEACFE6FF29EC10F046E91200E66EFD
:1016C00070EC26F041E91200E96EDACFEAFFEE5045
:1016D000585D546FEE505959556FEE505A59566F28
:1016E000EE505B59576F12009C519C2BEA6A000F19
:1016F000E96E000EEA221200080E2ED201500BEF06
:101700000EF070DA46EF0DF0D9CFE6FFE1CFD9FF4A
:101710001200020EE66EE66AF2C1E6FFF3C1E6FFD2
:101720009D0EE66E000EE66E120071DAE9CF54F2FD
:10173000EACF55F212000201EA6AE924E96E555136
:10174000EA221200020EE66EE66AE8C1E6FFE9C18F
:10175000E6FF9F0EE66E000E12009F0EE66E000E74
:10176000E66E9D0EE66E000EE66E46EC0FF044E966
:101770001200640EE66EE66AEEC1E6FFEFC1E6FF18
:10178000840EE66E010E12009FC006F0A0C007F0A6
:101790009DC008F09EC009F01200EFCFE6FFAEEF4B
:1017A0000DF0D880960E5455980E9EEF0DF0020E57
:1017B000D3D1E66E55EC26F042E91200B6D9C7C087
:1017C000E6FFC8C0E6FF29EC10F046E91200EA6A1D
:1017D000A20FE96E000EEA2257D2040D9ED9330EF5
:1017E000E926000EEA22EE6AEE6AEE6AEE6A12005E
:1017F000020171510001030BF36EF346F346F34609
:10180000F346CF0E6015F310606F1200010EE66E06
:10181000E66AEAC1E6FFEBC1E6FF700EE66E020E75
:10182000E66E1200010EE66EE66AECC1E6FFEDC15F
:10183000E6FF710EE66E020EE66E12000A0DF3CFA1
:1018400056F2F4CF57F2840E02015627010E5723A9
:1018500056C2E6FF57C2E6FF18EF0EF0D9CFE9FFF8
:10186000DACFEAFFEE5002015417EE505517EE5052
:101870005617EE5057175451551156115711120063
:1018800094D9C68B0050C69712000A0D0101EE5183
:10189000F3240201546F0101EF51F4200201556F4E
:1018A00054C2E6FFE66E1200D950140FE96EDACF8B
:1018B000EAFFEF50120042E9E7CFD9FF1200A66914
:1018C000A7699F0EE66E000EE66EA60EE66E000E8F
:1018D000E66E46EC0FF044E91200EE580201576F35
:1018E0005451066E5551076E5651086E5751096E88
:1018F00006501200B5D8EFCFA7F01200096E55516F
:101900000A6E56510B6E57510C6E1200030E24D105
:1019100041E9E7CFD9FF12009EC0E6FF1FD99DC065
:10192000E6FFAEEF0DF0A0C0E6FF18D99FC0E6FFBE
:10193000AEEF0DF0D8905437553756375737E80685
:101940001200E96E000E0320EA6E12002FEC07F081
:1019500041E9120074C200F00001020E016F120092
:10196000D950020FE96EDACFEAFF120070C2E6FF2B
:1019700092EC26F041E912001DEC23F046E912003A
:10198000C3EC08F0000912006BD8EFCFA6F01200EC
:101990000250EA6AA20FE96E000EEA22EF5012002E
:1019A0000C6E55510D6E56510E6E57510F6E120042
:1019B000106E5551116E5651126E5751136E120022
:1019C000056E5551066E5651076E5751086E12003E
:1019D000086E5551096E56510A6E57510B6E120022
:1019E000030EEF6EC66BC68BC681C693C68F120000
:1019F000300BE842E842E842E84201081200640E77
:101A0000E66EE66A3EEC25F042E91200050EA4D02F
:101A100043E9E7CFD9FF1200EECF54F2EFCF55F2F2
:101A20001200D1EC11F041E90009120002EBE9FFCC
:101A300003EBEAFF120016DE7CEF0BF039D958EF0A
:101A40000EF03F0E3CDE3F0E3ADE3F0E38DE3F0E1C
:101A5000120008DED7EF0BF01BD9090E07EF0EF0CE
:101A6000EA6ACC25E96ECD51EA22120064DE0CD17F
:101A700000DE44DF09EB58F20AEB59F20BEB5AF2A5
:101A80000CEB5BF2D950050F04EF0EF0E66E18EF89
:101A90000EF0E9CF56F2EACF57F204500201EA6A9B
:101AA000E924E96E5751EA22EF50E66E0001A15198
:101AB00032EF0BF0EA22EF50E66E16DEE5D0D2DD13
:101AC000040E33DE030ED8800354CFD00150EA6AEF
:101AD000CA25E96ECB51EA22EF50E66E015077DE5F
:101AE000012A1200BFDD50EF0BF087D80350BDD0A4
:101AF00010DE18EF0EF0B6DDE92A000EEA22120021
:101B00000001A1699D699E699F69A06926DE0001A7
:101B1000AD931200F3DD86EF0CF0F3CFE9FFF4CFC5
:101B2000EAFF1200F1DD82E912009CC0E6FF000E20
:101B3000E66E000EE66EC6C0E6FF12005555000EBA
:101B40005655000E575512000001A7DDE66E120033
:101B5000DBDD81E941E8120007EF0EF07FEC26F0B3
:101B600041E9120093DDEE52E9CF54F2EACF55F28B
:101B700012000B0E9C6FB8DDEF6A74EF0BF0015092
:101B800071DD040E07EF0EF0B5DE9FC0A8F0A0C017
:101B9000A9F01200260EE66E3F0E0BDE032A12009D
:101BA0000D0E8DDD0A0E5FEF0BF0AC51AC2B00017A
:101BB0000A6F0001C66B1200E92AEA22EFCF05F096
:101BC000C4EF0BF063DD06EF0DF0F3DDB6EF0CF0C4
:101BD00000019C6B74EF0BF02EDFEF5012006FDDF5
:101BE0001EEF0DF0010EE66EE66AF4C1E6FFF5C1E8
:101BF000E6FFA10EE66E000E120034DD090E95EF31
:101C00000BF0A0DD46EF0DF05FDDD1EF0BF0E92624
:101C1000000EEA221200080D80DFD10EE926000E28
:101C2000EA22120008DFEF6A1200015029EF0DF0DE
:101C300041EC23F046E9120015DDAFDD1EEF0DF09B
:101C400008DFE92AEA22CDEF0BF003DFEFCFE6FF52
:101C50007FEF26F0EA6A7D0FE96E020E5AEF0DF073
:101C600064DD045003DF042A120065DD96DD032ADB
:101C700012000150FBDE012A12007BDD46EF0DF061
:101C8000A15130DF00091200E552E750EF6E12005B
:101C90006B5146EF0BF0D5DEA2DFD3DEE66E70EFC0
:101CA00026F09ADF800B12009ADF0050ECEF0DF067
:061CB000200E5FEF0BF0B7
:0A1CB600D7EC14F081E941E8200E9C
:101CC000E66E29D841E9016E0F0E0114010F190DBE
:101CD000F350F36EF46A23EF15F0D7EC14F083E9B8
:101CE00041E8F050200B01E0010E036EF09A8D9652
:101CF000020101EB54F2556B54C2E6FFBFEC28F031
:101D000041E930EC15F08D860350E8B0F08AE8A088
:101D1000F09A23EF15F082EC15F042E8F050200B1A
:101D200001E0010E036EF09A8D96400E0010006ED9
:101D300030EC15F0D3EC28F0026E8D860350E8B03D
:101D4000F08AE8A0F09A025043E9E7CFD9FF1200E9
:101D500082EC15F041E8F050200B01E0010E026E1C
:101D6000F09A8B9430EC15F08B840250E8B0F08A36
:101D7000E8A0F09A23EF15F0D7EC14F083E94EE8D1
:101D8000030E0F6E0F500F06000901E179D0106AA3
:101D900002017A6B0D6A005011E0280EE66EBBDF7F
:101DA00041E90E6E0E407F0B0E6E0E50410806E2AA
:101DB0000D500D2A0408F1E2000E64D0200EDCEC78
:101DC00014F0C90EE66E1A0E36EC15F001EBE6FFC4
:101DD000BFDF41E9046A0150045C09E2045064EC8D
:101DE00015F0EFCFE6FFB4DF41E9042AF4D7800E07
:101DF000DCEC14F00201795103E1F050040BFAE03D
:101E0000796B57EC15F0200E0F010015000835E234
:101E100001CF03F2E1EC14F0056E5551066E5651F8
:101E2000076E5751086E02017A5127E1E1EC14F078
:101E3000096E55510A6E56510B6E57510C6E09EBD7
:101E400058F20AEB59F20BEB5AF20CEB5BF2D95059
:101E5000050FE96EDACFEAFF05EC15F0A10E545537
:101E6000070E5555000E5655000E5755DCE2105022
:101E7000102A030801E286D78BD7010E036E01D02A
:101E8000036A03504FE9E7CFD9FF1200D7EC14F0F3
:101E900085E9000E38EF15F0D7EC14F083E9200E39
:101EA000015C02E3000E1ED0640EE66E0C0E36ECF2
:101EB00015F00150F76A6E0FF66E4F0E3CEC15F000
:101EC0000E0EF8EC14F00150F76A8E0FF66E4F0EFE
:101ED0003CEC15F0100EF8EC14F048EC15F057EC53
:101EE00015F0010E38EF15F082EC15F000500708E0
:101EF00002E2000E0BD00050E8240201546F556B33
:101F0000F00E5413340EF8EC14F0010E38EF15F007
:101F1000D7EC14F084E941E800EB00F201EB01F2A8
:101F200002EB02F2140EE66EE66A3EEC25F042E9A0
:101F30008D868B84D6CF04F202010569046A020EF5
:101F4000045C06E20450B3EC14F0EF6A042AF7D7FD
:101F5000D9CFE9FFDACFEAFFEF50040B0EE0CBEC6C
:101F600014F01DEC23F046E9040E02012827000EB0
:101F700029232A236AEC15F00DD00201276B286B68
:101F8000296B2A6B6AEC15F00201010E276F286B92
:101F9000296B2A6B046A080E045C14E20450F76A89
:101FA0000E0FF66E000EF7220800F550E66E045094
:101FB000EA6A2B0FE96E020EEA22E552E750EF6E55
:101FC000042AE9D7046A04501F0813E3F76A0434AB
:101FD000FE0BF66EF736AE0EF6264F0EF722090010
:101FE000F5CFE6FF0900F5CFE6FF77DE42E9042AE8
:101FF000EAD748EC15F0600EDCEC14F0F08A010E24
:1020000023EF15F082EC15F000501DE0200A15E0DA
:10201000600A0EE0200A07E0E00A19E1960E85EC5E
:1020200015F0800E0ED0760E85EC15F0600E09D0FE
:10203000560E85EC15F0400E04D0360E85EC15F0EA
:10204000200E066F04D0160E85EC15F0066B38EFE7
:1020500015F0D7EC14F087E943E80050280802E2B5
:10206000000E91D0F1EC14F0040B02E0000E01D050
:10207000010E039CE8B0038CF1EC14F0030B010893
:1020800001E1038E03EB00FF02010451042B0F0159
:10209000016F020E086EF1EC14F0400B0EE0076ABF
:1020A000FEEC14F0075C09E207500424E96E000E10
:1020B0000520EA6EBAEC14F0F3D7F1EC14F0040B3F
:1020C000D950030FE96EEF50800B0EE0076AFEEC6B
:1020D00014F0075C09E20750EA6A0125E96E025133
:1020E000EA22BAEC14F0F3D7F1EC14F0080B3AE062
:1020F000076A040E075C09E20750EA6A270FE96ED7
:10210000020EEA22BAEC14F0F4D70201272B000EDB
:10211000282329232A23275105E1030E281502E14C
:102120006AEC15F00850082A64EC15F0EF6A88EBA9
:1021300009F0076A0050075C03E25CEC15F0FAD77F
:102140002B0EE66E020EE66E00EBE6FF09EBE6FFF5
:10215000000EE66E0F0EE66EE1EC20F046E9020E90
:10216000082607D0076A0050075C03E25CEC15F014
:10217000FAD702010051020B01E0010EE66E08EBF6
:10218000E6FFFADD42E944E9E7CFD9FF1200D7ECD8
:1021900014F081E94CE8016A050E015C32E2E1ECE1
:1021A00014F0026E5551036E5651046E5751056E70
:1021B0000150EADBEF5023E074EC15F00250EE5CC6
:1021C0000350EE580450EE580550EE5818E202EB5A
:1021D00058F203EB59F204EB5AF205EB5BF274ECA4
:1021E00015F005EC15F0960E5455980E5555000E49
:1021F0005655000E575503E20150C6DBEF6A012A1F
:10220000CBD7FF0E0201055D01E0A6D0016A020EE8
:10221000015C01E3B8D00150A6DBEF50010B01E1F6
:10222000B0D053EC15F0EFCFC9F079EC15F0EFCF4B
:10223000CEF0020E066E0001C9AD02D0DFDB06262D
:102240000001C9AF0BD053EC15F00650E924CA6F5A
:10225000000EEA20CB6FD2DB062602D0CA6BCB6B16
:102260000001C9A77FD053EC15F0EACF55F2040E58
:1022700006240201EA6AE924E96E5551EA22EF5088
:1022800068E10001C9AF51D0076A0A0E075C16E287
:10229000CADB080E44EC15F0EF50800B0DE0CAC00D
:1022A000E6FFCBC0E6FFBFDB040EEEDBD0DBF1ECDC
:1022B00005F044E9000902E1072AE7D70A0E075CA6
:1022C00034E20C6A040E0C5C1DE2EDDBE9CF56F241
:1022D000EACF57F206500C240201EA6AE924E96EBB
:1022E0005751EA22EF50E66ED950080F546F0C5048
:1022F000EA6A5425E96EDA50EA22E552E750EF6EB9
:102300000C2AE0D798DBEE50085CEE500958EE50EE
:102310000A58EE500B581DE38EDB08EBEEFF09EB7D
:10232000EEFF0AEBEEFF0BEBEFFF050E06262B0E82
:10233000E66E020EE66EDDDBEF50D8800654E66EE8
:1023400006EBE6FFB0DB83DB13EC21F046E9000986
:1023500005E1015008DBEF6A000E16D0020E0624DC
:10236000000101D00650CE5F9EDB0650E924CC6F01
:10237000000EEA20CD6F08C2CFF001EB05F2010E8E
:1023800003D0012A44D7000E4DE9E7CFD9FF120050
:10239000020E0201055D04E20551E5DAEF6A056906
:1023A0001200B0DB41E80050FF0A09E0FF0A02E03A
:1023B000000E17D0E66A26DE41E9F09A11D077DBED
:1023C000F08A0A0EE66EE66A3EEC25F042E9026A01
:1023D000050E025C05E20250D7DAEF6A022AF8D74E
:1023E000010E31D3D8CFE4FFE0CFE4FFE46EDACFC3
:1023F000E4FFE2CFDAFFE9CFE4FFEACFE4FFF8C180
:10240000E4FFF9C1E4FFFAC1E4FFFBC1E4FFF6CF4A
:10241000E4FFF7CFE4FFF5CFE4FFF3CFE4FFF4CF21
:10242000E4FFFACFE4FF02EE54F00E0EE80403E3FB
:10243000EECFE4FFFBD7E652D9CFE6FFE1CFD9FFDD
:1024400081E94DE8F050040B01E153D2F050200B2C
:1024500001E14FD2600E0201065D01E045D2280E77
:10246000E66E59DC41E9E8407F0B0201076F07C2C5
:1024700008F28B94D3EC28F0026E8B84036A020E70
:10248000035C10E20350420DF3CFE9FFF4CFEAFF03
:10249000000EE926010EEA22EF50010B01E102D005
:1024A000032AEDD7020E025C03E1010E066E01D095
:1024B000066A400E025C07E2025005E0020E035C71
:1024C00014E3065012E11A0EE66E25DC41E90B6EAC
:1024D0000BA20AD08B94D3EC28F08B841A0EE66EF4
:1024E0001ADC41E90B6EF4D702D2016A0250046E85
:1024F000056A010E045C000E055801E2F4D10406E1
:10250000000E055A065017E08B94D3EC28F0E66EC7
:102510000101D950070FFC6FDACFFDF10150012AFC
:102520000101EA6AFC25E96EFD51EA22E552E75015
:10253000EF6E8B841FD08B94D3EC28F0E66E0350A3
:10254000420DF3CFE9FFF4CFEAFF000EE926010EBA
:10255000EA22EE52E9CFFCF1EACFFDF10150012A67
:102560000101EA6AFC25E96EFD51EA22E552E750D5
:10257000EF6E8B840250015C01E2B4D1065030E072
:10258000030E071402080AE102010351085C03E18B
:102590000201010E7A6F016AAAD105D0020E035C16
:1025A00002E3016A90D70350420DF3CFE9FFF4CF65
:1025B000EAFF000EE926010EEA22EE5207EBEFFFDA
:1025C0000350420DF3CFE9FFF4CFEAFF000EE926F6
:1025D000010EEA22EE52E92A000EEA2208EBEFFF92
:1025E0000350420DF3CFE9FFF4CFEAFF000EE926D6
:1025F000010EEA22410EE926000EEA2202EBEFFF6D
:102600000D680350420DF3CFE9FFF4CFEAFF000E4F
:10261000E926010EEA22EE52EF50400B40E00C6A30
:1026200002010051780BE842E842E8420C5C37E2D4
:102630000350420DF3CFE9FFF4CFEAFF000EE92685
:10264000010EEA22EE52E9CFFDF1EACFFEF1020ED1
:102650000C240101EA6AFD25E96EFE51EA22EFCF62
:10266000FCF10C500201EA6A0125E96E0251EA22EE
:10267000EF500101FC5D11E0016A0350420DF3CF00
:10268000E9FFF4CFEAFF000EE926010EEA22410E2F
:10269000E926000EEA22EF6A16D70C2AC1D70350AA
:1026A000420DF3CFE9FFF4CFEAFF000EE926010E59
:1026B000EA22EE52EF50200B56E00C6A020E0C5C40
:1026C0001AE20C50EA6A000FE96E0F0EEA22EF5090
:1026D000E66E0101D950070FFC6FDACFFDF10C5007
:1026E0000101EA6AFC25E96EFD51EA22E552E75054
:1026F000EF6E0C2AE3D70F01060E006F0350420D58
:10270000F3CFE9FFF4CFEAFF000EE926010EEA223B
:10271000EE52E92A000EEA22EFCF01FFF094E66ABA
:10272000020EE66EBCEC0EF042E90C6A020E0C5C86
:102730001AE20101D950070FFC6FDACFFDF10C50FE
:102740000101EA6AFC25E96EFD51EA22EF50E66ECE
:102750000C50EA6A000FE96E0F0EEA22E552E750CC
:10276000EF6E0C2AE3D70C6A050E0C5C5FE20C508E
:10277000060DF3CFE9FFF4CFEAFF090EE926020EBA
:10278000EA22EF5040E00C50060DF3CFE9FFF4CF02
:10279000EAFF090EE926020EEA22EE52EFCFFCF123
:1027A0000350420DF3CFE9FFF4CFEAFF000EE92614
:1027B000010EEA22EE52E92A000EEA22EF50010150
:1027C000FC5D21E101EC28F0F8C1FCF1F9C1FDF15B
:1027D000FAC1FEF1FBC1FFF10C50060DF3CFE9FF8A
:1027E000F4CFEAFF090EE926020EEA22020EE926DC
:1027F000000EEA22FCC1EEFFFDC1EEFFFEC1EEFFBE
:10280000FFC1EEFF13D0FF0E0D5C0EE10C50060D64
:10281000F3CFE9FFF4CFEAFF090EE926020EEA2220
:10282000EF5002E18CEB0DF00C2A9ED7050E0C5CEC
:1028300058E3050E0D5C4AE20D50060DF3CFE9FF9B
:10284000F4CFEAFF090EE926020EEA22010EEF6E2E
:102850000350420DF3CFE9FFF4CFEAFF000EE92663
:10286000010EEA22EE52E92A000EEA22EF50E66E4D
:102870000D50060DF3CFE9FFF4CFEAFF090EE9266C
:10288000020EEA22EE52E552E750EF6E01EC28F01C
:10289000F8C1FCF1F9C1FDF1FAC1FEF1FBC1FFF194
:1028A0000D50060DF3CFE9FFF4CFEAFF090EE9263C
:1028B000020EEA22020EE926000EEA22FCC1EEFF19
:1028C000FDC1EEFFFEC1EEFFFFC1EEFF0350420D62
:1028D000F3CFE9FFF4CFEAFF000EE926010EEA226A
:1028E000EF8005D006D603D00201010E796FF09477
:1028F0000000F2A40AD0F2AA08D0F2940001FD2B45
:102900000001FD5102E10001FE2B20EC26F04EE912
:10291000E7CFD9FFE55202EE61F00E0EE80403E3C3
:10292000E5CFEDFFFBD7E5CFFAFFE5CFF4FFE5CF2D
:10293000F3FFE5CFF5FFE5CFF7FFE5CFF6FFE5CFF6
:10294000FBF1E5CFFAF1E5CFF9F1E5CFF8F1E5CF0D
:10295000EAFFE5CFE9FFE5CFDAFFE550E5CFE0FF9D
:10296000E5CFD8FF1000420DBAD8000EE926010EBF
:10297000EA221200EF50E66E0850082AA5D8E55268
:10298000E750EF6E072A1200060DA9D8090EE926B6
:10299000020EEA221200040EE66EE66AF0C1E6FFBD
:1029A000F1C1E6FF270EE66E020EE66E1200D9CFE9
:1029B000E6FFE1CFD9FF1200E66E02EC10F041E92C
:1029C000120001EC28F0F8C154F2F9C155F2FAC135
:1029D00056F2FBC157F2020154511200E66EE66A4C
:1029E0008DD0D950030FE96EDACFEAFFEF50120015
:1029F000551354C2E6FF55C2E6FF80D002010051D4
:102A0000780BE842E842E8421200EE50585D546FFD
:102A1000EE505959556FEE505A59566FEE505B595A
:102A2000576FD880120007500A0D59D8840EE92636
:102A3000010EEA2212000750040D51D8330EE92688
:102A4000000EEA22120042E9E7CFD9FF1200E9CFD7
:102A500054F2EACF55F2E9CFE6FFEACFE6FF1200E3
:102A600000EBE6FFBFEC28F041E91200E66E46D02D
:102A700041E9E7CFD9FF1200F7220800F550020123
:102A8000546F556B54511200E926000EEA221200D1
:102A9000200E92DF560EA2DF400E8EDF0F0EE66E86
:102AA0001C0E36EF15F001505EDFEE521200200EC4
:102AB00083DF600EDCEF14F007500124E96E000E96
:102AC0000220EA6EBAEF14F0EA6A000FE96E0F0E08
:102AD000EA22120060DF41EC23F046E91200F3CF56
:102AE000E9FFF4CFEAFF120001504EDF020E44EF7F
:102AF00015F0015038DF410E44EF15F06DEC0EF08B
:102B000042E9120054DF82E9120068DF020112007C
:102B100090DB86E90150010600090CE002EBE6FFBC
:102B200003EBE6FF00EBE6FF69DBF4E1551DF2E1A4
:102B3000010E01D0000E41E9E5CFDAFFE7CFD9FF62
:102B4000120077DB89E97BE80A6A0B6A02EBF6FF81
:102B500003EBF7FF04EBF8FF0800F550096E09508E
:102B600001E12DD3250E095C01E01BD30C6A0D6A2F
:102B70000E6A0F6A106A2DDB2D0E095C0CE02B0E1D
:102B8000095C09E0200E095C06E0230E095C03E005
:102B9000300E095C15E10950300A10E0130A0CE010
:102BA000030A08E00B0A04E0060AE5E10C80E3D71B
:102BB0000C82E1D70C84DFD70C86DDD70C88DBD7FD
:102BC0002A0E095C13E1A5DB0DE30C801CEB54F22B
:102BD0001DEB55F20201546D551F000E5523545143
:102BE0000D6E02D09CEB0DF0F4DA07D0126A3FDBD9
:102BF00002E06BDBFCD792EB0DF00CB00C982E0EC4
:102C0000095C15E1E6DA2A0E095C08E182DB04E2E0
:102C10009CEB0EF0010E0F6EDCDA09D0126A27DB96
:102C200002E053DBFCD792EB0EF0010E0F6E680E44
:102C3000095C07E1CEDA680E095C1DE1030E106E37
:102C400019D0740E095C16E07A0E095C13E0480E88
:102C5000095C06E0540E095C03E05A0E095C02E1CF
:102C6000020E07D06C0E095C03E06A0E095C03E1FA
:102C7000010E106EAEDA09506E0A01E16ED21E0A24
:102C800001E128D1200A01E125D13F0A01E1FDD06F
:102C90001A0A01E1FAD00D0A01E1F7D0200A01E198
:102CA000F4D03A0A01E1F1D0200A01E1EED0260A7F
:102CB00001E1EAD00D0A01E1E7D01A0A01E19ED054
:102CC000200A3BE0300A1AE0460A0EE0250A01E03D
:102CD00072D2D950020FE96E000EDA20EA6E010EB0
:102CE000EE5E000EEE5AEE5A0FDB250EE66E86DA29
:102CF00003E1551D01E159D20A2A5BD2116A0D5038
:102D0000010803E20D04116EF5DA115007E0010E1F
:102D10000C1404E16DDA01E048D2116AD3DAEF5005
:102D2000096ECBDA03E1551D01E13FD20A2A000EFC
:102D30000B225EDA01E13FD238D2020E105C08E1CC
:102D4000030E4EDAEE50176EEE50186EEF5007D0AD
:102D5000E7DA566B5451176E5551186E5651196E6D
:102D600017EBE6FF18EBE6FF19EBE6FF92EC27F016
:102D700043E9F8C154F2F9C155F2FAC156F2020121
:102D800054511C6E55511D6E0F5006E01C500E5CC8
:102D900003E20E501C6E1D6A1C500D5C02E29CEB9F
:102DA0000DF050DA05E00D500E5C02E28EEB0DF0F6
:102DB0000CB004D01DDA01E0F8D1116A126A17EBE9
:102DC000F6FF18EBF7FF19EBF8FF0800F550096E56
:102DD000095010E00D50125C0DE26FDA03E1551D51
:102DE00001E1E3D10A2A000E0B22122AD950170F53
:102DF00055DAEBD7FDD901E1DED1D7D163DAEE5058
:102E00001A6EED501B6E1AEBE6FF1BEBE6FF84EC2F
:102E100027F042E9F3501C6EF4501D6E0F5006E08F
:102E20001C500E5C03E20E501C6E1D6A1C500D5CA3
:102E300002E29CEB0DF006DA05E00D500E5C02E2BA
:102E40008EEB0DF00CB004D0D3D901E0AED1116AF5
:102E5000126A1AEBE9FF1BEBEAFFEF50096E09500B
:102E60000FE00D50125C0CE228DA03E1551D01E180
:102E70009CD10A2A000E0B22122A1A2A1B22E9D7F9
:102E8000B7D901E198D191D10C8E10040AE1040E5A
:102E9000A7D9EE50136EEE50146EEE50156EEF5033
:102EA00032D0030E105C16E10CAE0CD00BDAEFCF73
:102EB00054F20201556B566B576B54AF23D05569D2
:102EC00056691FD0FFD9EFCF54F202015451136E4F
:102ED000146A20D0020E105C0CE10CAE06D0030E7A
:102EE0007FD9B6D956AF0ED00CD0030E79D9B0D950
:102EF00009D00CAE0AD014DA566B576B55AF02D01E
:102F000056695769BCD9166E07D00ADA5451136E48
:102F10005551146E156A166A0F5002E1010E0E6EBD
:102F20001E6A1F6AD950400FE66E000EDA20E66E68
:102F3000E552E550436EE750426E416A116A0A0E4F
:102F4000106E0950780A12E0200A10E0280A0CE0FE
:102F5000200A0AE03F0A06E00D0A02E0200A08E122
:102F6000020E05D0080E03D0080E0926100E106EB2
:102F70000CBE02D00C920C94800E0C1417E0163488
:102F800015E3E668E668E668E66842D93CEC24F0BA
:102F9000E552E5CF57F2E5CF56F2E5CF55F2E7CF50
:102FA00054F202016CD9166E2D0E07D00CA202D07D
:102FB0002B0E03D00CA404D0200E206E1E2A01D0AC
:102FC000206A0E5005E1135014101510161061E020
:102FD00002012A0E546F520E556F000E566F83D9A0
:102FE0009CEC24F0E552E5CF5AF2E5CF59F2E5CF5B
:102FF00058F2E7CF57F2020154515725F36E55515D
:103000005821F46E56515921F86EF4CFF7FFF3CFE3
:10301000F6FF0800F550126E580E095C05E1610ECE
:10302000125C02E3200E125E5ED999EC24F0E552A8
:10303000E550166EE550156EE550146EE750136EB0
:1030400042EBE9FF43EBEAFF4206000E435A12EB64
:10305000EFFF1E2A1350141015101610B9E10CA61C
:1030600019D06F0E095C06E10E501E5C13E31E289A
:103070000E6E10D0780E095C09E0580E095C06E06F
:10308000620E095C03E0420E095C04E1020E1F6E51
:1030900001D01E6A100E0C1407E00D500E5C04E205
:1030A0000F5002E18DEB0EF00E501E5C03E21E503D
:1030B0000E5E01D00E6A0E501E241F24D8800D54BF
:1030C00007E20E500D5CD8801E54D8801F54116E3C
:1030D000010E0C1406E1115004E08AD866E10AD909
:1030E000116A205007E010D920EBE6FF87D802E1F3
:1030F000551D5BE01F500BE007D9300EE66E7ED801
:1031000002E1551D52E0D9D802E1551D4EE00E50A6
:103110001F5C02E21F500E5E300EE66E0EEBE6FF05
:10312000DCD843E1422A000E432242EBE9FF43EBA5
:10313000EAFFEF50126E125008E0E6D812EBE6FFFD
:103140005DD8F0E1551DEEE130D052D82EE10E50A1
:103150001E2411241F240A262CD01050030A1CE020
:10316000010A14E0030A07E0ADD8C9D80AEBEEFF64
:103170000BEBEDFF20D08BD8576B55AF02D05669C3
:103180005769A0D84ED857C2EEFF15D080D855BF8A
:10319000566998D846D80FD095D8B1D80AEBEFFF2A
:1031A0000AD08BD805E1551D03E1F368F4680BD014
:1031B0000A2A000E0B22D950020F70D8CDD40AEB88
:1031C000F3FF0BEBF4FF7CE9E5CFDAFFE7CFD9FFA4
:1031D0001200D950020F62D80800F550096E120093
:1031E000005E000E015A00EBE9FF01EBEAFF12005E
:1031F000200EE66E11EBE6FF6DEF19F06EEC28F095
:1032000043E9F3CF54F2F4CF55F20201F31C12005C
:1032100013EBE6FF14EBE6FF15EBE6FF16EBE6FF1C
:1032200012006DD854C2EEFF55C2EEFF56C2EEFF3B
:103230001200D9CFE6FFDACFE6FFE1CFD9FFE2CF28
:10324000DAFF12001C500D5C116E54D80F501200A2
:10325000EECF54F2EECF55F2EFCF56F20201576B9C
:103260001200EECF54F2EFCF55F2020112000950D6
:10327000E66EE66AD8EC28F042E9F35012005451A9
:10328000136E5551146E5651156E575112000AEBBC
:1032900054F20BEB55F20201566B1200E96E000E70
:1032A000DA20EA6EEF2AEECFF6FF000EEF22EECF25
:1032B000F7FFEF22EECFF8FF120026D809EBE6FF6A
:1032C000FEEF18F0020EF0EF18F00A0E1202F350A3
:1032D0000924D00F126EE9EF18F016D888EC15F01B
:1032E00044E90009120010EBE6FFE66AE66AE66AC6
:1032F00008EF19F011500A26000E0B221200EE50B2
:10330000EFCFEAFFE96E120005EBE6FF06EBE6FF02
:103310001200D8DFEE501C6EED501D6E1D341200F1
:06332000D1DF31EF19F0CE
:0A332600D9CFE6FFE1CFD9FF81E91E
:1033300052E80368046A056A0E6A0F6A106A116A25
:10334000126A9CEC25F04CEC26F05C0EE66E3E0E0C
:10335000E66E55EC26F042E9450EE66E3E0EE66E50
:1033600055EC26F042E92A0EE66E3E0EE66E55EC6E
:1033700026F042E90F0EE66E3E0EE66E55EC26F0A4
:1033800042E9F70EE66E3D0EE66E55EC26F042E998
:10339000D50EE66E3D0EE66E55EC26F042E9B50E12
:1033A000E66E3D0EE66E55EC26F042E99B0EE66EAB
:1033B0003D0EE66E55EC26F042E9810EE66E3D0EBE
:1033C000E66E55EC26F042E9620EE66E3D0EE66EC4
:1033D00055EC26F042E94B0EE66E3D0EE66E55ECDE
:1033E00026F042E90B0EE66E3D0EE66E55EC26F039
:1033F00042E9CB0EE66E3C0EE66E55EC26F042E955
:10340000890EE66E3C0EE66E55EC26F042E9490E5A
:10341000E66E3C0EE66E55EC26F042E9070EE66ECF
:103420003C0EE66E55EC26F042E9C70EE66E3B0E0A
:10343000E66E55EC26F042E9C20EE66E3B0EE66EF5
:1034400055EC26F042E98C9E8C9C010EE66EE66AF5
:10345000A20EE66E3B0EE66EEBEC25F044E98150E1
:10346000010B1BE1010EE66E41EC06F041E901089B
:1034700014E1010EE66EE66A860EE66E3B0EE66E1F
:10348000EBEC25F044E9390EE66E3B0EE66E55ECAA
:1034900026F042E981A0FED796D0E66A41EC06F01C
:1034A00041E91F0EE66E3B0EE66E55EC26F042E952
:1034B000E66AE66A0F0EE66E3B0EE66EEBEC25F072
:1034C00044E9E668E668E668E6680A0EE66E54ECEB
:1034D00007F045E9026E025049E0F50EE66E3A0E3D
:1034E000E66E55EC26F042E9016A0250015C3EE2CC
:1034F000EB0EE66E3A0EE66E55EC26F042E9015010
:103500000B0DF3CFE9FFF4CFEAFF6C0EE926000EB6
:10351000EA22EFCFE6FF92EC26F041E9E10EE66EFB
:103520003A0EE66E55EC26F042E901500B0DF3CF52
:10353000E9FFF4CFEAFF6C0EE926000EEA22070E3F
:10354000E926000EEA22EFCFE6FF7FEC26F041E904
:1035500001500B0DF3CFE9FFF4CFEAFF6C0EE92623
:10356000000EEA22EF50036E012ABFD7FF0E035C64
:1035700006E003EBE6FF2FEC07F041E908D0C00EB0
:10358000E66E3A0EE66E55EC26F042E99AD7E66A08
:1035900044EC07F041E9E66AE66AD7EC07F042E955
:1035A000016EAB0EE66E3A0EE66E55EC26F042E981
:1035B000010EE66E70C2E6FF8C0EE66E3A0EE66E07
:1035C000EBEC25F044E98C8EE66837EC04F041E939
:1035D000E66AE66A7D0EE66E3A0EE66EEBEC25F0E4
:1035E00044E9C3EC08F0000901E180D0000161A7C3
:1035F00007D0740EE66E3A0EE66E55EC26F042E900
:1036000000016151030B000908E0580EE66E3A0E06
:10361000E66E55EC26F042E907D03E0EE66E3A0E15
:10362000E66E55EC26F042E969C0E6FF7FEC26F035
:1036300041E9000161AD34D0370EE66E3A0EE66E18
:1036400055EC26F042E9000161AF16D0010E0001F1
:10365000EA6A6425E96E6551EA22EFCFE6FF7FEC66
:1036600026F041E964C0E9FF65C0EAFFEFCFE6FF5D
:103670007FEC26F041E914D0016A040E015C10E2EF
:10368000030ED88001540001EA6A6425E96E655191
:10369000EA22EFCFE6FF7FEC26F041E9012AEDD7E1
:1036A000340EE66E3A0EE66E55EC26F042E9016AFB
:1036B00000016851015C0EE201500001EA6A6625D2
:1036C000E96E6751EA22EFCFE6FF70EC26F041E9A0
:1036D000012AEED78C7CCBEC08F0112A11EBE6FF27
:1036E00010EBE6FFCAEC25F042E943D10E50030887
:1036F0002AE2E66AE66A150EE66E3A0EE66EEBEC34
:1037000025F044E9F10EE66E390EE66E55EC26F032
:1037100042E9010EE66EF8EC06F041E9E668E6687B
:10372000E668E668E66A70EC0AF045E90E6A0F6A38
:10373000E66A70C2E6FFD20EE66E390EE66EEBEC7C
:1037400025F044E902D0010E0F6E0F5001E111D1B6
:103750000F6AE66AF8EC06F041E90400C080F292D4
:10376000F19CF288ADA2FED70300F298C0900CEC59
:1037700026F0126E020EE66EF8EC06F041E9000843
:1037800013E2BC0EE66E390EE66E55EC26F042E909
:103790000E2AE66A0EEBE6FF9F0EE66E390EE66E27
:1037A000EBEC25F044E90AD00E5007E011EBE6FF00
:1037B00010EBE6FFCAEC25F042E90E6A1250020A4D
:1037C00062E0030A01E0D4D000010B0E9C6F060EEC
:1037D000E66E04EBE6FF1DEC24F041E9E75000093A
:1037E00015E100019C519C2BEA6A000FE96E000E66
:1037F000EA220D0EEF6E00019C519C2BEA6A000F2D
:10380000E96E000EEA220A0EEF6E2FD0016A150E45
:10381000015C2BE2060EE66E04EBE6FF1DEC24F0E5
:1038200041E9E750FF0F150DF3CF54F2F4CF55F2F5
:10383000960E020154274D0E02015523015002013C
:10384000F76A5425F66E5551F7220800F550E66EDA
:1038500000019C519C2BEA6A000FE96E000EEA22DF
:10386000E552E750EF6E012AD2D7042AE66ACFEC80
:1038700008F041E911EBE6FF102A10EBE6FFCAEC75
:1038800025F042E976D000010B0E9C6F060EE66E25
:1038900005EBE6FF1DEC24F041E9E750000915E1D6
:1038A00000019C519C2BEA6A000FE96E000EEA228F
:1038B0000D0EEF6E00019C519C2BEA6A000FE96E21
:1038C000000EEA220A0EEF6E2FD0016A0B0E015C89
:1038D0002BE2060EE66E05EBE6FF1DEC24F041E957
:1038E000E750FF0F0B0DF3CF54F2F4CF55F2FF0E5C
:1038F000020154274D0E0201552301500201F76ABF
:103900005425F66E5551F7220800F550E66E000179
:103910009C519C2BEA6A000FE96E000EEA22E552E8
:10392000E750EF6E012AD2D7052A010EE66EE66A4D
:10393000FEEC08F042E9000912E18C0EE66E390E49
:10394000E66E55EC26F042E9010EE66EE66A7C0E64
:10395000E66E390EE66EEBEC25F044E901D0102A54
:1039600011EBE6FF10EBE6FFCAEC25F042E901D0CF
:0C39700000D037D653E9E7CFD9FF120092
:04397C0020556E69FB
:1039800063617374204661696C6564000D0A556E4D
:103990006963617374204661696C65640D0A004354
:1039A0006F6E6E656374696F6E204C6F7374202048
:1039B00020202025642054696D6573000D0A446140
:1039C00074612052657175657374204661696C6518
:1039D000640020526573796E6368726F6E697A65F0
:1039E000642020746F204368616E6E656C202564CE
:1039F000000D0A526573796E6368726F6E697A6939
:103A00006E672074686520436F6E6E656374696FBE
:103A10006E2E2E2E00526573796E6368726F6E691A
:103A20007A696E672074686520436F6E6E65637493
:103A3000696F6E003A20002066726F6D2000556E2F
:103A40006963617374205061636B65742077697476
:103A5000682052535349200042726F61646361735E
:103A600074205061636B65742077697468205253C9
:103A700053492000536563757265642000524230DB
:103A80003A2042726F6164636173740020436F6E09
:103A90006E6563746564205065657220206F6E20CA
:103AA0004368616E6E656C202564000D0A436F6E7D
:103AB0006E656374696F6E2043726561746564003E
:103AC0000D0A4E6F205375697461626C6520504118
:103AD0004E2C2052657363616E6E696E672E2E2EBA
:103AE00000202020525353493A20004368616E6EF3
:103AF000656C3A20000D0A41637469766520536352
:103B0000616E20526573756C74733A200D0A004122
:103B10006374697665205363616E6E696E67000D2C
:103B20000A5374617274696E6720416374697665C3
:103B3000205363616E2E2E2E000D0A4E6574776F32
:103B4000726B20467265657A657220466561747590
:103B5000726520697320656E61626C65642E205405
:103B6000686572652077696C6C206265206E6F20D5
:103B700068616E642D7368616B652070726F636538
:103B800073732E0D0A00204E6574776F726B20469A
:103B90007265657A657220202020454E41424C4571
:103BA000440046656174757265204D6957692050FF
:103BB000524F204D524638395841204E6F6465208F
:103BC00032000D0A0D0A000D0A202020202020209E
:103BD0002020202020202020202020202020776945
:103BE0006C6C20626520746F67676C65642075700B
:103BF0006F6E20726563656976696E67206D6573A7
:103C000073616765732E000D0A202020202020207C
:103C1000202020202020202020202020202050494B
:103C20004344454D205A206F72204578706C6F7266
:103C300065722031362064656D6F20626F61726439
:103C4000732E204C45442032000D0A2020202020D5
:103C50002020202020202020202020202020202064
:103C6000427574746F6E203220746F20756E6963B4
:103C700061737420656E63727970746564206D651C
:103C80007373616765206F6E000D0A20202020206D
:103C90002020202020202020202020202020202024
:103CA0005075736820427574746F6E203120746F84
:103CB0002062726F6164636173742061206D65734B
:103CC000736167652E2050757368000D0A202020EF
:103CD00020202020202020202020202020202020E4
:103CE0002020746F20696E64696361746520697453
:103CF00020697320636F6E6E656374656420746FF2
:103D00002074686520706565722E000D0A202020E1
:103D100020202020202020202020202020202020A3
:103D20002020506F776572206F6E20746865206266
:103D30006F61726420756E74696C204C454420314B
:103D4000206C6967687473207570000D0A2020204C
:103D500044656D6F20496E737472756374696F6E1C
:103D60003A000D0A20202020205246205472616E15
:103D7000736365697665723A204D52463839584109
:103D8000000D0A202020202020202020202020207C
:103D9000204C454420323A204437000D0A20202090
:103DA00020202020202020202020204C454420318D
:103DB0003A204438000D0A202020202020202020F6
:103DC0002020202020202020202020205553422069
:103DD000706F7274000D0A202020202020202020E7
:103DE0002020202020202020202020205253323349
:103DF0003220706F7274000D0A4F757470757420E4
:103E0000436F6E66696775726174696F6E3A000D13
:103E10000A20202020202020202020204275747499
:103E20006F6E20323A20524135000D0A20202020AA
:103E300020202020202020427574746F6E20313A9B
:103E400020524230000D0A496E70757420436F6E27
:103E500066696775726174696F6E3A000D0A537412
:103E6000617274696E67204E6F64652032206F66E0
:103E700020466561747572652044656D6F20666FBC
:103E800072204D69576928544D292050524F2053B4
:103E90007461636B202E2E2E005258204D65737373
:103EA000616765733A20253364005458204D65736B
:103EB00073616765733A20253364000D0A000D0AAB
:103EC000526573796E6368726F6E697A65642043B8
:103ED0006F6E6E656374696F6E20746F20436861E6
:103EE0006E6E656C20000D0A436865636B696E67D2
:103EF000204368616E6E656C20000D0A5363616E2D
:103F0000204368616E6E656C200053686F72744167
:103F10006464723A002050414E49443A004368615B
:103F20006E6E656C3A002020000D0A417661696C66
:103F300061626C65206E6F6465730D0A48616E6422
:103F40006C652052582044432050414E4944204142
:103F5000444452204C4F4E475F414444522020205D
:103F60002020202020504545525F494E464F0D0AE3
:103F70000020204368616E6E656C3A20002020505E
:103F8000414E49443A2000202053686F727420410A
:103F90006464723A20000D0A0D0A4164647265730C
:103FA000733A203078000D0A4A6F696E2074686594
:103FB000206E6574776F726B2073756363657373BE
:083FC00066756C6C790D0A00B6
:083FC800EFD985E949E802EB9D
:103FD000E9FF03EBEAFFEE50056EED50066ECCD91B
:103FE000EE50076EED50086E096A0A6A370E0B6EC6
:103FF0009E0E0C6E0D6A200E0D5C5CE2020108380C
:10400000F00B5B6F07380F0B5B130738F00B5A6F21
:1040100007EB5CF208EB5DF2050ED8905D335C3384
:10402000E804FBE1A1D907505825566F08505921E3
:10403000576F030E0914606F616B010ED8906037E3
:104040006137E806FBE12ED90526555106220B50B3
:1040500009260C500A220638F00B5B6F05380F0B4F
:104060005B130538F00B5A6F05EB5CF206EB5DF263
:10407000050ED8905D335C33E804FBE175D905503B
:104080005825566F06505921576F0A38E8441F0BC0
:10409000606F616B030E6017000E6117010ED89000
:1040A00060376137E806FBE1FDD807265551082245
:1040B0000D2AA1D702EBE9FF03EBEAFF05EBEEFFC8
:1040C00006EBEDFF59D907EBEEFF08EBEDFF4AE9F0
:1040D000E7CFD9FF12000AD901E0010E0B6EF29E64
:1040E000096A0850095C2DE20A6A030E0A5C0BE2B9
:1040F0000A5034D9EF50E66E0A50F2D8E552E75034
:10410000EF6E0A2AF2D709EB78F202EBE6FF03EB37
:10411000E6FF750EE66E020EE66E56DF44E90A6AA9
:10412000040E0A5C0CE22FD90AE20A50D9D8EFCF6C
:1041300054F2FBD802015451EF1A0A2AF1D7092A86
:10414000D0D70B50E8B0F28EE8A0F29E45E9E7CF59
:10415000D9FF1200CBD801E0010E0B6EF29E096A66
:10416000040E095C05E20950F9D8EF6A092AF8D76C
:10417000096A0850095C1CE20A6A040E0A5C0CE237
:1041800002D90AE2D2D8EFCF54F20A50E7D802019E
:104190005451EF1A0A2AF1D702EBE6FF03EBE6FFD0
:1041A00000EBE6FF01EBE6FF0FDF44E9092AE1D768
:1041B0000B50E8B0F28EE8A0F29E45E9E7CFD9FFB8
:1041C0001200C6D801E0010E086EF29E80D803509E
:1041D0000224B5D8040E075C0AE2075081D8EF50DC
:1041E000E66E0350022407249AD8D4D8F3D7076A7E
:1041F000030E075C0AE20350075C04E207508FD805
:10420000EF5001D0000ECBD8F3D761D8040E0224B2
:10421000E66E78D80850E8B0F28EE8A0F29E43E946
:10422000E7CFD9FF120094D801E0010E086EF29E8C
:10423000076A030E075C0AE20350075C04E20750BA
:104240006ED8EF5001D0000EAAD8F3D740D802EBB9
:10425000E6FF58D83CD803500224FE0F70D8020E57
:10426000075C16E207503CD8EFCF54F2035002240B
:10427000FE0F072454D8EF500201545D07E00850A8
:10428000E8B0F28EE8A0F29E000E08D0072AE7D729
:104290000850E8B0F28EE8A0F29E010E43E9E7CFA5
:1042A000D9FF1200020160510024E96E6151012022
:1042B000EA6EEE5009245E6FED500A205F6F565192
:1042C0005E19546F57515F19556F54511200750E96
:1042D000E66E020EE66E00EBE6FF01EBE6FF120073
:1042E000EA6A750FE96E020EEA2212005DD888E9CB
:1042F00044E80450FC0BE842E842010F086EF2501B
:10430000800B1200035002010424546F000E05209C
:10431000556F54C2E6FFE66EDEDE47E91200042464
:10432000E96E000E0520EA6E1200040E0902F35039
:104330000A240524E96E000E0620EA6E1200E66EDD
:1043400004EBE6FF05EBE6FF05DF47E9076A12002D
:104350002BD887E942E8F250800B12000024E96E66
:10436000000E0120EA6E120002015A515C19586FCA
:104370005B515D19596F1200020E0224E96E000EA6
:104380000320EA6E1200040E0902F3500A24D880BA
:1043900004541200E552E750EF6E072A1200E66E51
:1043A00007509EDFCAEF21F0D9CFE6FFE1CFD9FF5A
:0243B0001200F9
:0E43B200949A94969E96120018D9F050200B03
:1043C00001E0010E016EFDD8E66A1FD9E8B0F08A5F
:1043D000E8A0F09A12D10AD9F050200B01E0010EAA
:1043E000016EEFD8010EE66E10D9E8B0F08AE8A0B1
:1043F000F09A03D110D901E0010E026EE2D8120E3C
:10440000EDD8E8B0F08AE8A0F09AF7D004D901E03E
:10441000010E026ED6D8130EE1D8E8B0F08AE8A0FB
:10442000F09AEBD0D9CFE6FFE1CFD9FF82E9E66A77
:10443000E1DF41E900EBE6FFE9DF41E900000000D0
:104440000000400EE66ED6DF41E9000000000000EB
:10445000000000000000000000000000E66ACADF63
:1044600041E941E9E7CFD9FF1200D9CFE6FFE1CF1B
:10447000D9FF82E9E66ABEDF41E9010EE66EE66A2F
:104480003EEC25F042E900EBE6FFC0DF41E9000029
:10449000000000000000400EE66EACDF41E90000C5
:1044A00000000000000000000000E66AA3DF41E910
:1044B00000D041E9E7CFD9FF1200D9CFE6FFE1CF25
:1044C000D9FF82E9010EE66EE66A3EEC25F042E98C
:1044D000800EE66E8FDF41E900EBE6FF97DF41E9F2
:1044E0000000000000000000C00EE66E83DF41E91E
:1044F000000000000000000000000000E66A7ADF13
:1045000041E941E9E7CFD9FF12009294898452D85A
:10451000979C8E9C4FD88E8C4CDF4FDF5CDFE66A19
:1045200069DF41E947D83C0E7FD844D8010E14EF2B
:1045300023F05CD8800EE66E98DF41E9016A100E28
:10454000015C0DE244D8EF5003E1200EE66E03D08B
:104550003ED8EFCFE6FFB1DF41E9012AF0D7C00E28
:10456000E66E83DF41E9100E016E200E015C0DE264
:104570002ED8EF5003E1200EE66E03D028D8EFCFFF
:10458000E6FF9BDF41E9012AF0D737D0010E39D889
:10459000020EE66EE66A3EEC25F042E9200EE66E7B
:1045A000E66AE66E330EE66E020EE66E6AEC27F001
:1045B00045E912000A0EE66EE66A3EEC25F042E995
:1045C0001200F09A8994400EE66E19EF23F0015024
:1045D000EA6A330FE96E020EEA221200E66E29D86B
:1045E00000EBE6FF26D8898402501200D9CFE6FFFF
:1045F000E1CFD9FF81E941E8120042E9E7CFD9FFD5
:104600001200E66E0FDF41E9120013D8E66A11D8F6
:10461000898401501200D9CFE6FFE1CFD9FF82E9AA
:1046200041E8F050200B1200ECDFC4DF0C0E01EF6C
:0A46300023F0BFEC28F041E912006E
:06463A00DBD887E941E82E
:10464000F250800B01E0010E076EF29E8996030E78
:10465000C3D8005001100BE0D3EC28F0E66ECED8A2
:10466000E552E750EF6E0006000E015AF2D7898638
:104670000750E8B0F28EE8A0F29E42E9E7CFD9FFFA
:104680001200B7D887E942E8076AF250800B01E0D0
:10469000010E086EF29E8996050EE66EB7D8D3EC31
:1046A00028F0076E898628EC00F007B0F4D78996C9
:1046B000060EE66EABD8898628EC00F08996020ECD
:1046C0008BD8076A0050011018E098D8EFCFE6FFAA
:1046D0009DD80006000E015A072A07500201022445
:1046E000546F000E0320556F54513F0BEBE1898648
:1046F00007500226000E0322CED789860850E8B064
:10470000F28EE8A0F29E43E9E7CFD9FF120071D8FC
:1047100085E9F60EE96E010EEA6E0201EE50022402
:10472000546FED500320556F566B5635000E5619D9
:1047300007E6D880000E5455800E5555000E56558C
:1047400002E2000E0ED000EBE9FF01EBEAFFF6C13A
:10475000EEFFF7C1EDFF01010250F6270350F723EA
:10476000010E41E9E7CFD9FF120043D881E941E8C2
:10477000010E016E0101F66BF76BE80EE66E010E9D
:10478000E66E020E23D8EA0EE66E010E43D8EC0E5A
:10479000E66E010E3FD8EE0EE66E010EE66E640E7A
:1047A00015D8F00EE66E010EE66E040E0FD8F20E6E
:1047B000E66E010EE66E020E09D8F40EE66E010EEC
:1047C00029D8015042E9E7CFD9FF1200E66EE66A28
:1047D0009EDF44E901161200E66E18D8020103EBD1
:1047E00054F2556B54C2E6FF11D802EBE6FF06EF18
:1047F00024F0D9CFE6FFE1CFD9FF120004EBE9FFA7
:1048000005EBEAFF042A000E05221200BFEC28F097
:0C48100041E91200E66E010EE6EF23F015
:04481C0042E8D9CFC6
:10482000E6FFDACFE6FFE1CFD9FFE2CFDAFF86E994
:10483000036A1200F3DF038003D0F0DF01D00382AC
:10484000026A080EE76ED890013602360050025C0C
:1048500002E3026E012AE72EF7D703B2120003B07B
:1048600081EB00F003A082EB00F0E552E5CFDAFF28
:10487000E7CFD9FF43E9120044E8D9CFE6FFDACF0A
:10488000E6FFE1CFD9FFE2CFDAFF8EE980EB08F057
:1048900081EB09F082EB0AF083EB0BF00450080285
:1048A000F350006EF450016E04500902F3500126DB
:1048B000000EF420026E04500A02F3500226000E8D
:1048C000F420036E04500B02F35003260550080237
:1048D000F3500126F4500222000E03220550090273
:1048E000F3500226F450032205500A02F350032627
:1048F00006500802F3500226F45003220650090223
:10490000F350032607500802F3500326E552E5CF83
:10491000DAFFE7CFD9FF48E9000C45E8D9CFE6FF39
:10492000DACFE6FFE1CFD9FFE2CFDAFF8FE90C6AF9
:104930001200F3DF0C8003D0F0DF01D00C820B6A91
:104940000A6A096A086A200EE76ED89004360536AE
:1049500006360736083609360A360B360050085C2C
:104960000150095802500A5803500B5809E30050EF
:10497000085E0150095A02500A5A03500B5A042A81
:10498000E72EE4D70CB212000CB00AD088EB00F08E
:1049900089EB01F08AEB02F08BEB03F00CA008D05E
:1049A00084EB00F085EB01F086EB02F087EB03F07F
:0E49B000E552E5CFDAFFE7CFD9FF49E9120063
:0249BE00D9CF4F
:1049C000E6FFE1CFD9FF85E944E854D000EBE6FFEC
:1049D00001EBE6FF02EBE6FF03EBE6FF190EE66EE6
:1049E000E66AE66AE66A3CEC24F0E552E5CF57F267
:1049F000E5CF56F2E5CF55F2E7CF54F2020154511C
:104A0000056E5551066E5651076E5751086ED950B6
:104A1000050FE96EDACFEAFFAF0EEE5E000EEE5A3A
:104A2000000EEE5A000EEE5A083408E205502D082A
:104A3000000E0654000E0754000E085401E31AD06D
:104A4000083408E205500008000E0654000E075412
:104A5000000E08540FE20000D950050FE96EDACFBE
:104A6000EAFF2A0EEE5E000EEE5A000EEE5A000E1F
:104A7000EE5AE6D745E9E7CFD9FF1200D9CFE6FFD6
:104A8000E1CFD9FF83E944E800EBE6FF01EBE6FF65
:104A9000E66AE66AC40EE66E090EE66EE66AE66A45
:104AA0003CEC24F0E552E5CF57F2E5CF56F2E5CFE6
:104AB00055F2E7CF54F202015451036E5551046E82
:104AC0005651056E5751066ED950030FE96EDACF75
:104AD000EAFFAA0EEE5E000EEE5A000EEE5A000E2F
:104AE000EE5A063408E20350C308000E0454000EC8
:104AF0000554000E065402E31BD01AD0063408E217
:104B000003500008000E0454000E0554000E065415
:104B10000FE20000D950030FE96EDACFEAFF270E4B
:104B2000EE5E000EEE5A000EEE5A000EEE5AE6D77A
:084B300045E9E7CFD9FF1200AF
:084B3800700ED36EC088DF0E81
:104B4000C16EC268C098926893689468956A896AD1
:104B50008A6A8B6A8C6A9380928A959E959C938AC6
:104B60009488949A9496C00EC76E210EC66E96963F
:104B70009494959E959CF094F08A8D868B84F28E09
:104B8000400EC76E210EC66EF18692968986F28E11
:104B900085EF22F07CD883E9C6EC22F00150E66E66
:104BA000E66AAA0EE66E3E0EE66E68D80050E66E25
:104BB000E66A990EE66E3E0EE66EE66A430EE66E15
:104BC000020EE66E35EC28F047E999EC22F041E957
:104BD000E7CFD9FF12005BD885E941E8C6EC22F0A7
:104BE0000150E66EE66A02EBE6FF03EBE6FF46D80D
:104BF00099EC22F000500CE0056A080E055C08E212
:104C0000FA0EE66EE66A3EEC25F042E9052AF5D793
:104C100042E9E7CFD9FF12003AD881E944E881B0F0
:104C200004D081A0FED7010E07D080BA04D080AA9C
:104C3000FED7020E01D0000E45E9E7CFD9FF1200E2
:104C4000F250100B04E0F250020B01E0F292F0502F
:104C5000100B04E0F050020B01E0F092F250080B50
:104C600004E0F250010B01E0F290A050020B05E0CD
:104C7000A150020B02E0A1928C7E1200E66A330E74
:104C8000E66E020EE66E35EC28F047E91200D9CF49
:084C9000E6FFE1CFD9FF12009D
:084C9800948E949C240EAD6E75
:104CA000900EAC6E1F0EB06E1200D9CFE6FFE1CFB2
:104CB000D9FF83E941E800EBF6FF01EBF7FF002A9B
:104CC000000E01220800F550036E035005E003EBCF
:104CD000E6FF06D841E9EFD742E9E7CFD9FF120056
:104CE0004ED8ADA2FED700EBAEFF41E9E7CFD9FF2A
:104CF0001200ACA202D0AC98AC88AF5012003FD8E2
:104D000041E880EB02F000380F0B0F0B006E0050F3
:104D10002BD80F0E0214006E005026D842E9E7CFC0
:104D2000D9FF12002CD8640E005C05E3640EE66E19
:104D300000EBE6FF2AD80A0E005C09E30A0EE66ED5
:104D4000640EE66E00EBE6FF1DEC24F01ED80A0EA2
:104D5000E66E00EBE6FF1DEC24F041E9E75004D8D5
:104D600041E9E7CFD9FF1200F76A3B0FF66E520E0A
:104D7000F7220800F5CFE6FFB3DF41E91200D9CFF3
:104D8000E6FFE1CFD9FF82E912001AEC24F041E9F5
:064D9000E750B4EF26F02D
:0A4D960020B2202020B22020B2201D
:104DA000B22020202020B220B20D0AB220B220B2C0
:104DB00020B2202020B22020B22020B220200D0AD4
:104DC000B22020B22020B220B220B22020B2202077
:104DD000B220B20D0AB22020B22020B220B2202090
:104DE000B220B220B22020B20D0AB22020B2202080
:104DF000B220B2202020B220B2202020B20D0AB270
:104E0000B2B22020B2B2B2B20D0AB22020B220B2A9
:104E10002020200D0AB22020B220B2B2B2B20D0A78
:104E2000B22020B220B22020200D0AB2B2B220203F
:064E3000B2B2B2B20D0A9D
:0A4E36001E0EF66E000EF76E000E61
:104E4000F86E02010900F550676F0900F550686FB0
:104E500003E1676701D03DD00900F550626F09009A
:104E6000F550636F0900F550646F09000900F550B3
:104E7000E96E0900F550EA6E090009000900F550D5
:104E8000656F0900F550666F09000900F6CF69F2F9
:104E9000F7CF6AF2F8CF6BF262C2F6FF63C2F7FF98
:104EA00064C2F8FF0201655302E1665307E009009E
:104EB000F550EE6E6507F8E26607F9D769C2F6FFAE
:104EC0006AC2F7FF6BC2F8FF02016707000E685B5A
:044ED000BFD7120036
:0C4ED400FE0EE3CFE9FFFF0EE3CFEAFF84
:104EE000E9CFF3FFEACFF4FFFB0EE35003E1FC0E42
:104EF000E35009E0FB0EE30602E2FC0EE306FD0EC2
:104F0000E350EE6EF1D71200FE0EE3CFE9FFFF0E85
:104F1000E3CFEAFFF36AF46AEE5203E0F34AF42ABD
:104F2000FBD71200FF0EE3CFF8FFE552FF0EE3CFF1
:104F3000F7FFE552FF0EE3CFF6FFE552E66AE66AB9
:104F4000E66A0900F55209E0FD0EE32A05E1FE0ECE
:104F5000E32A02E1FF0EE32AF4D7FD0EE3CFF8F1D6
:0E4F6000FE0EE3CFF9F1FF0EE3CFFAF11200DF
:024F6E004F4FA3
:104F70004F4F4F4F4F4F4F4F4F4F4F4F4F4F4F4F41
:104F80004F4F4F4F5050505050505050505022247F
:104F900026282A2C2E30323437393B3D3F414330CE
:104FA000474A4C4E050707090B0D11141618360019
:104FB0008402090409060C08C10A7D0C640E141051
:104FC0000012001400163818C81A0D1C001E72209A
:104FD0003822382407260028002A692C812E7E30AA
:0E4FE0009632F83488364038003AE83C003EFD
:024FEE00050EAE
:104FF000D56EF184F294F28AD58E0001FD6BFE6BC2
:105000001200D9CFE6FFE1CFD9FF81E946E8036A74
:10501000046AF29AF250040B01E0010E056ED650BC
:10502000016ED750026EF250040B01E0010E066EC5
:105030000650055CEFE1055006E0F2940001FD2BFF
:10504000FD5101E1FE2B0001FD510326FE51042616
:10505000F28A01EBF8F102EBF9F103EBFAF104EB60
:0A506000FBF147E9E7CFD9FF12008A
:06506A00D9CFE6FFDACF0A
:10507000E6FFE1CFD9FFE2CFDAFF87E944E8D9CFF5
:10508000E6FFDACFE6FFE552E5500A6EE750096E1B
:1050900009EBE6FF0AEBE6FF00EBE6FF01EBE6FFBC
:1050A00002EBE6FFD950030FE66E000EDA20E66E43
:1050B000A1EC15F047E9F350076EF450086E03EBCE
:1050C000E9FF04EBEAFFEF6A07EBF3FF08EBF4FFFD
:0C50D00045E9E5CFDAFFE7CFD9FF120079
:0450DC00D9CFE6FF43
:1050E000DACFE6FFE1CFD9FFE2CFDAFF85E901347D
:1050F00015E200EBE9FF01EBEAFFEECFF3FFEDCFA6
:10510000F4FFEE2A000EEF22F3CFE9FFF4CFEAFF1F
:1051100002EBEFFFEF50F36EF46A0DD0FE0E005C71
:1051200005E102EBE6FFFAEC28F004D002EBE6FF23
:1051300003EC00F041E941E9E5CFDAFFE7CFD9FF21
:0251400012005B
:0E5142004B00000070000000BB000000510197
:1051500000007D020000D504000085090000E51272
:105160000000A5250000254B000025960000252CF9
:0E51700001002558020025B00400256009004A
:02517E00D9CF87
:10518000E6FFE1CFD9FF82E941E89E96C950026E61
:10519000C69E00EBC9FFC6BEFBD79EA6FED742E95E
:1051A000E7CFD9FF1200E66AEADF41E9C9501200F1
:1051B000F36AF46AFF0EE124E96EFF0EE220EA6E64
:1051C000ED6607D02F0EEF6404D03A0EEF6001D0E9
:0451D000F32A1200AC
:0C51D400400EF36E00EE00F00F0E01D84C
:1051E0001200EA6002D0EE6AFCD7F350E9601200C8
:0451F000EE6AFCD790
:0C51F400FF0EE350ADBA04D0B06AAC8EE0
:10520000AD8A949CADA2FED7AE6EF36EF46A120026
:105210001EEE00F02EEE00F0F86A1BEC27F00BEC0F
:0A52200000F093EC19F0FBD7120028
:06522A003031323334354F
:0B523000363738396162636465660040
:05523B00303132333474
:0B5240003536373839414243444546BB
:05524B0002776655002A
:0452500000FF00114A
:02525400000058
:02525600000056
:02525800021939
:020000040001F9
:01FFF800E028
:01FFFA00C541
:01FFFB00FB0A
:00000001FF
