:020000040000fa
:020000041fc01b
:042ff40099fff8ff4a
:020000040000fa
:020000041fc01b
:042ff800fbed6aff84
:020000040000fa
:020000041fc01b
:10000000c09f1a3c90045a270800400300000000db
:020000040000fa
:020000041fc01b
:10038000009d1a3c14395a27080040030000000061
:020000040000fa
:020000041fc01b
:10118000009d1a3cb4375a270800400300000000b5
:020000040000fa
:020000041fc01b
:0812e000140c400b000000009b
:020000040000fa
:020000041fc01b
:08136000670c400b00000000c7
:020000040000fa
:020000041fc01b
:1004900000601a40c0045a7f0500401300000000ad
:1004a000009d1a3c24395a27080040030000000030
:1004b00001a01d3c0080bd2700a01c3cf07f9c27b4
:1004c0000260094020582001801e2a7d8449497d10
:1004d0000260894000e0dc4102608b40009d083ce6
:1004e0001d39082509f800010000000000a0083ca3
:1004f0000c00082500a0093cc002292506000010b8
:1005000000000000000000ad040000ad080000add8
:100510000c0000ad100008252b080901f9ff20147c
:1005200000000000009d083cc476082500a0093c9e
:100530000000292500a00a3c0c004a2505000010f7
:100540000000000000000b8d00002bad040008250a
:10055000040029252b082a01faff201400000000be
:100560000000093c000029251d00201100000000aa
:10057000009d083cd076082500a0093c00082925ec
:1005800000a00a3c00084a2500000b8d00002bad9e
:1005900004000825040029252b082a01faff20144d
:1005a000000000000000093c0008292588bf0a3c23
:1005b00010204a25000049ad0100093c0080292592
:1005c00088bf0a3c20204a25000049ad0100093cb3
:1005d0000080292588bf0a3c30204a25000049ad0b
:1005e00000488040ffff0a2400588a40c09f093c11
:1005f00000102925017889400000093c01002925c7
:1006000000000a2444492a7d01608a408000093c98
:1006100000688940008008408005097d404c090041
:10062000006008405800013c244001012540280199
:1006300000608840009d083c2139082509f8000128
:100640000000000000600840bfff013cffff2134b4
:100650002440010100608840000084300000a53083
:10066000009d083c00000825080000010000000073
:020000040000fa
:020000041d00dd
:1000000006004077000000002d0e40770000000041
:10001000ffff001000000000f664006a06d205d25f
:100020001a182e0107d21a18c1030065f2b41a1863
:10003000d6030065f1b41a18d6030065f0b41a1897
:10004000d6030065efb41a18d6030065eeb41a188b
:10005000d6030065edb41a18d6030065ecb41a187f
:10006000d6030065ebb41a18d6030065eab41a1873
:10007000d6030065e9b41a18d6030065e8b41a1867
:10008000d6030065e7b41a18d6030065e6b41a185b
:10009000d6030065e5b41a18d6030065e4b41a184f
:1000a000d6030065e3b41a18d6030065e2b41a1843
:1000b000d6030065e1b407951a18d001016ee0b2cd
:1000c00040a25a3201680cea1b2a1a18f4059067fc
:1000d0000aea1661dbb407951a18d001d067dab4c2
:1000e0001a18d6030065d9b460a4806a4bea6dea99
:1000f00040c4d3b4706740a45a326ceafc226b103f
:100100001a18f405006cd1b380a37f6a8cea40c34f
:1001100080a3416a4bea8cea40c3016a4bea7c67e0
:1001200010f051c3cab41a18d6030065c9b4006de3
:100130001a18d001c5670a6c016d1a182908abedb1
:1001400022672922c4b41a18d6030065006c04d4af
:100150002221c2b41a18d60300650492443041e04b
:100160000830bfb361e01a18f80380a0bdb41a18b4
:10017000d60300651a18ee0388a0bbb41a18d6037c
:10018000006540a09c6710f051c40493414311eafc
:1001900004d223eade611a184a09006c0b21006cb4
:1001a0001a182007a467ff721061b0b41a18d6039a
:1001b00000650b10aeb4006d1a18d001c567016c54
:1001c0000a6d016e1a180907cbeea0b460a4806a0c
:1001d0004bea6dea40c41a188907ff6ca5b45c6746
:1001e00030f0b0a21a18d001016ea3b4006d1a1835
:1001f000d001c5671a18830700656b229fb240a221
:10020000086b6cea04229eb41a18d60300659bb2f0
:1002100040a2036b6cea05229ab41a18d603006553
:10022000041099b41a18d603006594b01a18ee0396
:100230008da040a0406b6cea1e2294b41a18d6031d
:10024000006540a0806b6beb6cea092241981a189c
:10025000ee0381a241981a18ee0380a20c100069e7
:1002600086b041982be21a18ee0383a2414122671f
:1002700011e90459f66186b41a18d60300697fb2f1
:1002800062674ca20d220367429b49e11a18dd0305
:1002900080a24141226711e970674ca043e9f361f4
:1002a0006ab560a57a33016a4ceb4eeb4ceb7833c0
:1002b00080a5be4a8cea6dea40c51a187007006531
:1002c0000793414311ea07d206941a18c101a267a5
:1002d00091171a18df0100650172036002722d6028
:1002e00089179c6730f050a4016804ea0fe869b4ec
:1002f000006d1a18d001c5671a18fd0890670172c1
:10030000126165b45c6730f0b0a21a18d001006ebb
:1003100062b41a18d60300657c6730f090a31a18ef
:10032000f803006567175eb4006d1a18d001c56741
:100330005cb41a18d60300655d17006a9c6730f03c
:1003400051c459b2059359eb10ec8a33643269e217
:10035000443205934be311ea0a2a54b30d6a40c3b1
:10036000026a9c6730f051c40a6a41c326100069d2
:100370004eb04fb74cb2059359eb10ec8a365c6720
:1003800030f0b1a28567a14511ec11e4c433cde38f
:10039000643305926fe211eb643269e248326be23a
:1003a00029e2e9e2fff755a240c44141226711e981
:1003b0000b59e8617c6730f0b1c30594414411ea00
:1003c00005d2006c1a18cf06016d02670a2a39b4eb
:1003d0001a18d603006538b4b0671a18d001016e38
:1003e00004100693414311ea06d206941a18c1017b
:1003f00007950017f46b009d346c009d4c6c009dbc
:10040000686c009d846c009d9c6c009dc06c009d80
:10041000dc6c009df86c009d186d009d306d009d9a
:10042000706d009db06d009df06d009d306e009d63
:10043000746e009db06e009db86e009dd06088bf48
:10044000d86e009df46e009d206088bf446f009db3
:10045000606f009d706f009d8c6f009d140100a067
:10046000986f009d0071009da46f009db06f009d6e
:10047000d06f009df06f009d440100a01070009da2
:100480001c70009d3870009d5470009d5c70009d34
:100490006070009d7070009d9070009db070009d18
:1004a000d470009dabaaaaaab00000a0bc6b009dae
:1004b000f070009d0471009de3646cb340a3046c74
:1004c0001c658dea40c36ab380a3406a8dea40c3cd
:1004d00040a3806dabedadea40c366b380a37f6af5
:1004e0008cea40c340a3416ecbeeccea40c362b776
:1004f00041a702680dea41c760b340a34deda0c318
:1005000041a3026c8bec8cea41c340a3ccea40c30c
:100510005bb341a34cec81c340a34ceec0c359b3c1
:1005200080a3056a4bea8cea40c380a3036a4beac6
:100530008cea40c354b340a398674dec80c340a3fa
:100540000dea40c341a74de801c741a7016c8dea00
:1005500041c7016b6beb4db260da30f1006b4cb20e
:1005600060da4cb260da4cb242a24e32036b6ceaf3
:10057000646764ea436749b35beb12eb48b263ea32
:10058000106048b5843242425beb12ea43ed0460ee
:100590004144826711ecf61743b280da43b280da45
:1005a0000510006a40b340db40b340dbff6b414bba
:1005b0003fb260da806b1b653eb260da80f2004bbe
:1005c0003db260da146b3db260da3db260da0468c5
:1005d0003cb200da3cb73db360df3db63db240de31
:1005e0003db460dc3db540dd3db360df3db240de93
:1005f00060dc3db240dd3db5026b60dd3cb4006abd
:1006000040dc60dd60dc00dd00dc3ab4586740dcd3
:1006100039b340db80f7004a40dc40db1a1c1d196f
:10062000006512b340a30dea40c311b461a4116a7e
:100630004bea6cea41c431b461a4106a6dea41c46a
:100640002fb381a3096a4bea8cea41c380a37f6a76
:100650008cea40c32bb340a34de800c31a18a10293
:1006600000656364a0e80065609080bfc06088bfdb
:10067000006088bf006188bf406188bf606188bf3b
:10068000406088bf606088bf045880bf005880bf4a
:10069000005a80bf00f080bf0090d00380841e000d
:1006a00040420f00305880bf305a80bf446188bf3d
:1006b000486188bf086188bf446088bf689080bf78
:1006c000846188bfa41088bf0000001ca81088bfe8
:1006d00000000010b41088bfb81088bf00000003ed
:1006e0000000000200000001041088bf081088bf4d
:1006f000641088bf681088bfe06088bf301088bf72
:10070000806188bff564046711e811ed1a182303ae
:1007100004d509b1916709b51a182f0ed0679167f2
:10072000104c07b51a182f0e04961a18f902006516
:100730007564a0e8540000a01471009d2471009d10
:100740000cf0f464046725671a18230311e90bb44d
:10075000b0671a182f0ed1671a18f90200650a92ad
:10076000092200681a180702fa6c4140026711e872
:100770000858f8617464a0e8540000a0f5643c6770
:100780001bb240a25a3201680cea0d2a10f05c99a3
:100790002a2a10f01cd9916730f0004c1a18230255
:1007a00000655067211012b240a211ea5e320e2a93
:1007b00010f05c99182a414210f05cd9916730f032
:1007c000004c1a1823020065026a0e101a18230240
:1007d000040430f0409904934fe308f0005b036198
:1007e000006a10f05cd9006a7564a0e8d06088bf28
:1007f000ff63883289e25c3200d20092e84a00d27c
:100800000092015209610092015206610092484231
:1008100000d200920152fa6020e8016331ec072413
:10082000a5f10a6b6f436feafd2a8f44f92ca0e80b
:10083000ff6b61430eb260da006c0eb280da0eb666
:1008400080de0eb580dd0eb280dafff71f6b0db2d1
:1008500060da786a40de80dd016b6beb0ab260da49
:1008600010f0006b09b260daa0e80065641088bf80
:10087000681088bf000880bf100880bf100a80bfc2
:10088000200a80bf200880bf080880bfff6344673c
:1008900006b3609b9d6760cc05b3609b61cc009301
:1008a00060da20e801630065100880bf100a80bf8d
:1008b000a16411ec056711e86db340a3026febef83
:1008c000ecea40c3a0a3036a4beaacea40c3a0a38e
:1008d000056a4beaacea40c3a0a3096a4beaacea5a
:1008e00040c3a0a3116a4beaacea40c340a3216e07
:1008f000cbeeccea40c3a0a3416a4beaacea40c3ca
:1009000040a37f6dacea40c35ab341a3acea41c3f4
:1009100059b340a3ccea40c358b340a34ceec0c384
:1009200057b39c3441a34ced8deda1c355b3016e7b
:100930009067ccec40a34cef8defe0c3a367006c55
:10094000026a0cea01228667843460a5036a4bead6
:100950006cea8dea40c54bb5006c046a0cea0122d2
:100960008144883460a5056a4bea6cea8dea40c58b
:1009700044b5006c086a0cea012281448c3460a5fd
:10098000096a4bea6cea8dea40c53eb5006c106a14
:100990000cea01228144903460a5116a4bea6ceaaa
:1009a0008dea40c537b5006c206a0cea012281440b
:1009b000943460a5216a4bea6cea8dea40c531b5f2
:1009c000006c406a0cea01228144983460a5416ab7
:1009d0004bea6cea8dea40c52ab51e337c3380a50c
:1009e0007f6a8cea6dea40c50065006523b460a4a7
:1009f000106a6dea40c40065006500650065006529
:100a000000650065006500651cb460a4116a4beace
:100a10006cea40c416b380a3016a8dea40c380a388
:100a2000026a8dea40c380a3046a8dea40c380a3b2
:100a3000086a8dea40c380a3106a8dea40c340a3d0
:100a4000206dadea40c380a3406a8dea40c340a355
:100a5000806c8bec8dea40c306b341a34dec81c39f
:100a600005b340a34deda0c32164a0e8006188bf99
:100a7000406088bfc06088bfe06088bf606088bf9a
:100a8000206188bff46451b09067206d1a18270e5a
:100a9000c567006a20f040c04db340a3116c8becd9
:100aa0008cea40c340a321692be92cea40c349b337
:100ab00080a3026a4bea8cea40c380a3036a4bea34
:100ac0008cea40c340a3056c8bec8cea40c340a386
:100ad0008c448cea40c340a388448cea40c340a3c2
:100ae0002cea40c340a3d04c8cea40c340a37f68ab
:100af0000cea40c338b340a32cea40c337b441a446
:100b00000cea41c440a3116c8bec8cea40c31a1868
:100b10000702394c32b341a30cea41c331b380a37d
:100b2000016a8dea40c380a3026a8dea40c340a3f4
:100b3000056c8bec8cea40c340a38c448cea40c328
:100b400040a388448cea40c340a32cea40c340a39e
:100b5000d04c8cea40c340a34ce800c3006500655c
:100b600021491bb060a0106a6dea40c01a18fc0150
:100b7000016c40a0116b6beb6cea40c01a180702c5
:100b8000026c4141226711e90359ec61006c1a18ab
:100b90002c02386d1a18fc01056c006c1a182c0216
:100ba000066d1a18fc01056c006c1a182c020c6ded
:100bb0001a18fc01056c006c1a182c02016d1a1829
:100bc0000702026c7464a0e8540000a0e06088bfd3
:100bd000006188bfc06088bf406088bf606088bf18
:100be000206188bff464006c1a182c02026d1a1878
:100bf0000702026c006825b124b249e040a20c2a29
:100c00007067105809609167206d89e3a0c2414365
:100c1000626711eb105bf9611cb249e0016c1a18b4
:100c20002c02a0a21a18fc01056c4140026711e8d1
:100c30001058e261006c1a182c02c06d1a18fc01e1
:100c4000056c106811b111b249e040a20c2a70671e
:100c5000205809609167206d89e3a0c24143626713
:100c600011eb205bf96109b249e0016c1a182c0202
:100c7000a0a21a18fc01056c4140026711e8205837
:100c8000e2617464a0e80065540000a0c364006cd5
:100c90001a182c02016d1a180702026c04b4206d98
:100ca0001a18270ec5674364a0e80065540000a029
:100cb000c36431ec006e666702740c6112b2826725
:100cc00040a208224146c26711ee89e640a20222f4
:100cd000105ef8610cb786674146c26711eef1e419
:100ce0004367614311eb49e540a240c4e9e6fff7e1
:100cf0005fa202221f5eef611a18f90200654364c9
:100d0000a0e80065540000a0f564046731ed04d547
:100d1000266731e91cb441a44e32016b6cea05d25e
:100d200061a4096a4bea6cea41c418b461a4116a6f
:100d30004bea6cea41c41a181b04036c04921a189b
:100d40001b0442345d6790a21a181b0411ec0921a0
:100d50001a182504006540c001404f41226731e95f
:100d6000f7290ab461a4106a6dea41c406b4059279
:100d70004c3561a4096a4bea6ceaadea41c475647a
:100d8000a0e80065601088bfe06088bf04f0f664ea
:100d900031ed04d531ee05d638b441a44e32016ba5
:100da0006cea06d261a4096a4bea6cea41c434b128
:100db00041a1116b6beb6cea41c11a181b04056c65
:100dc0001a1825040065026761a1106a6dea41c125
:100dd0001a182f040065016a0ceaea2a28b041a01b
:100de00011692be92cea41c01a181b04066c61a09a
:100df000106a6dea41c01a182f04006541a02cea60
:100e000041c01a181b04026c04921a181b044234c5
:100e10007d6790a31a181b0411ec006805921c2230
:100e200017b10c9380a361431a181b040cd30593cc
:100e30004f4331ea05d24140026711e8049211e2c2
:100e40003f6a8cea072a61a1104a6dea41c131ec80
:100e500004d4ad170593e52b09b461a4106a6deabb
:100e600041c406b406924c3561a4096a4bea6ceaa7
:100e7000adea41c47664a0e8601088bfe06088bf36
:100e800031ecdc6730f04eae89e210f0006b42ebe3
:100e9000026020e8006a30f04eae40cd30f04eae39
:100ea00049e430f04ece20e8016a0065e364016851
:100eb000006b5c6730f06eca0eb51a18a003026ca6
:100ec0004ce80db51a18a003016c4ce80bb51a18c4
:100ed000a003016c4ce80ab51a18a0033c6c4ce85e
:100ee00008b51a18a003046c0cea6364a0e8006556
:100ef000140000a0160000a0180000a01a0000a016
:100f00001c0000a010b242a24e32036b6cea6e438a
:100f100064ea0eb27aea12ea0db378ea10ec83338f
:100f20006f33c0f743324fe36f4306b260da10f01d
:100f3000006b08b260da12f4004b07b260daa0e886
:100f4000406280bf00f080bf00093d00b5814e1bac
:100f5000006280bf106280bfe364046780a4014028
:100f600006241a18dd03006580a00140fa2c636492
:100f7000a0e8006511ec05b5016b41a511ea6cea2a
:100f8000fc2203b280daa0e8106280bf206280bf3a
:100f900008b4016b41a446326ceafc2206b2409ac6
:100fa00004b581a5036b6beb8ceb61c520e811eafe
:100fb000401088bf306280bff464446711ea226742
:100fc000523207b009e21a18dd0380a20f6a2cea38
:100fd00001e21a18dd0380a07464a0e83471009d5a
:100fe000f464046711e80db259e810ea4e31516714
:100ff00011ea09b369e21a18dd0380a2283229e256
:10100000443243e011e804b241e01a18dd0380a045
:101010007464a0e83471009dcdccccccc36411ecd9
:1010200007b5016b40a54e326ceafc2205b280daae
:101030001a182a1900654364a0e80065105880bf9b
:10104000205880bfc36408b4016b40a44e326ceae0
:10105000fc22006b05b260da1a182a19006511ea41
:101060004364a0e8105880bf205880bfc36411eccf
:1010700007b5016b40a54e326ceafc2205b280da5e
:101080001a18301900654364a0e80065105a80bf43
:10109000205a80bfc36408b4016b40a44e326cea8e
:1010a000fc22006b05b260da1a183019006511eaeb
:1010b0004364a0e8105a80bf205a80bf0065a0e8b2
:1010c000f76400692c322be24c32c0f618b361e2af
:1010d0004ea0016b6cea10221a18230204046098d7
:1010e00004926be2c0f600b343eb0660006aa0f620
:1010f0001cb41a18d6034ec04141226711e90259a7
:10110000e1619c6730f074a4026a6cea1a221a1832
:1011100023020404bc6730f0789d04926be23ef435
:10112000046b43eb0e6030f074a5036a4bea6cea83
:1011300030f054c560f618b430f0aaad1a18630345
:101140003c6e1a186c0b006520f3072260f604b1a0
:1011500060f604b060a06a34016ecceccc356ced66
:10116000e367036a6ceaceeac3ea5867ccea543212
:10117000adec7e33cceb78334dec6dec80c1806a06
:101180004bea4cef0227419841d920f608b420f6eb
:1011900008b34ca34cc4a29ba2dc4ea34ec44da3e7
:1011a0004dc440a4206b6ceac0f2162240a58472a4
:1011b000a0f20b6085520f6081721c608252046045
:1011c0000472e0f10d60c0128272c0f01e60837282
:1011d000e0f10660b912917200f11460925203605e
:1011e00087727360b1129272a0f11d60977220f144
:1011f0000260aa12a0f51cb2429a41a29c6730f08c
:1012000070a46eea04221a18e80b0065ad12bc67e0
:1012100010f058a5037204611a18e80b0065a412b7
:101220001a18eb07006502677c6710f058a301727b
:1012300005614f4011ea025a0161f36860f51cb381
:101240006f6a4bea40c3026a9c6730f051c401c325
:1012500043e81a60414230f051c430f055a442c313
:101260000069a36730f091a440f514b64467814447
:1012700011eaa9e2cde160a360c24141226711e910
:10128000f521bc6730f091c51a18e80b006520f510
:1012900004b2e0a2ee37016b006ca19ac3671a1882
:1012a00096066cef60f200281c6730f056a04434bc
:1012b00051e4843430f0aaa8b5e4e0f414b251e467
:1012c00031ed1a186303066e4f127c6710f058a3b5
:1012d000035a04611a18e80b00654612c0f414b2f0
:1012e000429a41a29c6730f070a46eea04221a1858
:1012f000e80b00653912c0f404b3696a4bea40c3d5
:10130000026abc6730f051c530f055a541c3006991
:10131000a3671c6730f091a0a0f404b64467814431
:1013200011eaa9e2cde160a360c24141226711e95f
:10133000f5215c6730f091c21a18e80b006560f483
:1013400014b2e0a2ee37016b006ca19ac3671a18c1
:1013500096066cef09120068069304c39c6730f090
:10136000aaac0592b5e2069431ed1a186303066e35
:101370007c6730f051a361429c6730f071c411ea80
:1013800020f418b369e200c22010016abc6730f093
:1013900051c56e6b6beb20f404b260c2006900f4bf
:1013a00010b0243229e2443205d209e206d244a226
:1013b0005e320622ffb2819a1a1801070695cb2adf
:1013c0004141226711e90a59ec611a18e80b0065de
:1013d0000a710d617c6730f051a361429c6730f067
:1013e00071c411eaf5b369e2106b6beb60c2f1b244
:1013f000e0a2ee37016b006ca19ac3671a1896063b
:101400006cefb211ebb2429a41a2025a10601a1864
:10141000eb070065bc6730f074a5026a6dea30f036
:1014200054c5856730f0184c1a18230200651a1845
:10143000e80b006599111c6730f074a0206a6cea13
:10144000082230f074a0216a4bea6cea30f054c0f4
:1014500079107c6730f057a300691a22d9b0243282
:1014600029e2483409e440a2bc6730f070a56eea76
:10147000072ad5b251e4cfb21a180107a19a082a57
:101480004141226711e97c6730f057a343e9e761e6
:101490009c6730f057a42eea552a04595360c9b509
:1014a00030f077a4643269e24832a9e230f070a4e7
:1014b00060c230f077a4643269e24832a9e2bdb478
:1014c0006da468c21c6730f077a0643269e24832cc
:1014d000a9e26ea469c200697c6730f057a3443367
:1014e0004de368332de3ade3c467419c49e140a27d
:1014f00041c34141226711e90459ee619c6730f014
:1015000077a4643269e24832aeb369e2a9b3629b60
:1015100061a36ac20069abb586671c6730f057a04b
:1015200044334de368332de3ade3429c29e242a20c
:101530004bc34141226711e9f02130f057a04142ed
:1015400030f057c01a18e80b00650e11006a44c04d
:101550005c6730f0aaaa0793b5e3906731ed1a18db
:101560006303066e191093b2429a41a2152a2267ac
:10157000243229e2443207d28db481e244a05e32a3
:1015800006228cb2819a1a180107b067df2a4141fe
:10159000226711e90a59ec611a18e80b0065e4109a
:1015a0000068bc6730f011c500692c322be24c3268
:1015b0007cb48de24ea3016dacea80f013224ea301
:1015c00046edacea5322006808d02c322be24c32b4
:1015d00009d20993089489e372b5a1e244a0ff728d
:1015e0003e60443451e4843471b251e471b21a184b
:1015f0000107a19a3422016a4bea44c0099069b3f9
:1016000069e04fa2006c08d41a226cb6e3672c3252
:101610002be24c3475e41c6730f071a0414330f08c
:1016200051c011ebcde3089009e4e9e250a240c3b8
:10163000414011ea08d24fa5089343ebec612c32ec
:101640002be24c3257b489e2eea2ee37006c59b26d
:10165000a19ac46701681a1896060cef52100893f5
:10166000414311ea08d20a5ab4613c102c322be2f1
:101670004c3056b5b1e04fb21a180107a19a322288
:101680002c3552b369e04ba2006c08d419224bb63a
:1016900044b71c6730f091a0414430f051c011ecc8
:1016a000d1e42fe56c33089009e3e9e250a240c48d
:1016b000414011ea08d2ede34fa3089343ebe961ff
:1016c0002c3537e5ac3541b20c4201e5eea0ee37e2
:1016d000006c55e5c467016a1a1896064cef006a5b
:1016e0004ec00f104141226711e902595ff71d6199
:1016f00002710761006c2fb2a19ac4671a1896068e
:10170000e4671a18e80b00652f102ab2429a41a22a
:101710009c6730f070a46eea04221a18e80b00658a
:10172000231024b2429a1a18990882a228b41a18cf
:10173000d6030065bc6730f090a51a18f803006561
:101740001a18e80b006510101c6730f074a0086ac6
:101750006dea30f054c008105c6730f074a2086a7b
:101760006dea7c6730f054c312b24ca20b229c6726
:1017700030f074a4106a6cea052a30f074a4204a90
:101780006cea0b22bc6730f074a5096a4bea6cea7c
:1017900030f054c51a18e80b00657764a0e80065be
:1017a000540100a060e316008071009dd80000a0e5
:1017b000440100a0780000a0b00000a0000000a03c
:1017c000140100a0150100a0580100a09c71009d0b
:1017d00004f0f5641a18ab033c67006a30f054c19a
:1017e000006b48b58267643269e24432a9e284c280
:1017f0004143626711eb0a5bf6611a180c0200653f
:10180000006a30f051c1006b3fb582676c326be209
:101810004c32a9e28ec24143626711eb025bf66172
:10182000006b3ab583676832a9e280da41436267a8
:1018300011eb0a5bf8610a92222235b430f0a6a9b6
:101840001a184203016e30f050a1205a0261006a5a
:10185000541030b430f0a8a91a184203016e29b40c
:1018600030f0aaa91a1842033c6e2bb41a18d603fa
:10187000006530f090a11a18ee030065121024b430
:1018800030f0a6a91a186303016e22b430f0a8a99b
:101890001a186303016e1bb430f0aaa91a18630367
:1018a0003c6e1eb505d57d6750a3026b6dea854b76
:1018b0006cea206b6dea01680a930ceb6833056ce7
:1018c0008bec8cea6dea026b6beb6cea7d6750c3c4
:1018d0001a18980a049430f090a11a187707006536
:1018e00010f058a15032096b6dea30f055c10cb4bc
:1018f00061a4086a6dea41c450677564a0e8006598
:10190000d80000a0540100a0880000a0200000a082
:10191000080000a0b471009d040000a0601088bf02
:1019200008f0f4643e65006801692cefec370c3276
:101930000be24c3246b375e24ea5c2672cee7d2e0b
:101940002dea64672ceb6433036c8bec8cea6dea54
:1019500079672ceb68338e448cea6dea096b6beb8c
:101960006ceaedea4ec509921122866738b70c324f
:101970000be24c3689e6e9e209958de560a364c285
:101980004144826711ec045cf5612f10006ca46780
:1019900030b62fb23a650c371fe7843289e2443201
:1019a000cde244a35e320c2244a32cea092a6567e7
:1019b0004145a26711edec3269e2796769e284c2c0
:1019c0004144826711ec0a5ce8610a5d0e6020b652
:1019d0000c320be24c34a9e4c9e2016b6beb64c23c
:1019e0004145a26711ed0a5df6610c320be24c3203
:1019f00017b369e29c6730f071a46fc230f051a454
:101a0000006c122212b70c320be24c3512b689e58b
:101a1000e9e2cde460a370c24144826711ec7c67c7
:101a200030f051a343ecf3610c3413e48c3408b26e
:101a30001a18230251e4016a07104140026711e8b5
:101a400002587ff71461006a7464a0e8540100a092
:101a5000d80000a0b00000a0f56404673d652767ca
:101a6000006a7d6750c30126016a036f87674ceceb
:101a70007d6750a3046b6beb6cea8dea016ec3e8e3
:101a8000b867b434e34b6cea8dea7067cceb68332b
:101a9000056c8bec8cea6dea7167cceb64ef8c44df
:101aa0008cea6deab835416b6beb6cea6267adebc3
:101ab0005d6770c24367ecea0622806a4bea6dea12
:101ac0007d6750c305109d6750a47f6b6cea50c4be
:101ad000596705d2049407b67c6730f0f1a31a1851
:101ae000fa0ab967006b9c6730f071c47564a0e8ae
:101af000b00000a0e3640467006d10b7a432a9e24f
:101b00004432ede244a35e320a2244a3016cc26770
:101b10008cee052ea6671a184806f0670510414599
:101b2000a26711ed0a5dea61016c006dc5671a18c4
:101b30009606f0676364a0e8d80000a0e4643d6501
:101b4000c46711eec432c9e2443217b36de244a354
:101b50005e32252264a3016a6cea172aa267040098
:101b600011b7c432c9e244340de5a9e4e9e240a268
:101b700040c34145a26711ed045df661006c0405a8
:101b8000c4671a184806f9670b10c434d1e48434ca
:101b900005b251e4016d1a18ea06d9670110006a0e
:101ba0006464a0e8d80000a00cf0f464006804327b
:101bb00009e2443213b375e244a55e32112264a5f2
:101bc000016a23674ce90c291a18010708940822b6
:101bd00091670895d1671a1848060a971a650c107c
:101be0004140026711e80a58e261006c0895c46739
:101bf0001a1896060a971a6558677464a0e8006573
:101c0000d80000a0006ec9e4cde540a260a36eea52
:101c1000022220e8006a4146c26711ee045ef361c9
:101c200020e8016ae46411ec11ed017409600254ca
:101c3000026004241d10027419601a10016a191040
:101c40008667006e1a185d08040702671a1877077e
:101c500082670ab41a18d60300651a18f803906749
:101c600007b41a18d6030065016a0310006a011050
:101c7000006a6464a0e80065c071009d0071009d69
:101c8000f86411ec06d411ed3c6710f058a107d2ae
:101c9000036b08d3006a09d201750b61ff6a8610d5
:101ca00030f074a1116a4bea6cea30f054c1ff6a5b
:101cb0007d101a182302040404923ef4046b6bebab
:101cc00069e204d2006a10f058c130f074a1106ac1
:101cd0004deb30f074c130f074a16cea61220693d0
:101ce000643306924de30ad31a18230205040594bf
:101cf00004924be43ef4046b43eb466004d4099336
:101d00004f4311ea09d2ff724661016a09d2089372
:101d10004f4311ea08d2ff72c36026b37f6a4bead1
:101d200040c330f050a141c3036a30f051c130f0dc
:101d300055a142c3006dc36730f091a11eb744673f
:101d4000814411eac9e2ede560a360c24145a267a2
:101d500011edf52530f091c10692ff720761016c1b
:101d6000006dc4671a189606e5670e100a9368306e
:101d700012b369e01a18770780a2006c10b255e020
:101d8000016e1a189606e4671a1883070065032285
:101d90001a187007006530f074a1106a6ceaa42a62
:101da0007d677ca310f078c130f056a17864a0e87c
:101db000b00000a0000000a0140100a0150100a0c8
:101dc000c3649c6730f074a4096a4bea6cea30f093
:101dd00054c41a18e80b00654364a0e8f46411ecdd
:101de0003c6704671a18740a006d0a2230f010c1ab
:101df00006b430f0a6a91a186303016e016a011037
:101e0000006a7464a0e80065200000a0c3641a188a
:101e1000300400655c6730f054a24e32016b6cea0e
:101e20004364a0e8f764046711e80b581e6157b4d7
:101e30001a18d60300695c6710f0144a04d2036bc9
:101e40002be3049369e21a18ee0380a24141226752
:101e500011e90459f4614eb41a18d60300655c67a1
:101e600030f090a21a18f80300650a58406049b48f
:101e70001a18d6030065043209e2443246b369e217
:101e800044a25e327e221a18ee03906743b41a18f9
:101e9000d6030069043209e2443205d204590860cd
:101ea00005932be33cb369e21a18ee0383a20410f6
:101eb0003bb41a18d60300654141226711e908595d
:101ec000ed6138b41a18d6030069043209e24430cf
:101ed00029e031b369e21a18ee0385a24141226775
:101ee00011e9f62130b41a18d60300654a102fb450
:101ef0001a18d6030069243229e2443226b369e273
:101f000044a25e3239221a18ee03916723b41a18dc
:101f1000d603006820b206d2243229e2443207d226
:101f20000458086007930be3069369e21a18ee035e
:101f300083a204101ab41a18d60300654140026740
:101f400011e80858ed6117b41a18d603006812b2e8
:101f500008d2243229e2443209d2099309e30893d2
:101f600069e21a18ee0385a24140026711e8f520e4
:101f70000db41a18d60300654141226711e90a59c8
:101f8000ba617764a0e80065ec71009d0072009d65
:101f90000c72009dd80000a03c72009d4c72009d08
:101fa0005072009d0071009d5872009df564006a9a
:101fb00004d2ff6939b24ca2035a0260026a6a1065
:101fc0000068043209e2443235b375e244a55e325a
:101fd000092232b21a180107819a07223067016a72
:101fe00004d20810ff71016130674140026711e8b7
:101ff0000a58e761ff710261f16a4c107c6710f0ca
:1020000058a30222049246100068243229e2443583
:1020100023b622b40de5cde3e467419c49e040a23c
:1020200040c34140026711e80858f461243431e4a8
:1020300084341bb251e444a4806b6beb6dea44c45e
:1020400016b3629ba2a3016b6ced6d436ceaadea23
:1020500044c4006812b6243229e2443587670de58e
:10206000cde3429c09e243a245c34140026711e827
:10207000f62028320bb369e2006b60da5c6730f05f
:1020800036c230f074a2116a4bea6cea7c6730f019
:1020900054c304927564a0e8440100a0d80000a0d5
:1020a000880000a008f0f66411ec06d45c6730f0fc
:1020b00050a207d200692cb4016b6beb243229e2e9
:1020c000483289e260c24141226711e90459f66150
:1020d000006a7c6730f057c30069016a44e90d93d8
:1020e0006cea332221b41a18d60300651a18f803d3
:1020f00091671a1877079167796a4bea1cb340c356
:10210000026a7c6730f051c330f050a318b341c36a
:10211000016c006dc4671a189606e5671a18230249
:1021200004040693683213b361e21a18830700654a
:1021300003221a18700700651a1823020504059275
:1021400004936be2609843ebf0604141226711e930
:102150002059c3611a18770707947c6730f057a39a
:102160007664a0e8140100a08c72009db00000a06d
:102170004471009d0ef0f864056711e811eeff6ae6
:1021800008d202261a655f1031b41a18d603083037
:10219000006b06d30ad0016a069344eb10936ceaf5
:1021a0004a22006a09d21a18770706941a182302dd
:1021b00004040a9327b241e31a18f20b016c099345
:1021c00043eb016009d21a18230205040592049317
:1021d0006be2609843ebf0601fb41a18d6030068f6
:1021e0001a18f80306941db41a18d60300651cb219
:1021f000099359eb10eb6a32226711e908211a188a
:10220000dd032d6c4140026711e823e8f86115b445
:102210001a18d60300651a18ee0309940992089358
:1022200063ea096008d2069207d2139304235d671c
:1022300020f040a240c30693414311ea06d2205a3f
:10224000aa6107921a6558677864a0e89c72009d9d
:102250004471009db472009d5c70009dcdcccccccf
:102260004872009df66411ec06d4006915b01a1886
:10227000230204041a1823020504059204936be256
:102280002ff01d5af7617c6a4bea40c07c6730f042
:1022900050a341c0036a30f051c35d6758a242c0e9
:1022a000016c006dc4671a189606e5674141226704
:1022b00011e90359dc611a18770706947664a0e8df
:1022c000b00000a008f0f76411ec06d43c6730f0d1
:1022d00050a108d21a182302040430f074a1206a15
:1022e0006dea30f054c1006b07d3006830f054a1a0
:1022f000206b6cea4b223cb209d21a182302050467
:10230000059304924be32ff01d5a346104d32058f7
:102310003d60016a44e80f936cea0a2a4140026773
:1023200011e820584760016a44e80f936ceaf622ee
:102330002cb41a18d60300651a18f80390671a18f7
:10234000770790674140026711e8796a4bea099381
:1023500040c3026a30f051c130f050a141c306922f
:10236000443555e5a435006c20b255e5016e1a18c8
:102370009606e4671a188307006503221a18700787
:10238000006530f054a1206b6ceab72a30f054a1fc
:10239000206b6cea0f2a16b41a18d603006530f0c9
:1023a00090a11a18f803006512b41a18d603006534
:1023b000016a14101a182f0400650793414311eaab
:1023c00007d2035a92611a187707089430f074a163
:1023d000216a4bea6cea30f054c1006a7764a0e8e5
:1023e000c072009db00000a0d80000a0d472009d73
:1023f0000071009df56424675c6730f010a210f056
:1024000058a205d21a184a09036c91670a6d006e2a
:102410001a185d08040722671a184a0905941a1841
:10242000770790672ee80228006a0f1009b41a187f
:10243000d60300651a18f803916707b41a18d60373
:1024400000651a1899089167016a7564a0e800652b
:10245000fc72009d0071009df464246711e9ff7116
:1024600032610069243229e244322eb375e244a578
:102470005e321422016b5c6730f071c200687e6ac4
:102480004bea29b340c39067016e1a189606f067ad
:102490004140026731e8e1f71f58fa61243535e51c
:1024a000a43520b251e5006a44c47c6730f04aabe1
:1024b00055e531ed1a186303066e4141226711e9b3
:1024c0000a59d0612a10243229e2443215b375e248
:1024d00044a55e322222016e5c6730f0d1c20068f2
:1024e0007e6b6beb10b260c290671a189606f067ad
:1024f0004140026731e8e1f71f58fa61243535e5bc
:10250000a43508b491e5006a44c47c6730f04aab56
:1025100055e531ed1a186303066e7464a0e8006592
:10252000d80000a0b00000a0c36411ecbc67045c3c
:10253000126010f098c530f055a50f6b6cea10f0e2
:1025400078a570336dea30f055c505b430f0a8ad0c
:102550001a186303016e4364a0e80065080000a038
:1025600004f0b1642567c0ace1ac006c33f6176ac7
:102570003a65a4670368f033f6324eebede3446747
:102580000cea443229e240aa49e44eebcde3c367aa
:1025900031ee796769e4826731ecd033d6324eeba5
:1025a000cde382324e320cea443229e240aa49e4b9
:1025b0004eebede3e36731ef4145a26711ed205d9e
:1025c000da610292c0cae1ca3164a0e80ef0f56493
:1025d00011ed04d5aa32414205d200692c225c6774
:1025e000026730f01c48006d0de50d94a9e440a28f
:1025f00040c34145a26711ed035df66123c010b4ed
:102600001a1858090c95006d2832a9e2049362ea61
:102610000c600a9371e20de540a460a36eea40c429
:102620004145a26711ed045def614141226711e967
:10263000059483e9d8617564a0e800652c0000a0ca
:102640000cf0f564276711ed04d5aa32414205d29a
:102650000068006b09e160c24140026711e804585c
:10266000f961006805921c22006d0836ade60492ff
:1026700042eb0c60b1e10a924de340a460a36eea24
:1026800040c44145a26711ed045df06191671a18dd
:1026900058090c954140026711e8059363e8e4612d
:1026a0007564a0e80ef0f564056711e811ee04d634
:1026b000d5e02467c76718b71a18900911ed006ca8
:1026c000049369e115e28de55c6730f01c4a49e44a
:1026d00040a240c34144826711ec045cf461006c89
:1026e000bc6730f01c4dade403ec036089e140a20f
:1026f0000110006a40c34144826711ec035cf3613e
:102700000492a44231e011ed03b71a1873090d9633
:102710007564a0e82c0000a00ef0f464056711e8d1
:10272000266711e9006cbc6730f01c4dade403ec8a
:102730000460089689e640a20110006a40c3414443
:10274000826711ec035cf261089251e0b16713b744
:102750001a1873090b9635e0ae45089411ed0fb7c2
:102760001a1890090b96006c7c6730f01c4b6de4d6
:1027700089e109e20895a9e260a3fff75ea24eebaa
:102780000223006a06104144826711ec025cec618e
:10279000016a7464a0e800652c0000a0c3641a18e4
:1027a000070a206c0f6b4ceb643269e24c3269e231
:1027b000194a4364a0e80065f56431ec04d416b20c
:1027c00001a20e30016b6ce841a2f64b6cea12b329
:1027d00041c312b160a1036a4bea6cea40c10492a2
:1027e0001a18070442347d6790a31a18070411ece5
:1027f00060a1026a6dea40c1016a4ce80c3006b380
:1028000041a3096b6beb6cea0dea03b341c375643a
:10281000a0e80065601088bf606088bff46411ecb8
:1028200014b201a20e30016b6ce841a2f64b6ceac7
:1028300010b341c310b160a1036a4bea6cea40c116
:10284000406a1a1807044dec1a181104006580a19b
:10285000026b8deb60c1016c8ce80c3005b461a497
:10286000096c8bec8ceb0deb02b461c47464a0e8d2
:10287000601088bf606088bff46413b201a20e309c
:10288000016b6ce841a2f64b6cea0fb341c30fb188
:1028900060a1056a4bea6cea40c11a18070411ec02
:1028a00060a1046a6dea40c1016a4ce80c3006b3cd
:1028b00041a3096b6beb6cea0dea03b341c374648b
:1028c000a0e80065601088bf606088bf08f0f7640a
:1028d00011ec06d4026a07d2006b08d3006a9c6729
:1028e00050f044dc02670f950f251a18070a286c70
:1028f000463211ea425a086150676140036711e8a5
:10290000055af361006a5b101a18e00a206cc3f2e2
:10291000096c1a18ee0900681a181e0a0694069225
:102920000c2229b129e080a21a181e0a11ec41409c
:10293000026711e8069363e8f5611a18e00a806cf3
:1029400022b3016cbc6750f0409d042a41a34e3273
:102950008ceaf822006a7c6750f040db1a18e00a23
:10296000206c1a18e00a606c17b440a4206b6cea63
:102970001d2241a49c6750f050c41a18230204047d
:10298000bc6750f0449d0222016a19101a182302f4
:102990000504059204936be221f4165af161089242
:1029a000614211eb08d3045a99610210016a0710c1
:1029b00007934f4311ea07d2ff728e61006a776472
:1029c000a0e80065800200a0301088bf20e8006aff
:1029d000e364046711e820580261006a2a1061f478
:1029e000046c1a18ee09006514b249e080a201f6e1
:1029f000006a1a18ee094dec11b249e080a202f00b
:102a0000006a1a18ee094dec1a18e00a206c1a1820
:102a1000ee09466c1a18e00a406c03f40f6c1a18a1
:102a2000ee0900651a18e00a206c1a18e00a606cba
:102a3000016a6364a0e800651c73009d3c73009dff
:102a4000c36411ec085c0261006a07108434e6f488
:102a5000106a1a18ee094dec016a4364a0e800659b
:102a6000f46408d409d53c6750f088d9716750f0f8
:102a7000084ba1db1a180702146c3bb380a3026a4f
:102a80008dea40c380a3046a8dea40c337b2409afe
:102a900050f051c1016a4bea50f052c1006834b4a1
:102aa000006b18320be289e260c24140026711e814
:102ab0000258f7617d6720f040a304680cea1322f6
:102ac0002cb430f0aca91a184203d06750f05899d2
:102ad00000f4004a50f058d926b430f0aca91a18c6
:102ae0006303d0670c10006a50f058d921b430f05d
:102af000aca91a186303046e016a50f058d9006833
:102b0000916750f01c4c1cb58de0a9e040a240c379
:102b10004140026711e80858f761006817b10432b4
:102b200029e21a18ee0980aa4140026711e82058ec
:102b3000f6611a18e00a206c1a18ee09466c1a1889
:102b4000e00a406c03f40f6c1a18ee0900651a18bd
:102b5000e00a606c0ab461a4086a6dea41c4016ac3
:102b60007464a0e8606088bf100880bfc40100a042
:102b7000480000a01473009d5c73009d601088bf26
:102b8000e36411ec1c674074196041540460242410
:102b900020741b60271060740a60807423611a1807
:102ba000ee09866c806a4bea50f053c01b101a186d
:102bb000ee09666c606a50f053c014101a18ee09e2
:102bc000466c406a50f053c00d101a18ee09266c7e
:102bd000206a50f053c006101a18ee09066c006afd
:102be00050f053c06364a0e80cf0f46408d409d535
:102bf000276711e929590261006ad1105d6720f049
:102c000080a2046a8cea015a58675832416b6beb18
:102c10006cec4dec5d6720f080c2036a8cea0172b7
:102c20000661806a4bea8dea7d6720f040c35eb49e
:102c3000dd6720f0a0a6a0c4fc6750f071a7414357
:102c400050f051c761c40268406aacea1a2250f0e1
:102c500048a7c2674e320f6b6cea006c122252b763
:102c6000ce32c2676cee099570674140026711e889
:102c7000ede3a9e440a240c34144826711ecc3ecf8
:102c8000f3617d6720f040a3806b6beb6cea1d2243
:102c9000dc6750f048a64e320f6ba3676cea006cfd
:102ca000142241b750f0084e40a64e324ced7067ea
:102cb0004140026711e8ede3419e49e440a240c370
:102cc0004144826711eca3ecf261fd6720f040a75c
:102cd000086b6cea4a22006c33b5706741400267aa
:102ce00011e8ade35c6750f0184a49e440a240c3e4
:102cf0004144826711ec045cf0617c6750f0589ba2
:102d0000414250f058db50f058a30c2a50f059a320
:102d1000036b6cea072a25b4dc6730f0acae1a18f6
:102d20006303046e70674140026711e81eb24de311
:102d3000006a40c3b067006c0f211bb6706741404a
:102d4000026711e8cde30a9789e740a240c34144f6
:102d5000826711ec23ecf26113b415b71a18a909b4
:102d6000d1674240026711e81110006c0f210eb5c7
:102d700070674140026711e8ade30a9689e640a218
:102d800040c34144826711ec23ecf261fc6750f0d0
:102d9000a8a7a6359067016a1a18330a4ced746427
:102da000a0e80065800200a0480000a04c0000a040
:102db000f664006874b11a1823020404043209e2ac
:102dc000483231e2409c0b220493429c63ea076044
:102dd0004be33ef4046b43eb0260006a40dc41408d
:102de000026711e80558e7617c6750f052a3ff7253
:102df0001260006ac4100be389e2006b60c2006ad3
:102e0000be1018320be261b369e2006b60c2006a67
:102e1000b61040c1b410006818320be25bb371e227
:102e200060a4016a6ceaa0f0032261a458b560c5f1
:102e300020f05ea44cc5026a06d23e4a6cea082223
:102e40007c6750f048a34e320f6b6cea424206d2c8
:102e50004fb440a4806b6beb6cea112218320be28a
:102e60000695a9e24bb369e241dc9c6750f048a4a7
:102e70004e320f6b6cea49e511ea06d20310006a84
:102e800043b541dd42b340a3086b6cea5c223fb41a
:102e900018330be30695a9e289e245a2ac2a3cb3bc
:102ea00040a3806b6beb6cea33220069243229e289
:102eb000443239b5b1e244a45e32052234b21a1864
:102ec0000107a19a052a4141226711e90a59ee61d9
:102ed0000a591e60006c05072cb618320be20693e7
:102ee00075e2ede489e5c9e241a240c3414482674d
:102ef00011ec045cf661283228b369e2609a05920d
:102f000063ea7ff71e61283224b369e2059360da31
:102f10000694454411ea06d2183413e41bb5a5e41f
:102f200020f0dea15be61bb251e406951cb71a182f
:102f3000c60911ee7ff70d2215b34ca306948be260
:102f40004e424cc3051012b54ca506936be24cc51e
:102f500018320be2069489e20eb5a9e20cb342db0b
:102f60009c6750f055a44dc350f012c4016a07107d
:102f70004140026711e802585ff70e61006a76640b
:102f8000a0e80065440200a0c40100a0780000a0f1
:102f9000c50100a0d80000a0880000a04c0000a03f
:102fa0009c6750f052a4025a0b60626758326be281
:102fb00005b369e2006b60c2016a4bea50f052c48b
:102fc000a0e80065c40100a0f66411ec06d4006915
:102fd00004041eb51a18210e066e11670693016ac5
:102fe0004eeb43eb586707d20693092b1a18070ad2
:102ff000286c463211ea49e1226731e90a1007924a
:1030000008221a18070a286c463211ea49e1226799
:1030100031e9006a414211eaff72fc6141400267f6
:1030200011e8ff70e161223109b259e910eb6e320b
:10303000026711e8075801610668012801407d67b1
:1030400069e04fa27664a0e89c73009dcdcccccc07
:1030500000e85d4100701a4000601b4080ffbd2702
:103060007c00baaf7800bbaf44781b7c00107b3784
:1030700000609b406c00a2af6800a3af5c00bfafd4
:103080005800b9af5400b8af5000afaf4c00aeaf6e
:103090004800adaf4400acaf4000abaf3c00aaafbe
:1030a0003800a9af3400a8af3000a7af2c00a6affe
:1030b0002800a5af2400a4af2000a1af121000008b
:1030c000101800007400a2af7000a3af88bf033ccb
:1030d0003010628cc001427c0a00405053808393c0
:1030e00088bf023c6010428cc001427c0500405009
:1030f00053808393301062907f004230301062a082
:103100005380839360000224060062145c00bf8f2a
:10311000070a40772800042442100200548082a34a
:103120005c00bf8f5800b98f5400b88f5000af8f2c
:103130004c00ae8f4800ad8f4400ac8f4000ab8f89
:103140003c00aa8f3800a98f3400a88f3000a78fc9
:103150002c00a68f2800a58f2400a48f2000a18f0b
:103160007400a28f7000a38f130040001100600054
:103170006c00a28f6800a38f00606041c000000057
:103180007c00ba8f7800bb8f00709a408000bd270a
:1031900000e8dd4100609b401800004200e85d410e
:1031a00000701a4000601b4038ffbd27c400baaf52
:1031b000c000bbaf44781b7c00107b3700609b4095
:1031c000b400a2afb000a3afa000bfaf9c00beafe1
:1031d0009800b9af9400b8af9000b7af8c00b6af0d
:1031e0008800b5af8400b4af8000b3af7c00b2af4d
:1031f0007800b1af7400b0af7000afaf6c00aeaf8d
:103200006800adaf6400acaf6000abaf5c00aaafcc
:103210005800a9af5400a8af5000a7af4c00a6af0c
:103220004800a5af4400a4af4000a1af12100000b9
:1032300010180000bc00a2afb800a3af88bf023cca
:103240003010428cc002427c33014050a000bf8f3e
:1032500088bf023c6010428cc002427c2e014010ac
:10326000a000bf8f53808393600002242201621468
:103270000100022454808293558082a388bf103cb1
:1032800060600292fbff0324241043001104407786
:10329000606002a221a840006060029204004234f3
:1032a000606002a221a0000000a0023cc4014324ef
:1032b000801114002310540021104300000042909c
:1032c000010042300500401001008226ff0054300a
:1032d0000200822ef7ff4014801114000200022425
:1032e0000600a212010017240400001021b80000fb
:1032f0002110a7000b0000103e0040a0ffffa226f7
:10330000ff0042303c00422c060040100200822e9a
:10331000010042380100e32e241043001500401044
:1033200021980000070a40771a0004240200423066
:10333000f200401088bf103cfbff11246060029235
:103340002410510011044077606002a26060029274
:1033500004004234606002a2070a40771a00042485
:1033600002004230f5ff401488bf023ce400001028
:1033700000000000e100a0122188a00288bf123cda
:1033800080b114002310d4021800a2af00a0183c92
:10339000c401182721f058001c00beaf2000beafaa
:1033a0002400beaf2800beafffff22261100e012ae
:1033b000ffff513060604292fbff03242410430062
:1033c000606042a22180600201006226ff0053304b
:1033d0001000a2271104407721800202000002a2ff
:1033e0006060429204004234606042a21300001008
:1033f0002b10750260604292fbff032424104300ef
:10340000606042a22180600201006226ff0053300a
:103410001800a28f2180500000a0183cc40118277a
:103420001104407721801802010002a260604292dc
:1034300004004234606042a22b107502aa004014be
:10344000000000001c00e0122310d4021000a29320
:1034500003004230020003240d0043140200822eb8
:103460001100a39350808293a500625488bf023c50
:1034700001000224448082afa100001088bf023cfa
:1034800023024077080084247b0000100500022ef0
:10349000a4ff40102310d40200a0183cc401182738
:1034a000211058001000a393010043a01100a29323
:1034b0000200c2a32310d40200a0183cc4011827a4
:1034c000211058003e0055a0ff0011241c00b88fa9
:1034d0000100029340004230170040104880828f64
:1034e000c018427c140040102180000000a0023c63
:1034f000c401472480111400232854004c80868f77
:103500004880848f2110b000211047002118060246
:1035100003004290ff0042300000639074ff4314a8
:1035200001000226ff005030c018827c2b100202de
:10353000f5ff40142110b0002000b88f0100029365
:10354000200042302a004010218000001000a527f2
:1035500000a0023c8002442421180502211004022c
:1035600000004290000062a001000226ff005030df
:103570000200022ef9ff40142118050200a0023caf
:1035800006000324800243a0800242242400b88f56
:1035900002000393010043a088bf043c31108290d5
:1035a000f7ff032424104300311082a002000424fa
:1035b000330a4077212800002180000000a0023c4f
:1035c000800244241000a5272118040221100502be
:1035d00000004290000062a001000226ff0050306f
:1035e0000200022ef9ff401421180402218000007d
:1035f00000a0023c440246248019140023187400e1
:1036000000a0023cc401422421286200ff000724dc
:1036100040101000211050008010020021204600b0
:103620000000828c0600401000000000040083901f
:103630000200a290ff00423091ff621000000000e3
:10364000080027160100022640101000211050002b
:1036500080100200211046000000428c0a880202fd
:1036600001000226ff0050300500022ee9ff401441
:10367000401010000500022e2100401488bf023cbb
:103680000500222e0f004010801914004020110068
:10369000212091008020040000a0023c440242242a
:1036a0002120820001000224000082ac2800b88f93
:1036b00002000293040082a02302407708008424c1
:1036c000801914002318740000a0023cc401422495
:1036d000211862000000629001004234000062a0e4
:1036e0000700001088bf023c30ff2056ffff222653
:1036f0000300001088bf023c408082af88bf023cbc
:1037000031104390f7ff042424186400311043a0c3
:1037100021000002a000bf8f9c00be8f9800b98fcf
:103720009400b88f9000b78f8c00b68f8800b58f4b
:103730008400b48f8000b38f7c00b28f7800b18f8b
:103740007400b08f7000af8f6c00ae8f6800ad8fcb
:103750006400ac8f6000ab8f5c00aa8f5800a98f0b
:103760005400a88f5000a78f4c00a68f4800a58f4b
:103770004400a48f4000a18fbc00a28fb800a38f8b
:103780001300400011006000b400a28fb000a38fae
:1037900000606041c0000000c400ba8fc000bb8f51
:1037a00000709a40c800bd2700e8dd4100609b40e2
:1037b00018000042a8ffbd270400a1af0800a2af77
:1037c0000c00a3af1000a4af1400a5af1800a6af63
:1037d0001c00a7af2000a8af2400a9af2800aaaf03
:1037e0002c00abaf3000acaf3400adaf3800aeafa3
:1037f0003c00afaf4000b8af4400b9af4800bfaf26
:10380000124000004c00a8af104000005000a8afcc
:103810000068044000600540430e400f00000000b7
:103820005000a88f110000014c00a88f1300000168
:103830000400a18f0800a28f0c00a38f1000a48f9a
:103840001400a58f1800a68f1c00a78f2000a88f3a
:103850002400a98f2800aa8f2c00ab8f3000ac8fda
:103860003400ad8f3800ae8f3c00af8f4000b88f72
:103870004400b98f4800bf8f5800bd27c00000002a
:10388000180000421c656f460726c0a56f436fea0b
:10389000c0c4a1458144f92a20e858671c65e46743
:1038a0006f4605266f436feaa0c7e147fb2a20e871
:1038b00058670065c3641a184f0e00650ef0c364a4
:1038c00008d6c56704b509d71a18360e0807436429
:1038d000a0e80065ffffff7fc7647d67016a4bead0
:1038e00051cb826a50cbaf4508b204d507d506d478
:1038f00005d4a6670404c7671a18b00e0ad2059348
:10390000006c80c34764a0e86075009dffff001055
:1039100000000000ffff001000000000a0e80065ac
:10392000a0e8006500601a40bfff1b3cffff7b372b
:1039300024d05b0300609a4018000042ff17006526
:103940000cf0f46424670f45032d006a7464a0e84a
:1039500080810a951a18401321414fea04220f4032
:103960000feaf62af2174f42f117006504f0f464eb
:10397000056726670d202158b0670161206d089604
:1039800091671a18500ea3e04feaf42a4f42011033
:10399000006a7464a0e8006508f0f4640c94016a9d
:1039a0008cea06672767006b082ae2ee0660d7e715
:1039b00010b61a185b0e089462676fed062d02e9c7
:1039c0005167016050677464a0e8099408961a185a
:1039d000500eb0674febf3230c97016eeceeef2621
:1039e00022e8ed60089403b61a185b0e17e1e7179a
:1039f000a473009d000000000ef0f6647d6740f0a7
:103a000044832ab62ab706d204671a1cb018256761
:103a1000112a06941a1cd517d04c04d205d327b40a
:103a200027b5c2671a1cb018e367005211610f92e4
:103a30007664a0e81fb620b790671a1cde15b16740
:103a40008267a3671a1c8c14040604920593e71777
:103a5000109560a5836791ec2e74046110966f46f3
:103a600010d360a3e1431093e0c391ef3a57df61b5
:103a7000306c80c30f924aeb046010958f4510d4d0
:103a8000e7170e9508251097316a40c70e94c09c21
:103a9000a146a0dccc171097316afff75fc70f96dd
:103aa0006f460fd3c417006500000000000000003f
:103ab0000000000000002440000000000000104052
:103ac000acf0f164a69c449d006e80f414d640eaec
:103ad000016d016b6beb4f2200f50c938083e1438a
:103ae00000f50cd73e24257460f1186100f50c92a6
:103af000a0822575e0f40cd540f11f60016dabeaa2
:103b0000006c3a65a0f400d4e0f40c96016a2d76be
:103b10002260e0f40c97026a2b770a60e0f40c93c1
:103b2000046a20731860e0f40c9423740f61086a2f
:103b3000a0f400954deda0f400d500f50c9461447f
:103b400000f50cd3e083e0f40cd7de17e0f40c9220
:103b500030721561106aa0f400964deea0f400d604
:103b6000ec1700f50894406b48ac6cea80f41493b1
:103b70000222016dabeb4367a0f07164a0e8e0f4b2
:103b80000c952a75e0f0186100f51097046ecbeae9
:103b9000a3474ced00f50c97609dc147844500f5a7
:103ba00010d480f418d300f50cd64086e0f40cd283
:103bb00080f4189400540960a0f40095016ecdedd6
:103bc0008beba0f400d580f418d3e0f40c942e74a1
:103bd000246100f50c93e14300f50cd740872a726d
:103be000e0f40cd280f0186100f51094046ecbed77
:103bf000e34400f50c94acefc144644700f510d3e6
:103c000000f50cd6409fa0863a65e0f40cd5996784
:103c100000540360016a4bef3f65e0f40c95687552
:103c20005d6100f50c93c18368763561a0f4009462
:103c3000806fedec6143a0f400d400f50cd300f5e7
:103c40000c97814700f50cd46084e0f40cd300f5a8
:103c50000c96a0f40094026fa1468cef00f50cd5f1
:103c60000527056b6bea4ceca0f400d4a0f400959a
:103c7000016cacec0524116ecbefeceda0f400d59b
:103c8000e0f40c92bc4a355a226042f018b3483432
:103c900069e4a09a80eda0f40095ff6e41464dedd9
:103ca000a0f400d5cc17a0f40093806e6cee60f405
:103cb0001a2600f51095046c43458beb6ceafd6702
:103cc000809a80f4b4a7c44200f510d6a0c4006a5c
:103cd00080f4149651e680f414d4fe16e0f40c95aa
:103ce0006c75376100f50c9541856c7200f2006ac5
:103cf0003d61a0f4009301f0006c8debc145a0f490
:103d000000d300f50cd600f50c94614400f50cd3fb
:103d10004083e0f40cd29b17e0f40c92006fd04a81
:103d20000a5a3f657ff719607967683675e600f5ce
:103d30000c96a432a14600f50cd5e0f40c976085f2
:103d4000f1e2e0f40cd3d04bd04c0a5b3c65ec6163
:103d50005e17e0f40c9701f0006a71770760e0f4f9
:103d60000c954c757ff7136100f4006aa0f400967f
:103d70004deea0f400d6c717e0f40c93006dd04bc5
:103d80000a5b80f418d53ff7006080f41897e0f4e0
:103d90000c95e832f9e2c43400f50c97ade44147e4
:103da000d04b80f418d300f50cd2c0828667d04c7b
:103db0000a5ce0f40cd6e961fb16856700f508950e
:103dc0001a184013006500f50c9380f41496e14333
:103dd000a14600f50cd780f414d57e1600f50895a1
:103de0001a184013006580f4149481447417a0f4e9
:103df000009000f200692de8a0f400d0a0f4009734
:103e000002f0006ecdeffdf7174eccefa0f400d717
:103e10000a6d80f41cd5d967cfef00f1022f016d38
:103e20003d65a0f4009302f000686ce800f10c20fe
:103e300001f000696ce9c0f0102100f51092086ce7
:103e4000a7428beecced4745cceae267084f00f580
:103e500010d7809aa19a006ea0f40092a0f40cd61c
:103e600002f0004e0467f96740f01f044cee25672e
:103e7000a0f404d7a0f408d40a2600550860016b0a
:103e8000a0f40cd31a1838199067026723670ae860
:103e90009067006b00f11461c3672eee00f1102ee5
:103ea0001e20a0f4009208f0006b4ceb80f41c97ed
:103eb000fbec10ea0a52c0f01a60304aa0f40895f0
:103ec00040c580f41c97cf45fbeca0f40492a0f40d
:103ed00008d6af42a0f404d512ee12ece72ea0f4ff
:103ee00004954f4500520a61306ba0f408974f4289
:103ef0008f47005260c7a0f408d4f760a0f4009385
:103f0000106a6cea08063322a0f4089480f418932f
:103f1000cbe4a0f400955de3086c6767acecc14ba3
:103f20000c2480f41c95087500f11c61a0f4089223
:103f3000e182307700f116606f43a0f4009402f044
:103f4000006d8ced0725a0f40c97032f066a8cea10
:103f500001226f434f4300520a61306ba0f4089571
:103f60004f428f45005260c5a0f408d4f760a0f41a
:103f70000097086beceb102380f41c920872e0f0c1
:103f80001861a0f4089381833074e0f01260306f00
:103f9000af43e0c3a0f408d5a0f4009202f0006b98
:103fa0004ceb0b23a0f40c97c0f00f27a0f408955e
:103fb0002d6b8f4560c5a0f408d4a0f40897a0f439
:103fc0000092a147bbe600f5089404d2404e80f46d
:103fd00018971a18660e00657b16a0f4009300f27d
:103fe00000686ce80628a0f4009780f10069ece90d
:103ff0000e2100f51090046c43408bedaceac442f6
:1040000000f510d6409a8267c0f74335241700f5b3
:104010001096046f4346ebe92cea644200f510d396
:10402000f117a0f40094116b6bea4ceca0f400d4ef
:10403000f816a0f4009608f0006dadeea0f400d6de
:10404000106a80f41cd2e716a0f4009501f0006e0f
:10405000acee102600f51097086b6be827470ce9cb
:1040600047410cea8267084c00f510d4f21614237d
:10407000374a2417a0f4009200f2006f4cef0e278d
:1040800000f51091046843410bec8ceaa44200f562
:1040900010d5809aa667df16574a1017a0f4009330
:1040a00080f1006e6cee472600f51090046c8beded
:1040b000c340acee809e4446a76700f510d2cb16f5
:1040c00091670dec1ff70b2480f41c96a0f400926e
:1040d00008f0006bc0f7c3376ceae0f404d7a0f433
:1040e00010d280f41c96e0f4049790671a18041a12
:1040f000b16782670a52304c0561a0f4109587447d
:10410000012d204ca0f40896b16780c6ef46a0f4bc
:1041100008d780f41c96e0f404971a183b199067ae
:104120002367a0f40493026791674f430deca0f45a
:1041300004d2d72cd41600f51095046b43456be9d7
:104140002ceae44200f510d7a417a0f40097026a05
:10415000ecea2622a0f408952b6b8f4560c5a0f4ed
:1041600008d42b1780f41c941074fff606616e437c
:10417000e41680f41c9310731ff70e61a0f40097ef
:10418000a0f4089508f0006aecea8f45586b012a04
:10419000786b60c5306da0c48f44a0f408d4fc16c1
:1041a000a0f40097046aecea1ff70722a0f4089530
:1041b000206b8f4560c5a0f408d4ff16a0f40094ce
:1041c00001f0006b8ceb692300f51095046ee3455c
:1041d000cbec8cef80f41492c09f6447c0f743355a
:1041e00000f510d340dea1de7215a0f4009100f4ba
:1041f00000682ce8e0f0132000f51093086dabec9c
:1042000047438cea47428ceac267084e00f510d655
:10421000019a209af96718d119d018901991a0f431
:1042200014d7243540f5a232e0f71f72536190672e
:10423000b167d0671a1cb018f167e0f00e2a41f29e
:104240001cb641f21cb790671a1cb018b167005237
:104250003961a0f4009200f5089441f20cb504d243
:10426000046e80f418971a18660e0065311500f573
:104270001095046ee345cbeb6cef409f8447bd6720
:1042800000f510d460f458c5a0f4009600f5089429
:1042900004d660f41805016e9a16a0f4009700f297
:1042a000006aeceac0f0022200f51093046fc343e9
:1042b000ebea4cee609e80f41494a44600f510d511
:1042c00080db0515a0f40094c1f118b504d400f505
:1042d0000894c6177967006f6feda0f41cd7a0f0a3
:1042e0001b2d066ea0f414d660f00907a0f418d7b1
:1042f000a0f41896006b60c6a0f41495e0f40c923c
:10430000006cd067c0f72230f167c0f400d5c0f46c
:1043100004d2e0f400d480f410d4792081f110b5f7
:104320008767aeec2d691d67e46760f230c0866771
:1043300080f400061a1c8c14a767a0f4189460f28d
:1043400009072144cf47c0f418d2c0f41cd3e0f4cd
:1043500008d1c0f408d1c0f410d1c0f40cd680f458
:10436000009080f4049121f114b621f114b7906704
:104370001a1cb018b167402221f118b621f118b704
:1043800090671a1ca816b167826780f400061a1c91
:104390008c14a36721f104b621f104b7826780f47d
:1043a00008d280f40cd31a1cd514a36701f104b60b
:1043b00001f104b782671a1cde15a367a3671a1cf4
:1043c0006d188267c0f40c90304a40c080f410959c
:1043d0006f404145c0f40cd380f410d2c01700f5f3
:1043e0001094086ecbe827440ce947410ceae267d9
:1043f000084f00f510d70c17e0f40c92bb4a235a73
:104400004c60c1f010b448319de1c09f80ee7d67e3
:10441000e0f400a360f210c38a17a0f4009600f540
:10442000089461f010b504d6036e1b17ff6da0f45d
:1044300000968145ccec3ff4162400f51097046af1
:10444000c3474bedacee7d67409e80f4f4ab8446f1
:1044500000f510d4e0ca3b14996728545ff7046153
:10446000e0f40c926772026047720561a0f4009557
:10447000086aacea04227967d94ba0f41cd3276ff1
:10448000a0f414d73117c0f4109740872e7205603e
:10449000c0f410904140c0f410d2a0f41895c0f4bc
:1044a0001093c0f40894c08583e3042ee0f40891cf
:1044b000a0f418d1fd6760f250a72a22a0f4189545
:1044c000cf45a0f418d640c60140a0f40094a0f453
:1044d0001c97016a8ceae5e0006b102a80f41895bd
:1044e000a2e90c60104a8cea562200f50894e0f725
:1044f00008b637e51a185b0e006562676fed172d79
:1045000080f4189222eafff303605167fff3001072
:10451000a0f40094026a8cea2722a0f418962b6972
:10452000ef46a0f418d7a0f4189320c3cd17a0f439
:10453000189400f508961a18500eb0674feae0225a
:10454000a0f41c931e2ba0f40097016becebd82376
:1045500080f41895a2e9d46000f5089460f71cb6c1
:104560001a185b0e37e5cc17a0f40092046d4cede1
:10457000ac25a0f41891206b8f41a0f418d460c42e
:10458000a31700f5089440f710b61a185b0ea3673e
:104590004fecb624d81780f4189600f5089437e647
:1045a00020f718b6a71700f51097046d4347abec3a
:1045b0008ceae09a80f41496644200f510d3c0dfd0
:1045c0009ff30510a0f4009400f2006b6deca0f4d2
:1045d00000d4a0f40090096febe92ce8a0f400d01f
:1045e0000a6c80f41cd4171400f51094046f034473
:1045f000ebea4ce8244000f510d12098116703291c
:10460000c0f61cb11167d967cfeb2523b9676f4599
:10461000005325614080232201406f43f917a0f425
:10462000009408f0006b6deca0f400d4a0f40090ae
:1046300008692de8e0f118492de8106da0f400d0cc
:10464000fff30710a0f4009500f2006a4deda0f40e
:1046500000d5086cc6171a185313916741e0a0f4ef
:10466000009700f50894b1673be004d7b014a0f4bc
:104670001494032c016dc0f400d580f41090c0f4a4
:10468000009602ee40f10661a0f01028c0f41894e4
:10469000c0f41c9500f604b600f604b71a1cb01856
:1046a00000650e22c0f41894c0f41c9500f61cb6e8
:1046b00000f61cb71a1cb0180065005220f10a6100
:1046c000e0f40893306d0143a0c3c0f410d0c0f4ef
:1046d0000095072da0f40091086e2ceee0f410d5a3
:1046e0000a26c0f4109701682e6c4147e0f410d000
:1046f00080c7c0f410d2c0f41894c0f41c9580f5a3
:104700001cb680f51cb71a1cb0180065a0f10c226d
:10471000c0f4009380f10c2380f51cb7c0f418940a
:10472000c0f41c9580f50cb61a1cde150065826776
:1047300080f408061a1c8c14a36780f4089480f493
:104740000c95c0f418d2c0f41cd31a1c6d18006567
:10475000c0f41096304a40c6a146c0f410d580f48b
:10476000089480f40c9520f514b620f514b71a1ca3
:10477000b0180065032a80f41091ce21c0f4009097
:104780008f40c0f400d440f11324c0f41894c0f456
:104790001c9500f508b600f508b71a1cb01800659e
:1047a00040f1062200f510b7c0f41894c0f41c952f
:1047b00000f500b61a1cde150065826780f4080655
:1047c0001a1c8c14a36780f4089480f40c95c0f430
:1047d00018d2c0f41cd31a1c6d180065c0f41097d1
:1047e000304a40c74147c0f410d2c817c0f40c90fb
:1047f000614060f20905a3eb7ff7096080a3c0f474
:104800001097614380c7c0f400914147cf41c0f485
:1048100010d2c0f400d6ed1780f4109280f0082278
:10482000c0f40c9060f209056140a3eb80f00760d2
:10483000c0f4109180a360f209066143e141c3eb2b
:1048400080c1c0f410d7f21780f410903120c0f46a
:104850000c95e0f40894614540a3014440c4c0f4c1
:1048600000910629a0f40097086eecee00f11526e1
:104870002e6a40c0e0f40894c0f40091024400f1b4
:104880000c21c0f40c9660f209056246a3eb00f11e
:10489000016080a380c0c0f400910140ef41c0f4ea
:1048a00000d7e0f01a27614360f2090243ebef17eb
:1048b000c0f41894c0f41c95f8b6f9b71a1cb018d7
:1048c0000065e0f1022201680bea80f410d2c0f426
:1048d0001894f8b6c0f41c95f7b71a1cde150065dd
:1048e000826780f408061a1c8c14a36780f4089071
:1048f00080f40c91e9b6eab79067c0f418d2c0f41e
:104900001cd31a1cb018b167a0f1072a80f41093c9
:104910004f43db17c0f40094e0f40c92ef442e42b6
:10492000016bc0f400d7c0f404d1e0f400d38e17bb
:10493000e0f40893306d4143a0c3c0f410d2a0f45a
:1049400014900528a0f40097086eecee0726c0f43a
:1049500010942e6a214440c4c0f410d1c0f41894bd
:10496000c0f41c95cdb6ceb71a1cb0180065502205
:10497000a0f414933123d0b7c0f41894c0f41c955c
:10498000ccb61a1cde150065826780f408061a1c76
:104990008c14a36780f40c9580f40894c0f418d2aa
:1049a000c0f41cd31a1c6d180065c0f41097304a6f
:1049b00040c7c0f40090c147af40c0f410d6c0f467
:1049c00000d50a25c0f41894c0f41c95b3b6b4b74a
:1049d0001a1cb0180065cf2ac0f41894c0f41c95b6
:1049e000aeb6afb71a1cb01800651222c0f4109210
:1049f000c0f41c958f4204d4e0f40897c0f41894d6
:104a0000006e9c0105d61a187e0e06d1c0f408d29d
:104a1000c0f400956f455ff50025306cc0f4109729
:104a20006f43c1476fe880c7c0f410d6f72835152b
:104a3000c0f41894c0f41c9598b699b71a1cb01815
:104a400000651222c0f41096c0f41894af4604d545
:104a5000e0f40897c0f41c95006e9c0305d61a1864
:104a60007e0e06d3c0f408d2a0f4009208694ce987
:104a7000c0f01721c0f400976f471ff50e27306c68
:104a8000c0f410966f43a1466fe880c6c0f410d5fd
:104a9000f7280315c0f400951d2d614360f2090647
:104aa000c3eb18607db47eb22f40c0f418d4c0f4bc
:104ab0001cd204d1e083c0f4189405d7c0f41c952f
:104ac000e0f408979c0380f410061a187e0e06d3b3
:104ad000c0f408d280f41096af4680f410d5c0f42c
:104ae0001894c0f41c956db66db71a1cb01800650b
:104af0004c22c0f400932d236fb7c0f41894c0f477
:104b00001c956cb61a1cde150065826780f40806d9
:104b10001a1c8c14a36780f4089480f40c95c0f4dc
:104b200018d2c0f41cd31a1c6d180065304a40c05e
:104b3000c0f400910140ef41c0f400d70a27c0f44f
:104b40001894c0f41c9555b655b71a1cb0180065da
:104b5000d32ac0f41894c0f41c9550b650b71a1c50
:104b6000b01800651222af40006c04d505d4c0f423
:104b70001c95c0f41894c0f408979c0280f41006a9
:104b80001a187e0e06d2c0f408d2c0f400966f4602
:104b90000626306c6f436fef80c00140fb2fe0f4be
:104ba00000931123a0f4009208694ce90c29c0f489
:104bb000089403ec48600f4040803072f8602e7219
:104bc00001610f40014080f41094dd67c0f4a4a699
:104bd0000054a0c061402b6a02608bec2d6a60f427
:104be00018070a5440c3a240c7672f6135b018ecbc
:104bf000c0f7833110eacf464b332fe3683265e2ca
:104c0000243247e430490a5320c68367f0606f4678
:104c1000304c80c3e3eb1e6000a3614300c5a14597
:104c2000f917e0f410943ff41824c0f40893c0f48a
:104c3000109483eb3ff407602f44c0f410d14081ff
:104c40003072f36023144080ba17306f304ce0c5e7
:104c500081c5a245c0f410d5201490671a1c6d18a8
:104c6000b167304ae0f4089140c1c0f400970141b7
:104c7000062fa0f40094086a8cea3ff710222e6eeb
:104c8000c0c0e0f4089502452a17306aeb170065aa
:104c90005475009d006500650000000000000000e4
:104ca0004c75009d4475009d0000000000000080d0
:104cb00000000000000024407b14ae47e17a843fee
:104cc00067666666006500652d431cebe2361a3f99
:104cd000b874009dc473009da473009d5875009d19
:104ce000e473009d00650065016a20e84bea0065f9
:104cf00020e8446720e8006a20e8006a20e8016aaa
:104d0000f464669d2467449b8567056740ea016dee
:104d1000016c8bec1222c098af460055a0d80661fa
:104d2000e8a8086c8cef0c270a710a6166989167f5
:104d3000419b40eab0671a65986744677464a0e8cd
:104d4000c1981965a14620c6a1d8f617036a8cea56
:104d5000e4670e2a409c0ab64fedcde2aceb09b5f4
:104d6000aceb062b8444409ccde24fea4cebf817a9
:104d7000608402238144fc1720e8ebe4fffefefe82
:104d8000808080804050050042550a00c04a0500de
:104d9000427d040025482f01c042040000800e3ce3
:104da00025482e0140680700426d0d00c0620700d3
:104db000427d060025608f01c05a060025608e01e5
:104dc0002470c501ffff4f25fe07e12d560020107e
:104dd00000000000ffffaf25fe07e12d6e00201050
:104de0000000000023384d014b00e00400000000eb
:104df00042400800c07f090025400f0142480900d9
:104e000042580b00c07f0c0025586f0142600c0017
:104e10002b780b0123400b012b102f0123482f016e
:104e20002b782c012578e2010500e01123482c01a4
:104e300021400b012b780b0121482c0121482f0127
:104e40002a780001214008012148290121482f0129
:104e5000ffffe724eeffe10400000000080020153a
:104e600025500d0003000015000000000d0000108b
:104e700000000a242548000100000824e0ff4a251c
:104e8000203827710700e010000000002350470180
:104e9000223007000630c8000440e8000448e9005a
:104ea000254826011400401d0000000001000724d1
:104eb0002338ea002000e12c050020140000000047
:104ec0002540090000000924faff0015e0ffe7244f
:104ed0000800e01000000000253009000640e8004e
:104ee0000648e90020000f242338e7010430e600db
:104ef0002540060100000a24c2220800407d090066
:104f000025208f0040280900022b0500007d0a00a3
:104f10002528af002528ae0025100400251805001f
:104f20000800e003000000003b0040150000000006
:104f30002a780001214008012148290121482f0138
:104f400025782801a3ffe0110000000008002015cb
:104f50000000000003000015000000009dff00108d
:104f600000000a242548000100000824e0ff4a252b
:104f70002038277197ffe010000000002350470100
:104f8000223007000630c8000440e8000448e90069
:104f900090ff0010254826011b00a015000000000e
:104fa0002a78600121586b0121608c0121608f01fa
:104fb00025788b011800e011000000000800801522
:104fc00000000000030060150000000085ff0010d5
:104fd00000000d242560600100000b24e0ffad25da
:104fe000203887717fffe010000000002368a701d0
:104ff000223007000630cb000458eb000460ec00c0
:1050000078ff00102560860140780c002578eb01c0
:10501000c1ffe01100000000f8ff053cbeff0010da
:105020000000042440380500423d0700ffffe9244a
:10503000fe07212d0c0020100000000002fce724d8
:105040000f80013cffff21342428a100e03f013cf8
:105050002528a1000000c7ac251004002518050074
:105060000800e003000000001300e014000000004e
:105070004048050025482401f6ff201100000000eb
:105080000080013c2440a1000100e724ffffe72449
:105090002a488000212084002128a5002128a90079
:1050a0001000013c2b08a100f8ff201400000000b4
:1050b000e2ff00102528a800f8ff053c00000724a7
:1050c000e4ff00102520070040480500424d09007c
:1050d000ffff2c25fe07812d0f002010000000008f
:1050e00021482601ffff2c25fe07812d21002010dd
:1050f000000000000f80013cffff21342428a100a4
:10510000006509002528ac002510040025180500bd
:105110000800e00300000000006305002560840132
:10512000f9ff8011000000000400201100000000c1
:10513000f8ff053cf4ff00100000042401002925bd
:105140000080013c2450a100ffff29252a60800037
:10515000212084002128a5002128ac001000013c5a
:105160002b08a100f8ff201400000000dcff001055
:105170002528aa00c04205004265040025400c0114
:10518000c03a04000080013c254001010080013c40
:10519000050020192428a100f07f013c2528a1004a
:1051a000d9ff00100000042401000a242350490103
:1051b0002000412d0700201400000000e0ff4a21dc
:1051c0002b2007000d00081025380401f8ff0010ff
:1051d00000000834090040110000000022580a00b5
:1051e0000420670104586801063847010640480159
:1051f00002008010253867010200e7340004e7242c
:105200000004ec2c21400c01c262070001008c312b
:105210002338ec00c22207004065080025208c00de
:105220004060080002630c00b7ff00102528ac00a6
:1052300025380400254005000080013c2458a100c9
:1052400040480500424d0900ffff2c25fe07812d37
:10525000370020100000000033040a2423504901c5
:10526000350041292f0020100000000020004129b6
:105270000600201400000000e0ff4a25000004247e
:1052800006284501050000100428450103004019c7
:1052900000000000062044010420440123400501d1
:1052a0002338e4000000c4ac0400c5ac08000015bd
:1052b0000b0029250300e014000000000d00001081
:1052c000000009242540e00000000724e0ff292514
:1052d00020200471070080100000000023482401f2
:1052e000225004000650470104388700044088001b
:1052f00025400a01c22207004065080025208c00d5
:1053000040280800022b0500006509002528ac0094
:105310002528ab0025100400251805000800e0032f
:10532000000000000400cbacfaff00100000c0ac8d
:10533000fcff201100000000f8ff053c00000424e1
:105340000000c4acf3ff00100400c5ac0080013cb9
:105350002638e10040580500425d0b00c0520500b0
:10536000427d040025504f01c04a04000080083ce3
:10537000255048014070070042750e00c06a0700c2
:10538000427d06002568af01c06206002568a801bd
:10539000ffff6f25fe07e12d8d00201000000000ab
:1053a000ffffcf25fe07e12dbb002010000000000d
:1053b0000080013c2428a10023406e012c00001134
:1053c0000000000015000019000000002000012d61
:1053d0000700201400000000e0ff08212b300c0023
:1053e00023000d102560a601f8ff001000000d3409
:1053f0001f000011000000002220080004308c0073
:1054000004208d0006600c0106680d011800c01014
:1054100025608c001600001002008c3525580e0007
:10542000234008002000012d070020140000000088
:10543000e0ff08212b3009000d000a102548460125
:10544000f8ff001000000a340900001100000000fd
:10545000222008000430890004208a00064809013f
:1054600006500a010200c0102548890002002935b3
:105470002678a7001c00e0050000000021482c0150
:105480002b782c0121504d0121504f0102004d116c
:10549000000000002b784d013700e01100000000f3
:1054a00001002f310200e011000000000200293548
:1054b00042480900c07f0a0025482f0142500a00d7
:1054c0000080013c2550410101006b25ff070124ac
:1054d0002900611500000000f07f013c2528a10093
:1054e00037000010000004242b782c0123482c01e5
:1054f0002b104f0123504f012b784d012578e201ed
:105500000700e01123504d010080013c2628a10036
:105510002b7809002348090023500a0023504f012b
:1055200008004015000000000300201500000000e6
:105530000d00001000000b2425502001000009245c
:10554000e0ff6b25204048710700001100000000bb
:105550002358680122200800062089000448090118
:1055600004500a0125504401257849010200e01544
:105570000000000000000524680060190000000021
:105580000004292500042f2d21504f012b784f01b5
:1055900021586f01c27a09000100ef3123482f0121
:1055a000c2220900407d0a0025208f0040780a00b1
:1055b000027b0f002528af00007d0b002528af00df
:1055c00025100400251805000800e0030000000075
:1055d0002a7820012148290121504a012300601521
:1055e00021504f01257849011400e011000000000e
:1055f0000800401500000000030020150000000016
:1056000067ff001000000b24255020010000092432
:10561000e0ff6b252040487161ff00110000000091
:105620002358680122200800062089000448090147
:1056300004500a015aff001025504401ff070124bd
:105640001500c111000000002140e7002578060187
:105650000300e01500000000d9ffe0040000000096
:1056600025100600d8ff00102518070025784901ed
:105670002700e01500000000ff070124d0ffc1153e
:10568000000000002678a7002100e00500000000cf
:10569000f3ff0010000000002a78800121608c01d7
:1056a0002168ad011700c0152168af012578ac0154
:1056b000c3ffe011000000000800a015000000007a
:1056c000030080150000000039ff001000000e24c8
:1056d0002568800100000c24e0ffce252040a87141
:1056e00033ff0011000000002370c80122200800d1
:1056f00006208c0004600c0104680d012cff0010d2
:105700002568a4012578ac01d5ffe0110000000058
:10571000f8ff053caaff0010000004240100082443
:1057200023400b012000012d070020140000000081
:10573000e0ff08212b3009000d000a102548460122
:10574000f8ff001000000a340900001100000000fa
:10575000222008000430890004208a00064809013c
:1057600006500a010200c0102548890002002935b0
:1057700083ff001000000b244050050042550a0032
:10578000c04a0500427d040025482f01c0420400a4
:1057900000800e3c25482e0140680700426d0d0038
:1057a000c0620700427d060025608f01c05a0600d6
:1057b00025608e012628a7002428ae00ffff4f2574
:1057c000fe07e12d4700201000000000ffffaf257d
:1057d000fe07e12d6f0020100000000002fcaf2545
:1057e00021504f0119002c011238000010700000e8
:1057f00019000b01122000001030000019002b01cd
:1058000012580000106800002130cb002b78cb002c
:105810002138ed002138ef000200ed1000000000fb
:105820002b78ed002170cf0119000c01124000000f
:10583000104800002130c8002b78c8002138e9004a
:105840002138ef000200e910000000002b78e90089
:105850002170cf01257886000200e01100000000d1
:105860000100e73425480e0006002005254007000a
:105870002a780001214008012148290121482f01ef
:10588000ffff4a25ffff4f25fe07e12d680020108e
:10589000000000000004082500040f2d21482f01fe
:1058a0002b782f0121504f01c27a08000100ef31ff
:1058b00023400f01c2220800407d090025208f00ef
:1058c00040780900027b0f002528af00007d0a0008
:1058d0002528af0025100400251805000800e00366
:1058e000000000002a780001214008012148290118
:1058f0001c00401521482f01257828011400e011d3
:105900000000000008002015000000000300001542
:1059100000000000adff001000000a24254800012f
:1059200000000824e0ff4a2520702e71a7ffc01157
:105930000000000023504e0122380e000638e80017
:105940000440c8010448c901a0ff001025482701f0
:10595000ff0701243300a11100000000ddff00104b
:1059600000000000257828012e00e015000000004e
:105970000500a0150000000040780c002578eb0120
:105980002800e01100000000ff0701242100a115fc
:10599000000000002a78600121586b0121608c0111
:1059a0001900a01521608f0125788b011400e011ea
:1059b00000000000080080150000000003006015d2
:1059c0000000000085ff001000000d24256060012c
:1059d00000000b24e0ffad25203086717fffc01052
:1059e000000000002368a601227006000670cb01ab
:1059f0000458cb000460cc0078ff001025608e01b5
:105a0000b4ff00100000042425788b010500e01588
:105a100000000000f07f013c2528a100adff001030
:105a200000000424f8ff053caaff00100000042435
:105a3000f8ff401d0000000001000e242370ca0181
:105a40002000c12d0700201400000000e0ffce213f
:105a50002b3008000d00091025402601f8ff00102a
:105a6000000009340900c0110000000022380e00b7
:105a70000430e8000438e9000640c8010648c901be
:105a80000200c0102540e800020008350004082587
:105a900000040f2d21482f0183ff0010c257090079
:105aa0004050050042550a00c04a0500427d0400ee
:105ab00025482f01c042040000800e3c25482e01dd
:105ac00040680700426d0d00c0620700427d06007d
:105ad00025608f01c05a060025608e012628a70088
:105ae0002428ae00ffff4f25fe07e12dcb0020103c
:105af00000000000ffffaf25fe07e12df40020109d
:105b00000000000023504d01ff034a2542400800d9
:105b1000c07f090025400f0142480900023c0c00eb
:105b2000f401e0001b002701127000001048000083
:105b3000ffff86311900ce0012200000004c090042
:105b4000027c080025482f012b7824010600e01173
:105b500023482401ffffce2521482c012b082c01ce
:105b6000fcff201000000000f401e0001b002701f2
:105b700012380000104800001900c7001220000071
:105b8000004c0900ffff0f3125482f012b7824011d
:105b90000600e01123482401ffffe72421482c01df
:105ba0002b082c01fcff20100000000000740e00e8
:105bb0002170c7011900cb0112380000102000002d
:105bc000000008242b780701234007012b102f0128
:105bd00023482f012b7824012578e2010b00e011e6
:105be00023482401ffffce2521400b012b780b0118
:105bf00021482c0121482f0102002c110000000037
:105c00002b782c01f7ffe0110000000006002c1596
:105c10000000000025200b002548080000000d248e
:105c20002a00001025380d00023c0c00f401e000b1
:105c30001b0027011268000010480000ffff86319a
:105c40001900cd0012200000004c0900027c080061
:105c500025482f012b7824010600e0112348240158
:105c6000ffffad2521482c012b082c01fcff201043
:105c700000000000f401e0001b00270112380000c2
:105c8000104800001900c70012200000004c090055
:105c9000ffff0f3125482f012b7824010600e0116a
:105ca00023482401ffffe72421482c012b082c0165
:105cb000fcff201000000000006c0d002168a7010f
:105cc0001900ab0112380000102000000000082469
:105cd0002b780701234007012b102f0123482f01a8
:105ce0002b7824012578e2010b00e01123482401e0
:105cf000ffffad2521400b012b780b0121482c0122
:105d000021482f0102002c11000000002b782c01eb
:105d1000f7ffe011000000000600c00500000000d1
:105d20002a78a0012168ad012170ce012170cf0138
:105d3000ffff4a25257828010200e011000000003d
:105d40000100ad3525480e0025400d00ffff4f2511
:105d5000fe07e12d150020100000000000040825ba
:105d600000040f2d21482f012b782f0121504f01c6
:105d7000c27a08000100ef3123400f01c22208005f
:105d8000407d090025208f0040780900027b0f002c
:105d90002528af00007d0a002528af00251004004b
:105da000251805000800e003000000004400401d25
:105db0000000000001000e242370ca012000c12d44
:105dc0000700201400000000e0ffce212b20080077
:105dd0000d00091025402401f8ff001000000934cf
:105de0000900c0110000000022300e000420c8008d
:105df0000430c9000640c8010648c90102008010ed
:105e00002540c800020008350004082500040f2db5
:105e100021482f01d6ff0010c25709002a7800013f
:105e200021400801214829011700401521482f0170
:105e3000257828011400e01100000000080020155a
:105e400000000000030000150000000029ff001002
:105e500000000a242548000100000824e0ff4a252c
:105e600020702e7123ffc0110000000023504e014e
:105e700022300e000630c8000440c8010448c901a1
:105e80001cff00102548260105004d1500000000ec
:105e900040780c002578eb012b00e0110000000099
:105ea000ff0701240a00a11100000000bbff401100
:105eb00000000000257828012300e0150000000004
:105ec000f07f013c2528a100b4ff0010000004244d
:105ed0002a78600121586b0121608c011700a01500
:105ee00021608f0125788b01f5ffe0110000000093
:105ef000080080150000000003006015000000008d
:105f000000ff001000000d242560600100000b243c
:105f1000e0ffad2520708e71fafec0110000000078
:105f20002368ae0122300e000630cb000458cb01ae
:105f30000460cc01f3fe00102560860125788b01fa
:105f40000200e01100000000f8ff053c93ff001084
:105f5000000004240000052425480500253805001c
:105f6000253004000c00c010000000000600c10431
:105f7000000000000080093c2b500500232805008c
:105f8000233006002330ca001e0407242040c870b6
:105f90002338e80004300601c242050040550600df
:105fa00025400a014050060002530a0025482a01f4
:105fb0000055070025482a0125100800251809006a
:105fc0000800e0030000000000000524253805005b
:105fd000253004000500c010000000001e04072446
:105fe0002048c9702338e90004302601c242050068
:105ff0004055060025400a0140480600024b0900b2
:106000000055070025482a01251008002518090019
:106010000800e00300000000c23d0400ff00e7307c
:106020000080013c24308100ffffe924fe00212d87
:106030000c002010000000008003e724404a040008
:10604000024b09002530c900402f0400004d070015
:106050002530c90025100500251806000800e003ba
:10606000000000000000052421208400f7ff8010bc
:10607000000000000900e01400000000ffffe7241a
:10608000212084008000013c2b088100fbff2014ac
:1060900000000000e8ff001000000000ff070724d8
:1060a00000ff013c010021342b088100e7ff201490
:1060b00000000000e5ff0010f8ff063cc03a0500b4
:1060c000425d04002538eb00c03204000080013c32
:1060d0002538e1000080013c2448a1004040050033
:1060e0004245080080fc0825ffff0b25fe00612dbe
:1060f00011002010000000000200c010000000008d
:106100000100e7348000e7248000eb2c21400b01e4
:10611000025a070001006b312338eb0040380700ba
:10612000423a0700c05d08002538eb002510e90061
:106130000800e003000000007f04012407000115af
:106140000000000040580700255866010300601158
:1061500000000000f6ff0010c0ff023cff00012914
:106160000400201400000000807f013cf0ff0010bc
:106170002510210101000a24235048012000412d4f
:106180000300201400000000e9ff001025100900a2
:1061900020000c2423608a01045887012530cb009d
:1061a00006384701000008240080013cd2ff00109f
:1061b0002538e100c03a0500425504002538ea00c0
:1061c0000080013c2538e1004050050042550a009e
:1061d0001e0406242330ca000b00c0180000000073
:1061e0002000c12c02002014000000000000073431
:1061f0000200a1040638c700233807002510070055
:106200000800e00300000000020080100000000011
:106210000100a534f07f013c010021342b08a100ce
:106220000300201400000000f5ff00100080023c75
:10623000ff7f023cf2ff0010ffff4234c03a05002e
:10624000425504002538ea000080013c2538e10071
:106250004050050042550a001e0406242330ca009f
:106260000b00c004000000002000c12c020020141c
:1062700000000000000007340200a1040638c70037
:1062800023380700251007000800e0030000000085
:1062900002008010000000000100a534f07f013ce6
:1062a000010021342b08a10003002014000000008d
:1062b000f5ff00100080023cf3ff0010ffff0224f6
:1062c000feff09244050050040580700255864018e
:1062d0002558660125504b010300401500000000c1
:1062e0003c00001000000224020080104040050025
:1062f00001000825e0ff013c010021342b080101c9
:1063000036002010000000000200c01040400700ce
:1063100001000825e0ff013c010021342b080101a8
:106320002e002010000000001600a1040000000054
:106330000300e0040000000026000010ffff02241c
:106340002b508600232086002b58aa002328aa0061
:106350002b50a70025504b01030040112328a70014
:106360001c000010010002242550a400030040116d
:106370000000000017000010ffff022415000010ad
:10638000000002240300e1040000000011000010de
:10639000010002242b508600232086002b58aa00df
:1063a0002328aa002b50a70025504b0103004011c1
:1063b0002328a70007000010ffff02242550a40097
:1063c0000300401100000000020000100100022440
:1063d000000002240800e00300000000fdff0010a0
:1063e000251009000080013c2628a100251004008a
:1063f000251805000800e00300000000ff7f013cb5
:10640000ffff21342428a1002510040025180500d1
:106410000800e0030000000002008010404005007a
:1064200001000825e0ff013c010021342b08010197
:1064300003002014000000000c00001001000224e2
:106440000200c0104040070001000825e0ff013ca9
:10645000010021342b08010103002014000000007a
:106460000200001001000224000002240800e003e2
:1064700000000000e8ffbd271000bfaf0068054026
:106480008000063c2520a6000068844000100324fc
:1064900088bf023c3619400f081043ac1000bf8f74
:1064a0000800e0031800bd2704b460a4016a6cea88
:1064b000fc2203b4409ca0e8105880bf205880bf45
:1064c00004b460a4016a6ceafc2203b4409ca0e816
:1064d000105a80bf205a80bf0800e003206062414c
:1064e0008beaabee0124cf4620e86667b3642667eb
:1064f000076700d43d65572fc3ed7960fff71f6a2a
:10650000c3ea666720f11260c0b623ee106e016028
:10651000084e4367beb446ee81e2e0a0206ccde7b2
:106520007be40b26009079670095cbe464ee06eae5
:106530000deba4ee24ee3b6500d52234f9678234de
:106540009bef116731e8009612ef10ea18ef403325
:10655000c23212ed603342326deaa3ea076029e2eb
:1065600023eaef470361a3ea40f10a61afe29beb44
:10657000bd6710ea12ee403318ee40ad12ec603306
:1065800031ea4deb83eb07602de323ebcf4603614c
:1065900083eb0160cf46e0348037edee006f466755
:1065a00067673364a0e803ed0660006fc76746675e
:1065b00067673364a0e8fff71f6b03eb716093b468
:1065c00003ec106c0160084c91b3506746ec79e223
:1065d000a0a6206b9de5f7e3722d996783e804611f
:1065e0000097c56723efda61016e006fd8174b265d
:1065f000fff71f6d23ed4e6100f10059d867015e72
:1066000058674c3482b6516746ecd5e200a5206b42
:106610009de0fbe3a0f0112e796722342be3016f9c
:106620008236dbeab16731ed10ea12e840330092be
:10663000b8e8423212ec603342324deb83eb076034
:106640002de323eb0f40036183ebc0f016618be376
:10665000dbea12ee10eab8eebd67403340ad12ec53
:10666000603331ea4deb83eb07602de323ebcf463c
:10667000036183eb0160cf460035a0348dee4667a1
:1066800067673364a0e80168dbe8fff71f6d12e974
:1066900023edb2605db3106c23ebb460084cb2170d
:1066a00000f100585867015ad867cc3458b3506786
:1066b00046ec79e2a0a6206b9de5f7e38e25906776
:1066c000bbe384ed516724ed46ee046701d10091f0
:1066d0004de8596746ee26ee0236c236dbea0094f4
:1066e000f96784ede4ed2def02d490673f6531ec5e
:1066f000b96712e910ea98e94033a23212ef603329
:106700004235adebe3eb08600de303eb2f41046191
:10671000e3eb02602f410de3f7e3dbedb96731ed09
:1067200012ee10eb12ea98ee603712ece033adebac
:1067300083eb08600de303ebcf42046183eb02605f
:10674000cf460de320378fe3e0348dee019499eed0
:1067500010ea43eb08616eea3ff7002a029212eb5f
:1067600063ea1ff71b60cf46006f191700f1005e48
:10677000b867015d98678c36cc16009424eef967f3
:10678000cbe3e4ee84ee1967223606eac236dbe894
:10679000009500d4a6ea9167656731eca7676dedb7
:1067a00012e810ea98e84033a23212ef6033423226
:1067b0006deae3ea086029e223ea0f400461e3eab4
:1067c00002600f4029e2efe2dbeb12ef10ea98eff4
:1067d0004033456712ec603331ea4deb83eb0860e0
:1067e0002de323ebef47046183eb0260ef472de3da
:1067f0000035a0300def8be314170f402de3271762
:10680000ef4729e2b3160065ffffff007475009d96
:10681000b564006a006b02d203d32667076704d40d
:106820003d653b2fc3ed6d60fff71f6cc3ec6667e2
:1068300020f10f60c5b7c3ef106e0160084e83678b
:10684000c3b586eea9e460a2206cc1e31be40b266d
:10685000cbe404941967049704ee86ea8de8e4ee2d
:1068600024ee386504d722351967a235bbe8f167f5
:1068700031ef049012ec10eaf8ec4033023212ece3
:10688000603342326dea83ea066029e223ea03615b
:1068900083ea016029e28be26310e3ed656708603b
:1068a00002d403d30292039300d201d33564a0e84b
:1068b000fff71f6ee3ee7d60a4b3106ce3eb0160a5
:1068c000084ca3b3b067a6ec7de5c0a7206b89e6b2
:1068d0005be37e2e996783e8e0f00261049223ea8d
:1068e000c0f01e601d67e0f005200493596702d3d5
:1068f00003d2029703964767666700d701d63564cf
:10690000a0e84a26fff71f6f23ef4d6100f1005901
:106910005867015a78676c348db3f167e6ec79e714
:10692000a0a6206b81e51be3c0f0082e1967223476
:106930002be08235bbeaf167049031ef12ec10eaec
:10694000f8ec4033023212ec603342300deb83eb53
:1069500006602de323eb036183ebe0f012618be330
:10696000bbeabd6712e810eaf8e8e8ad403312ec84
:10697000603331efedeb83eb06602de323eb036136
:1069800083eb01602de38be39d6780f0132446eedb
:10699000006802d203d08617016e3beefff71f6f2f
:1069a00012e923efb36069b423ec106cb560084cb6
:1069b000b31700f1005fb867015df867ec3464b3aa
:1069c000b067a6ec7de5c0a7206b89e65be3822675
:1069d000dfe305d70594706764eeb167a6ec036743
:1069e000ade804920495796766ec46eca4ee0234b7
:1069f00007d58235bbebf96724eee4ee4def06d107
:106a000090673f6531ec10ea12e9403398e9596725
:106a1000423212ef603342326deae3ea086009e283
:106a200003ea2f410461e3ea02602f4109e2efe249
:106a3000bbeb12ed10ea98ed4033596712ec60336e
:106a400031ea4deb83eb08600de303ebaf450461e6
:106a500083eb0260af450de320329fe34034adeca1
:106a6000069379ec10ec12ed83ef6361eaec5e6063
:106a70001d6720200793abe307958fe743ed9867e9
:106a80008fe30597a367a4ef46ee4ded66ee02d5c2
:106a9000081700f1005ed867015eb867ac36cf1604
:106aa0000494b9673be4c3ec0fe5f867e3e33865aa
:106ab00004d61817009201933564a0e80490d7e338
:106ac00024ee796766ed06ed2235a235bbeb04971f
:106ad0009967e4ee84ee0dec04d7f16731ef3c6585
:106ae00012e810eaf8e84033823212e860334232aa
:106af0006dea03ea066029e223ea036103ea016022
:106b000029e20fe2bbeb12ec10eaf8ec4033f96734
:106b100012ec603331efedeb83eb06602de323ebfa
:106b2000036183eb01602de38be304170793a3eb71
:106b30009f6006924fe563ed0be4186713e2a367cd
:106b400097172de30c170065ffffff007475009d7c
:020000040000fa
:020000041d00dd
:106b500020b2202020b22020b220b22020202020ed
:106b6000b220b20d0ab220b220b220b2202020b250
:106b70002020b22020b220200d0ab22020b22020f6
:106b8000b220b220b22020b22020b220b20d0ab230
:106b90002020b22020b220b22020b220b220b22089
:106ba00020b20d0ab22020b22020b220b220202034
:106bb000b220b2202020b20d0a000000b2b2b220f2
:106bc00020b2b2b2b20d0ab22020b220b2202020f0
:106bd0000d0ab22020b220b2b2b2b20d0ab2202009
:106be000b220b22020200d0ab2b2b22020b2b2b23e
:106bf000b20d0a000d0a5374617274696e67204efb
:106c00006f64652031206f6620466561747572651a
:106c10002044656d6f20666f72204d695769285456
:106c20004d292050325020537461636b202e2e2e3c
:106c3000000000000d0a496e70757420436f6e6687
:106c4000696775726174696f6e3a00000d0a2020e1
:106c5000202020202020202020427574746f6e2078
:106c6000313a2052443600000d0a202020202020f6
:106c70002020202020427574746f6e20323a2052fa
:106c8000443700000d0a4f757470757420436f6ea1
:106c900066696775726174696f6e3a000d0a20202b
:106ca00020202020202020202020202020202020e4
:106cb000202020525332333220706f727400000053
:106cc0000d0a2020202020202020202020202020ed
:106cd0004c454420313a2044313000000d0a202038
:106ce0002020202020202020202020204c4544202f
:106cf000323a2044390000000d0a20202020205282
:106d000046205472616e736365697665723a204df0
:106d100052463839584100000d0a20202044656d44
:106d20006f20496e737472756374696f6e3a0000f8
:106d30000d0a20202020202020202020202020207c
:106d400020202020202020506f776572206f6e2039
:106d500074686520626f61726420756e74696c205e
:106d60004c45442031206c6967687473207570004d
:106d70000d0a20202020202020202020202020203c
:106d800020202020202020746f20696e64696361b8
:106d90007465206974206973207265616479207458
:106da0006f2065737461626c697368206e6577002b
:106db0000d0a2020202020202020202020202020fc
:106dc00020202020202020636f6e6e656374696f21
:106dd0006e732e205075736820427574746f6e2028
:106de0003120746f20706572666f726d0000000054
:106df0000d0a2020202020202020202020202020bc
:106e0000202020202020206672657175656e6379d0
:106e1000206167696c6974792070726f636564754d
:106e200072652e205075736820427574746f6e0001
:106e30000d0a20202020202020202020202020207b
:106e4000202020202020203220746f20756e69635e
:106e500061737420656e63727970746564206d650a
:106e600073736167652e204c454420322077696c2e
:106e70006c0000000d0a202020202020202020204f
:106e80002020202020202020202020626520746fd8
:106e900067676c65642075706f6e207265636569e5
:106ea00076696e67206d657373616765732e200068
:106eb0000d0a0d0a000000004665617475726520b8
:106ec0005032502044656d6f204d5246383958413c
:106ed000204e6f6465203100204e6574776f726bb1
:106ee00020467265657a657220202020454e414219
:106ef0004c4544000d0a4e6574776f726b204672e4
:106f000065657a657220466561747572652069737e
:106f100020656e61626c65642e2054686572652020
:106f200077696c6c206265206e6f2068616e642ddd
:106f30007368616b652070726f636573732e0d0ae1
:106f4000000000000d0a5374617274696e6720417d
:106f50006374697665205363616e2e2e2e000000e7
:106f6000416374697665205363616e6e696e670074
:106f70000d0a416374697665205363616e20526522
:106f800073756c74733a200d0a0000004368616edb
:106f90006e656c3a20000000202020525353493a7d
:106fa000200000000d0a4a6f696e204661696c007e
:106fb000416374697665205363616e6e696e672004
:106fc000456e65726779205363616e6e696e670006
:106fd000537461727420436f6e6e656374696f6e73
:106fe000206f6e204368616e6e656c202564000022
:106ff0005244363a204672657120486f7020202036
:107000005244373a20556e69636173740000000082
:1070100053656375726564200000000042726f6101
:107020006463617374205061636b65742077697465
:107030006820525353492000556e69636173742070
:107040005061636b657420776974682052535349ab
:10705000200000002066726f6d2000003a200000c2
:1070600020496e6974204672657120486f70000077
:1070700020496e6974204672657120486f70202027
:10708000204e6577204368616e6e656c2025640034
:107090000d0a4672657175656e6379204167696c8a
:1070a00069747920746f204368616e6e656c20008e
:1070b00020496e6974204672657120486f702020e7
:1070c000204672657120486f70204661696c656466
:1070d000000000000d0a4672657175656e637920c7
:1070e0004167696c697479204661696c6564000068
:1070f0000d0a556e6963617374204661696c65643d
:107100000d0a000020556e69636173742046616941
:107110006c6564005458204d657373616765733afc
:10712000202564005258204d657373616765733a7a
:107130002025640030313233343536373839414216
:107140004344454678000000b40000002c010000d4
:107150001c020000fc030000bc0700003c0f000004
:107160003c1e00003c3c00003c7800003cf000006d
:107170003ce001003cc003003c8007003c000f00e5
:107180000d0a496e646972656374206d657373617d
:107190006765206578706972656400000d0a486f44
:1071a0007070696e67204368616e6e656c20746fe5
:1071b00020000000204368616e6e656c3a0000009c
:1071c0000d0a537461727420576972656c6573732c
:1071d00020436f6d6d756e69636174696f6e206faa
:1071e0006e204368616e6e656c2000000d0a0d0a0a
:1071f0004d7920416464726573733a2030780000e1
:1072000020204368616e6e656c3a20000d0a436f62
:107210006e6e656374696f6e202020202050656556
:10722000724c6f6e67416464726573732020202016
:107230002050656572496e666f0d0a00202020207f
:1072400020202020202020202000000020200000de
:1072500020202020000000000d0a0d0a436f6e6ef2
:10726000656374696f6e2020202020506565724c24
:107270006f6e674164647265737320202020205014
:10728000656572496e666f0d0a0000000d0a536352
:10729000616e204368616e6e656c20000d0a456e5c
:1072a00065726779205363616e20526573756c74e3
:1072b000733a00000d0a4368616e6e656c20000031
:1072c0000d0a436865636b696e67204368616e6e83
:1072d000656c20000d0a526573796e6368726f6e7b
:1072e000697a656420436f6e6e656374696f6e20a2
:1072f000746f204368616e6e656c20000d0a486fe4
:107300007070696e6720746f204368616e6e656c83
:1073100020000000000102030405060753535353e5
:10732000535353535353535353535353535353532d
:107330005454545454545454545454541d202225d9
:10734000282b2e303336393c3f4144474a304f5288
:107350000a0d10121215181b20232629260084025c
:10736000090409060c08c10a770c630e19100012f3
:10737000001400163818c81a0d1c001e722038227e
:10738000382407260028002a692c812e7e30963268
:10739000f83488364038003ae83c003e2a4e72966f
:1073a000bade0000202020202020202020202020c5
:1073b00020202020202020202020202020202020cd
:1073c00020202020303030303030303030303030fd
:1073d00030303030303030303030303030303030ad
:1073e00030303030ef3d009deb41009dcf3c009da3
:1073f000eb41009dcf3c009dcf3c009dcf3c009dcc
:10740000cf3c009dcf3c009dcf3c009dcf3c009ddc
:107410004546009d1f46009dcf3c009dcf3c009df2
:10742000cf3c009dcf3c009dc545009dcf3c009dbd
:10743000cf3c009d3340009dcf3c009dcf3c009d44
:10744000cf3c009dcf3c009dcf3c009dcf3c009d9c
:10745000cf3c009dcf3c009dcf3c009dcf3c009d8c
:107460006f42009dfd3d009deb41009deb41009d65
:10747000eb41009dcf3c009dfd3d009dcf3c009d1c
:10748000cf3c009dcf3c009dcf3c009dbd41009d69
:107490005346009d2d46009dcf3c009dcf3c009d56
:1074a000e945009dcf3c009dd345009dcf3c009d0c
:1074b000cf3c009d4140009d4948009d9b44009d5c
:1074c0006f46009d9b44009d9b44009d9b44009df6
:1074d0009b44009d9b44009d9b44009d9b44009dbc
:1074e0009b44009d9b44009d9b44009d9b44009dac
:1074f0009b44009d9b44009d9b44009d9b44009d9c
:107500009b44009d9b44009d9b44009d9b44009d8b
:107510009b44009d9b44009d9b44009d9b44009d7b
:107520009b44009d9b44009d9b44009d9b44009d6b
:107530009b44009d9b44009d4948009d1948009d27
:107540006f46009d2b496e66000000002d496e6657
:10755000000000004e614e00286e756c6c29000022
:10756000e94c009df14c009df54c009df94c009daf
:10757000fd4c009d00010202030303030404040404
:1075800004040404050505050505050505050505af
:10759000050505050606060606060606060606068f
:1075a000060606060606060606060606060606067b
:1075b000060606060707070707070707070707075f
:1075c000070707070707070707070707070707074b
:1075d000070707070707070707070707070707073b
:1075e000070707070707070707070707070707072b
:1075f000070707070808080808080808080808080f
:1076000008080808080808080808080808080808fa
:1076100008080808080808080808080808080808ea
:1076200008080808080808080808080808080808da
:1076300008080808080808080808080808080808ca
:1076400008080808080808080808080808080808ba
:1076500008080808080808080808080808080808aa
:10766000080808080808080808080808080808089a
:0476700008080808f6
:020000040000fa
:020000041d00dd
:107674000c00000000000000010001041f0c1d00ac
:107684001c00000014000000ed64009d1b030000ba
:10769400420e040e080e1811107e11117f00000016
:1076a4001c000000340000001168009d3703000036
:1076b40020f10f60c5b7c3ef106e01600800000031
:020000040000fa
:020000041d00dd
:0c76c4000119000001776655030000006a
:020000040000fa
:020000044000ba
:1000000000000000000000000000000000000000f0
:1000100000000000000000000000000000000000e0
:00000001FF
