:020000040000FA
:060000000EEF1DF01200DE
:020006000400F4
:06000800D5EF11F012001B
:02000E001200DE
:020010000218D4
:03001200FF0000EC
:020015000000E9
:06001800D5EF11F012000B
:02001E0030317F
:0E002000323334353637383941424344454691
:02002E000001CF
:0E00300002030405060708090A0B0C0D0E0F4B
:02003E000400BC
:1000400015000000B20200000200000012000000D3
:10005000AB02000003000000363A0000DC010000A3
:100060000D00000010000000B002000002000000BF
:100070000000120078EC0CF049E800EBE6FFD6CF68
:10008000E6FFEFEC1AF041E9E750036E035027E07A
:10009000030630EC0AF0046EF451056EF551066E5D
:1000A000F651076E30EC0AF0086EF451096EF55106
:1000B0000A6EF6510B6E59EC0BF0D950040FCDECD3
:1000C0000AF0EE50D2EC0BF0D8803E0EF355000E45
:1000D000F455000EF555000EF655E4E2D7D74AE97F
:1000E0005FEF0AF08EEC0CF055E85FEC0EF00009C3
:1000F00001E1FBD202015BB54FD3016B7851040BD8
:1001000001E0010E030BF36EFC0E0115F310016FFD
:1001100078510197080B01E001877851030B010822
:1001200002E1010E01D0000E019BE8B0018B785175
:10013000019D800B01E0018D78AF08D08051019FB7
:10014000E8B0018F79C204F27AC205F281C202F2EC
:1001500082C203F27FC20AF27EC209F25B95785135
:10016000030B010A01E126D2020A01E174D1030A5C
:1001700001E0B6D20A0E7D5D01E2B2D2020E3DEC84
:100180000AF00B6E030E3DEC0AF00C6E040E3DEC13
:100190000AF0116E050E3DEC0AF0126E060E3DECF3
:1001A0000AF00D6E070E3DEC0AF00E6E080E3DECE7
:1001B0000AF00F6E090E3DEC0AF0106E016B7851DB
:1001C0000197080B01E001870151030B000904E1CD
:1001D000111C64E1121C62E156510F180AE15751DB
:1001E000101807E158510D1804E159510E1801E19A
:1001F00077D2026A040E025C1BE25CEC0CF0EF505A
:1002000015E049EC0AF00F50EE1810E11050ED180F
:100210000DE149EC0AF0EBEC0BF0EFCFF3F10A0E35
:1002200002013DEC0AF00101F35D02E0022AE2D78F
:10023000040E025C01E254D2026A040E025C06E281
:100240005CEC0CF0EF5002E0022AF7D7040E025CDF
:1002500021E249EC0AF00FEBEEFF10EBEDFF0A0E86
:1002600068EC0CF049EC0AF0020EE9266DEC0BF09C
:100270005CEC0CF0030EEF6E47EC0CF049EC0AF06E
:100280006CEC0CF0FBC1EEFFF4C1EEFFF5C1EEFF2C
:10029000F6C1EEFF02010181019334D058510B18D1
:1002A00001E01ED259510C1801E01AD25651111812
:1002B00001E016D25751121801E012D2010E3DECA6
:1002C0000AF0040B1FE070EC0BF00DEB02F00EEBEC
:1002D00003F00FEB04F010EB05F0F4EC0BF00A0E5A
:1002E0000201DEEC0BF0EFCF0AF000010B6B300ED9
:1002F0000C6F02010D0E556F716B718B65EC0CF07C
:10030000020101850B0E3DEC0AF001E07AD00C0EE3
:100310003DEC0AF0300863E00C0E3DEC0AF0110AE7
:1003200001E0DED1136A080E135C0AE20D0E1324FD
:100330003DEC0AF0E66E1350F6EC0AF0132AF3D700
:100340008D0E546F150E3DEC0AF0800B01E05491B8
:10035000150EDEEC0BF0EFCF50F2160EDEEC0BF0CC
:10036000EFCF51F258C252F259C253F29BDB020155
:10037000616FFF0E615D08E06151A9EC0CF0EFCFF9
:1003800054F25485548704D08D0E546F50BF54914D
:10039000E1DB0201616FFF0E615D1EE2136A010E77
:1003A000135C0CE2170E132468EC0CF0615104ECA2
:1003B0000CF0135002EC0CF0132AF1D70E0EE66E7F
:1003C000E66A020161510FEC0BF00201615100EC91
:1003D0000BF00201608101D06091609381D10A0E1F
:1003E0003DEC0AF00101E75D01E07AD102015D51C7
:1003F0000F1801E075D15E51101801E071D15B97C3
:100400006FD10B0E7D5D086F0B0E7B25066F000E06
:100410007C21076F0DEB02F20EEB03F2080E3DECB0
:100420000AF0FF080AE1090E3DEC0AF0FF0805E1B9
:1004300079C204F27AC205F207D0018F080E7B253B
:10044000046F000E7C21056F018D0851000801E347
:1004500047D15B8545D1146A040E14243DEC0AF0A3
:100460004D0807E0040E14243DEC0AF05D0801E09D
:1004700037D15BA90AD087EC1CF0FBC1A3F2FCC109
:10048000A4F2FDC1A5F2FEC1A6F202015BA128D132
:1004900081C252F282C253F21EEC0BF014503DECBA
:1004A0000AF0FF0801E01CD114283DEC0AF0156E9B
:1004B000040E0B5D01E314D16FEC0CF084EC0BF037
:1004C00001E20ED1B3EC0CF0E4C1EFFFB3EC0CF0A1
:1004D0000B0EAFEC0CF009C2EFFFB3EC0CF05CECD0
:1004E0000AF00AC2EFFFB3EC0CF0090EAFEC0CF00F
:1004F00052C2EEFF53C2EDFFC6EC0BF0EF6AC6EC42
:100500000BF0EF8C6FEC0CF0EF50060BE8420101A2
:10051000F36F0201C6EC0BF00101F351030BF36E14
:10052000FC0EEF14F310EF6E6FEC0CF0EF50080BB5
:1005300004E00201C6EC0BF0EF866FEC0CF084ECEB
:100540000BF004E30201C6EC0BF0EF8A04C2E9FFF2
:1005500005C2EAFFEF50E66E0201B3EC0CF0EE527A
:10056000E552E750EF6E010EEA6A0425E96E055187
:10057000EA22EF50E66EB3EC0CF0EE52E92A6DEC95
:100580000BF0C6EC0BF0EF8E026A010E025C0FE27C
:10059000070E1424022468EC0CF0B3EC0CF00E0EE1
:1005A0007CEC0AF0025002EC0CF0022AEED70201B9
:1005B0000B2B96D07BC2E9FF7CC2EAFFEF50030A07
:1005C00063E0010A01E08CD0030E3DEC0AF050E13B
:1005D000010EDEEC0BF0EFCF56F2020EDEEC0BF06C
:1005E000EFCF57F282EC0AF002015B83BF0E546F2B
:1005F000026A080E025C03E215EC0CF0FAD75651C1
:1006000003E1506B516B03D057C251F2506B58C28B
:1006100052F259C253F29EDA02015A6F5A51AFECAC
:100620000AF0026A010E025C0CE2040E022468EC7D
:100630000CF05A5104EC0CF0025002EC0CF0022ABF
:10064000F1D77AEC0AF008EC0CF078EC0AF00E0E18
:10065000E66EE66A02015A510FEC0BF002015A51A4
:1006600000EC0BF0F40EE66E2D0EC8EC0AF038D05C
:100670005A69586959692DEC0BF078EC0AF07AEC5C
:100680000AF008EC0CF02CD0805108E01EEC0BF0C6
:1006900009DA166EFF0E165C0DE122D0026A080E12
:1006A000025C03E215EC0CF0FAD723DA166EFF0EAB
:1006B000165C16E01650C0EC0BF0200B11E0026A3D
:1006C0000A0E025C05E202500BEC0CF0022AF8D78D
:1006D00052EC0CF078EC0AF008EC0CF07AEC0AF032
:1006E00002015BB502D094EC0FF030EC0AF0036E1F
:1006F000F451046EF551056EF651066E026A040E51
:10070000025C1BE25CEC0CF0EF50000814E203EB1F
:10071000F7F104EBF8F105EBF9F106EBFAF149EC2E
:100720000AF06CEC0CF0EE50010151EC0AF003E21F
:100730005CEC0CF0EF6A022AE2D7020160A32CD035
:1007400060B12AD0D950030FCDEC0AF06D51EE5CA8
:100750000101F36F02016E51EE580101F46F0201C5
:100760006F51EE580101F56F02017051EE58010111
:10077000F66FF351076EF451086EF551096EF6519C
:100780000A6E07506C08DC0E0854020E0954000E65
:100790000A5402E20201609356E95FEF0AF034EC7A
:1007A0000AF088E90201716B0150030BF36EFC0E35
:1007B0007115F310716F0250031001E171857151D1
:1007C000040B02E0000E01D0010E719BE8B0718BAA
:1007D000718F02EB72F203EB73F2080E0014000843
:1007E00003E2010E746F01D0746B040E0014000854
:1007F00003E2010E756F01D0756B04EBE9FF05EBA9
:10080000EAFFEFCF76F20428E96E000E0520EA6ECB
:10081000EFCF77F2A5EC0AF07FEC0CF041E95FEF47
:100820000AF08EEC0CF041E8026A0A0E025C08E263
:100830000250B6EC0CF002E1025003D0022AF5D7C8
:10084000FF0E42E95FEF0AF078EC0CF042E8FF0E91
:10085000005C28E1E40EE66E2D0EC8EC0AF0036A97
:10086000080E035C0CE2070ED8800354EA6ADC0F22
:10087000E96E010EEA22A1EC0AF0032AF1D7D50EA7
:10088000E66E2D0EC8EC0AF03EEC0BF0CB0EE66ED9
:100890002D0EC8EC0AF045EC0BF0BF0EE66E2D0EE7
:1008A00087EC0CF0770EE66E2D0EC8EC0AF0FF0E0A
:1008B000005C61E1036A0A0E035C01E3B2D00350FD
:1008C000B6EC0CF056E003EBE6FF7BEC0CF0C3EC6F
:1008D0000BF0C3EC0BF0CAEC0CF0010B02E0590E6C
:1008E00001D04E0EACEC0CF00350C0EC0BF0020B40
:1008F00002E0590E01D04E0EACEC0CF00350C0ECEF
:100900000BF0080B13E003503EEC0CF0A1EC0AF0E6
:100910000350CEEC0CF003505FEC0CF0A1EC0AF0AD
:10092000035022EC0AF062EC0BF002D0FAEC0CF06F
:1009300041E9CAEC0CF0040B08E0046A080E045C00
:1009400004E203500EEC0CF0F9D704EC0DF0046A4D
:10095000D89003E391EC0CF0FBD7046A010E045C21
:1009600006E2035004EC0CF097EC0CF0F7D799EC8E
:100970000CF0032AA0D70050B6EC0CF052E000EBCC
:10098000E6FF7BEC0CF0C3EC0BF0200E00EC0DF05E
:10099000010B02E0590E01D04E0E00EC0DF0020BDF
:1009A00002E0590E01D04E0E00EC0DF0080B13E0E2
:1009B00000503EEC0CF0A1EC0AF00050CEEC0CF034
:1009C00000505FEC0CF0A1EC0AF0005022EC0AF0B1
:1009D00062EC0BF002D0FAEC0CF041E904EC0DF003
:1009E0000050C0EC0BF0040B08E0046A080E045C35
:1009F00004E200500EEC0CF0F9D704EC0DF0046AA0
:100A0000D89003E391EC0CF0FBD7046A010E045C70
:100A100006E2005004EC0CF097EC0CF0F7D799ECE0
:100A20000CF043E95FEF0AF08EEC0CF041E80201B4
:100A3000609187EC1CF0FBC16DF2FCC16EF2FDC150
:100A40006FF2FEC170F20201506B516B0B0E556FCD
:100A500070EC0AF0EF6A70EC0AF0100EEF6E026AAA
:100A6000080E025C09E20250EA6ADC0FE96E010E30
:100A7000FDEC0BF0022AF4D7026A010E025C05E2DB
:100A80000250D2EC0CF0022AF8D7E66AE66A500E61
:100A9000E66E020EE66EB6DB44E90201608342E9CF
:100AA0005FEF0AF08EEC0CF041E8026A0A0E025C7D
:100AB0001CE20250B6EC0CF016E00250C0EC0BF059
:100AC000080B11E00AEC0DF0020E8CEC0BF00201A9
:100AD00050510101F31907E1020151510101F419CB
:100AE00002E1025003D0022AE1D7FF0E42E95FEF94
:100AF0000AF08EEC0CF042E8026A0A0E025C26E272
:100B00000250B6EC0CF020E00250C0EC0BF0040BED
:100B10001BE0036A080E035C15E20AEC0DF06CECB6
:100B20000CF0EACFF5F103500101EA6AE924E96E1D
:100B3000F551EA22EFCFF3F192EC0BF0F35D04E113
:100B4000032AE8D7025003D0022AD7D7FF0E43E981
:100B50005FEF0AF08EEC0CF042E80268020154A547
:100B600002D0C7DF03D054A702D09CDF026EFF0E75
:100B7000025C02E156DE026EFF0E025C2EE00250C5
:100B8000A9EC0CF054C2EFFF020154A512D0036A85
:100B9000080E035C0EE292EC0BF0E66E0AEC0DF030
:100BA0006CEC0CF0EACFF4F1035002EC0CF0032AE9
:100BB000EFD7020154A708D00AEC0DF0EBEC0BF0D4
:100BC00050C2EEFF51C2EDFF0AEC0DF052C2EEFF33
:100BD00053C2EDFF0250AFEC0AF0025043E95FEF61
:100BE0000AF034EC0AF086E941E8066A080E065C71
:100BF00014E20650022476EC0BF0EFCFF3F106502E
:100C00000024E96E000E0120EA6EEF500101F35D51
:100C100002E0000E03D0062AE9D7010E42E95FEF99
:100C20000AF078EC0CF044E8D7EC19F002015669B0
:100C30005769340E586F120E596F066A0A0E065C19
:100C400005E206500BEC0CF0062AF8D702015B6BAC
:100C50005C6B606B006B7DEC1CF00201556B066AEF
:100C60000A0E065C05E20650AFEC0AF0062AF8D739
:100C7000005041E0D2EC0AF080EC0BF0200E0101B4
:100C8000E45D09E264EC0AF080EC0BF00201561D11
:100C900004E1571D02E1000E65D035EC0CF080EC4C
:100CA0000BF0DEEC0AF080EC0BF0BAEC0AF0EAECA8
:100CB0000AF080EC0BF064EC0AF080EC0BF029EC0D
:100CC0000CF080EC0BF06B0EE66E2D0E87EC0CF04A
:100CD000630EE66E2D0EC8EC0AF045EC0BF0580ED4
:100CE000E66E2D0EC8EC0AF03EEC0BF082EC0AF03A
:100CF00002015B8311D07AEC0AF0D2EC0AF0C6EC68
:100D00000CF0DEEC0AF0C6EC0CF0EAEC0AF0C6ECF3
:100D10000CF008EC0CF0ECDB036A03960398039AE2
:100D2000038C038200500394E8B00384DC0E046E4D
:100D3000010E056E03EBE6FF04EBE6FF05EBE6FFB5
:100D400099EC11F043E9DEDBE4C1E6FF0DD841E99F
:100D5000020100810087BAEC0AF0D6CF5FF2F2926E
:100D6000F288010E45E9ABD378EC0CF0E66A00EBB3
:100D7000E6FF13EC11F042E9000908E000EBE4F1B2
:100D8000D2EC0AF0C6EC0CF0010E01D0000E41E9E5
:100D900096D378EC0CF00050030808E300EBE5F183
:100DA000E9DBDEEC0AF08BEC19F046E941E987D388
:100DB0005BDB87E94EE8010E086E096A0A6A0B6A76
:100DC0000101E4510C6E076A040E075C05E207504E
:100DD00040DBEF68072AF8D702010B6B5B81076ADB
:100DE000200E075C01E37AD001EBF4F102EBF5F1A0
:100DF00003EBF6F10101F36BF80EF417070EF6178B
:100E000059EC0BF007501F0B08E00101D890F737A1
:100E1000F837F937FA37E806F9E10101F751F31726
:100E2000F851F417F951F517FA51F617F351F41177
:100E3000F511F61151E0480EE66E2D0EA9DB07EB19
:100E4000E6FF9EEC1BF041E907EBE6FF8DDF41E991
:100E5000A3EC0CF0070EEF6E43DBE4C1EFFF526929
:100E60005369E66A010EE66E000EE66EE66A520E01
:100E7000E66E020EE66E93DC46E9F2DA9AEC0BF0CF
:100E8000B2EC0BF001E044D9EBDAA2EC0BF011EB81
:100E9000F7F112EBF8F113EBF9F114EBFAF1D95089
:100EA0000D0F7BDBEE50D2EC0BF00450040DF3CFB2
:100EB000F6FFF4CFF7FFC00EF626390EF722F351F6
:100EC0000900F55CF4510900F558F5510900F55891
:100ED000F6510900F558D4E2072A82D70CEBE6FF59
:100EE00043DF41E902015B910B514FE9E8D2BCDAE3
:100EF00084E94AE8030E046E00040DE195DD020169
:100F000060A305D0B2EC0BF0FAE002D9F8D760A1EB
:100F1000F0D06151F3D0005001E0EFD0FF0E015C42
:100F200024E10101010EF36FF46BF56BF66B010127
:100F3000E4511F0B08E00101D890F337F437F5377F
:100F4000F637E806F9E1F3C1E6FFF4C1E6FFF5C1C3
:100F5000E6FFF6C1E6FF0A0EE66E2ADF45E9000964
:100F600003E10406DEE1C5D0016A62EC0CF0090E73
:100F7000AFEC0CF0EECF52F2EDCF53F262EC0CF08E
:100F8000EE52EFCF50F2D8EC0CF0EFCF51F28ADDF9
:100F900002015A6FFF0E5A5D06E143DC02015A6FEF
:100FA000FF0801E1A6D05A510BEC0CF062EC0CF0FA
:100FB000090EB2DB07EC0DF0F3C1EEFFF4C1EDFF5B
:100FC00062EC0CF0EE52EF50E66E07EC0DF0020E04
:100FD000E92683DBD8EC0CF0EF50E66E5A515FEC5B
:100FE0000CF0E552E750EF6E5A51A9EC0CF0EF8689
:100FF000056A010E055C19E262EC0CF00E0EAFEC16
:101000000CF0E9CFF5F1EACFF6F105500101EA6AFB
:10101000E924E96EF651EA22EF50E66E02015A51D8
:10102000F3DB0550EFDB052AE4D702015A51A9ECA6
:101030000CF0EF825A51A9EC0CF0EF8A5A51A9EC4E
:101040000CF0EF8062EC0CF0EFCFE6FF8DDE41E9B3
:10105000020107EC0DF0EECF58F2EDCF59F2FDDAB8
:10106000A3EC0CF0010EEF6E3BDA00C2EFFF056A55
:10107000010E055C05E20550D2EC0CF0052AF8D70C
:10108000080EE66E010EE66E07EC0DF0020E34DA85
:10109000EDEC0CF007EC0DF0E9CFF5F1EACFF6F14D
:1010A000EDEC0CF0CFEC03F046E9DAD9066EF45122
:1010B000076EF551086EF651096E02015A5160DB58
:1010C000100B19E14FDB01E023D8CAD90A6EF451A5
:1010D0000B6EF5510C6EF6510D6E0AEBF7F10BEB42
:1010E000F8F10CEBF9F10DEBFAF1D950060FCBDB6F
:1010F000E4E2FF0E03D05A5101D0FF0E4BE9DFD1DD
:1011000072EC00F002015B51040B01E0010E1200D1
:1011100002015B9594EF0FF0EBDBE2DA58C202F0CC
:1011200059C203F004690569FED90201716B71852A
:1011300000507197E8B0718718DB07DA82DB41E96C
:10114000BED192D984E949E80150B6EC0CF055E0E3
:101150000101E8510DE000010B510AE002015B873B
:101160005FC2E7F101506ED9B2DA060E046E04D008
:10117000020E046E02015B97E6C100F004EB01F081
:10118000015060D9EFCF02F0015078DBEFCF03F0D0
:10119000015058D9F1DA015092DBEFCF05F024DB92
:1011A0005F515F2B00010A6F63DAE8B071878DDB56
:1011B000000921E002015BA722D052D9056EF4514B
:1011C000066EF551076EF651086ECCDA01E0A0DF2D
:1011D00002015BB702D0010E13D042D9BBDA09EB92
:1011E000F7F10AEBF8F10BEBF9F10CEBFAF1D9504E
:1011F000050F49DBEAE202015B97000E01D0010E08
:101200004AE95DD131D986E953E80101E8510AE0A4
:1012100000010B5107E002015B875FC2E7F1060E98
:10122000086E04D0020E086E02015B97015063E065
:10123000076A080E075C09E20750022457DAEF50EC
:10124000E66E0750D3D9072AF4D753DC066EFF0E9B
:10125000065C13E145DA026903690469056963D92B
:1012600007DAE8B0718702EB72F203EB73F2746B8A
:101270007CDA5B976AD9E5DA87D0065081DA080B09
:10128000E9E00101E85103E00650DCD820DA000172
:10129000040E006F08EB01F00650D4D8EFCF02F037
:1012A0000650ECDAEFCF03F00650CCD865DA0650E2
:1012B00006DBEFCF05F037D9DBD9E8B071878EDADE
:1012C0005EE002015BA745D0CBD844DA4BDA01E0FF
:1012D0001FDF02015BA73DD0C3D82CDA0DEBF7F17D
:1012E0000EEBF8F10FEBF9F110EBFAF1D950090F11
:1012F000CADAECE244D00001040E006F08EB01F002
:1013000058C202F059C203F002EBE9FF03EBEAFF17
:10131000EFCF04F00228EAD9EFCF05F004D902EBB1
:10132000E9FF03EBEAFFEFCF5DF20228DFD9EFCF51
:101330005EF29ED9E8B0718751DA21E002015BA725
:1013400022D08ED8FFD90EDA01E0E2DE02015BB7CF
:1013500002D0010E19D084D8156EF451166EF551D5
:10136000176EF651186E15EBF7F116EBF8F117EB57
:10137000F9F118EBFAF1D950110F85DAE4E2020124
:101380005B97000E01D0010E54E999D06DD888E921
:101390000550020A02E0030A02E1000E01D0000E2D
:1013A00041E98DD0A5DA43E8FF0E005C1EE1036A37
:1013B0000A0E035C3DE20350D9DA13E00350E0D992
:1013C000200B0FE0C0DA6BD903500CDB0350B6DA08
:1013D000FF0E045C0F0E055804E2042A000E0522DD
:1013E000F7D7035018DA032AE3D70050BFDA28E012
:1013F0000050C6D9200B24E002015A51005C20E1C4
:10140000556B6ED84CD90050EDDA005097DAFF0ECC
:10141000045C0F0E055804E2042A000E0522F7D7DB
:10142000036A0A0E035C04E20350F5D9032AF9D7D4
:1014300039DAEED95FD85CD8CDD88BEC19F046E913
:1014400044E93DD00E0D4FDA000EE926030EEA22E4
:1014500012000F0D48DA0C0EE926020EEA221200E5
:1014600016DA0101F3511200D9CFE6FFDACFE6FF19
:10147000E1CFD9FFE2CFDAFF1200A0D9EF5012007E
:10148000E66E7EEC1BF041E9120098DA9DD97FEF01
:101490000CF00250080D27DA830EE926020EEA222C
:1014A000120080D9D880240EF355F40EF455000EA6
:1014B000F555000EF65512000C0EAFEF0CF0E5CF0F
:1014C000DAFFE7CFD9FF1200020EE66EE66AD6C158
:1014D000E6FFD7C1E6FF560EE66E020EE66E12007C
:1014E0005551552BEA6A000FE96E000EEA221200F0
:1014F000B0D92DD2BAD92BD232DAE9CFF3F1EACF73
:10150000F4F1120072DA560EE66E020EE66E6AEC26
:1015100011F044E9120052DA58C276F259C277F259
:1015200053D921EF0CF060D902015F515F2B00010C
:101530000A6F12000101EA6AE924E96EF451EA2215
:101540001200EFCFE6FF7BEF0CF013DA72C2E6FF7A
:1015500073C2E6FF74C2E6FF75C2E6FF1200040D17
:10156000C2D9330EE926000EEA22EE6AEE6AEE6A6E
:10157000EE6A12000101E5510201030BF36EF3461E
:10158000F346F346F346CF0E0015F310006F12003A
:10159000E66E68EC1BF042E91200E96E000EDA20FC
:1015A000EA6E1200010EE66EE66ACEC1E6FFCFC11A
:1015B000E6FFE40EE66E010EE66E1200010EE66E28
:1015C000E66AD0C1E6FFD1C1E6FFE50EE66E010E88
:1015D000E66E12008C0EE66EE66AD2C1E6FFD3C15B
:1015E000E6FF000EE66E030EE66E1200EA6A480F92
:1015F000E96E020EEA22C6D1EED8E92AEA221200EA
:101600000E0DF3CFF5F1F4CFF6F1000E0101F52741
:10161000030EF623F5C1E6FFF6C1E6FF98D10E0DE5
:101620000101D251F3240101F36F0101D351F420E0
:101630000101F46FF3C1E6FFE66E120079C2E9FF23
:101640007AC2EAFFEFCF50F2010EEA6A7925E96E1D
:101650007A51EA22EFCF51F2120050695169C5D98F
:10166000500EE66E020EE66E6AEC11F044E91200CE
:101670000201716B718B00507197120057C2E6FF27
:101680003AD956C2E6FF7BEF0CF059C2E6FF33D9D8
:1016900058C2E6FF7BEF0CF0030EAFEF0CF0030E29
:1016A000EF6E716B718B71817193010E746F756F39
:1016B000120008EBF7F109EBF8F10AEBF9F10BEB8B
:1016C000FAF1120088D8EFCFE6FF8CEF1BF083D839
:1016D000EECF5DF2EDCF5EF21200000EEA2252D1A3
:1016E000E6C100F00001020E016F1200E96E000E6B
:1016F0000320EA6E1200EECF76F2EDCF77F2120001
:1017000076EC19F046E91200EF50300BE842E8425F
:10171000E842E8420108120022D9EECFF3F1EFCF00
:10172000F4F112000350EA6A480FE96E020EEA2251
:10173000EF5012000D6EF4510E6EF5510F6EF65112
:10174000106E1200116EF451126EF551136EF651B7
:10175000146E1200096EF4510A6EF5510B6EF651BB
:101760000C6E1200CDDC00091200010E756F58C21C
:1017700076F259C277F212002ED8EFCF04F01200A1
:10178000E8D8EF50120040D904EF0DF0ECD80D0E60
:10179000AFEF0CF03F0E74DE3F0E72DE3F0E70DED8
:1017A0003F0E1200F75DF36FEE50F859F46FEE50F4
:1017B000F959F56FEE50FA59F66F1200EA6A7B2577
:1017C000E96E7C51EA221200D4D807D974C2E6FF30
:1017D00075C2E6FF1200020EAFEF0CF05A5102D9AB
:1017E000F3D853DE0009120058C206F059C207F0C0
:1017F00056C208F057C209F01200EA22EF50E66E16
:101800006FDEC0D097DEBED01DDE0D0E7CEF0AF07D
:101810005BDEC6EF0CF09DD8EF6A120013DE040EFB
:101820006BDE070ED8800454D4D00250EA6A7925C2
:10183000E96E7A51EA22EF50E66E0250D7DE022AB4
:10184000120058C2E6FF59C2E6FF9CEC0FF04AE9CD
:101850001200010EE66EE66AD8C1E6FFD9C1E6FFC6
:101860005A0EE66E020EE66E1200020EE66EE66A92
:10187000CCC1E6FFCDC1E6FFF5EF0CF0E3DDE92AD0
:10188000000EEA22120089DEEE5051EF0AF087ECDA
:101890001CF0FBC1F3F1FCC1F4F1FDC1F5F1FEC197
:1018A000F6F1120002015A69566957695869596977
:1018B00029DE02015B931200ECDD4CEF0BF0C2DD80
:1018C000FCEF0AF0015029EF0AF07ED88BEF0AF006
:1018D0000201D3DDE66E1200040EAFEF0CF0D9501A
:1018E000150FCDEF0AF0F3CFE9FFF4CFEAFF1200B6
:1018F000BBDD83E912008CEC1BF041E9120076C2DB
:10190000E6FF77C2E6FF9CEC0FF04AE9120040DEEA
:10191000E4C1E6FF9EEC1BF041E91200A5DD82E97F
:101920001200740EE66E2D0E33DE042A12000450EF
:1019300050D00D0EA5DD0A0E40EF0AF083DDA5DDC7
:10194000046A056A12000201556B70EF0AF0C6EFD7
:101950000CF078DD5CEF0AF093DDC3EF0BF0E926C5
:10196000000EEA2212000B5129EF0AF009DF800B6A
:10197000120055C2E6FF000EE66E000EE66E71C262
:10198000E6FF1200E552E750EF6E12008BEC19F003
:1019900046E9120039D80350C0EF0BF053DDD1DD1A
:1019A000C3EF0BF0EA6AB00FE96E020EFDEF0BF029
:1019B00089DFEE52E92A000EEA2212000CDFE9CF9D
:1019C00072F2EACF73F21200010E746F756F07EFB7
:1019D0000DF0B0DDB6DD042A1200E9CFE6FFEACF54
:1019E000E6FF12002FDD7BEF0BF0580EE66E020EC5
:1019F000E66E1200CFDEB0DFCDDEE66E7EEF1BF0CE
:101A0000ABDF0050C0EF0BF0200E40EF0AF05A5150
:0A1A100022EF0AF0025022EF0AF064
:061A1A00ADEC13F085E9BC
:101A200041E8F250100B01E0010E056EF2988B9028
:101A3000010101EBF3F102EBF4F1030ED890F43362
:101A4000F333E804FBE17F0E0101F3158009E66E34
:101A5000B1EC14F0010101EBF3F102EBF4F1050E2E
:101A6000D890F337F437E804FBE1E00E0101F315F9
:101A70001009E66E28EC14F00550E8B0F288E8A0F2
:101A8000F29842E9BBEF13F0ADEC13F084E941E8C2
:101A9000F250100B01E0010E046EF2988B9001EBF6
:101AA000E6FF28EC14F00450E8B0F288E8A0F298C1
:101AB00042E9BBEF13F0ADEC13F083E942E8F250DA
:101AC000100B01E0010E046EF2988B9000EBE6FF24
:101AD000B1EC14F0DBEC1CF0036E8B800450E8B02A
:101AE000F288E8A0F298035043E9BBEF13F0ADECA5
:101AF00013F084E942E8F250100B01E0010E056E8C
:101B0000F2988B90010100EBF3F101EBF4F1030E7D
:101B1000D890F433F333E804FBE17F0E0101F317AF
:101B2000000EF417800EF311E66EB1EC14F0010113
:101B300000EBF3F101EBF4F1050ED890F337F43735
:101B4000E804FBE1E00E0101F315E66EB1EC14F0E0
:101B5000DBEC1CF0046E8B800550E8B0F288E8A046
:101B6000F298045043E9BBEF13F0ADEC13F082E9B7
:101B700043E88B94036A046A2C0E035C010E04583C
:101B800004E2032A000E0422F7D78B84036A046A56
:101B90002C0E035C010E045804E2032A000E0422FA
:101BA000F7D7070EE66E550EB6EC13F0540E46EC62
:101BB00014F0026E070E0214F9E1036A046AE80EDB
:101BC000035C030E045804E2032A000E0422F7D734
:101BD000BDEC14F0E668070EB6EC13F0E668090EEB
:101BE000B6EC13F0E668030EB6EC13F0E668050EEB
:101BF000B6EC13F0026A080E025C0AE202502EEC08
:101C000014F00250E8240B0FB6EC13F0022AF3D7BD
:101C1000800EE66E020EE66EE66EB5EC14F0E66A35
:101C2000030ECFEC13F0900EE66E060ECFEC13F021
:101C3000800EE66E070ECFEC13F0100EE66E080E67
:101C4000CFEC13F0210EE66E200ECFEC13F0800ED9
:101C5000E66E750EB6EC13F0400EE66E7D0EB6EC39
:101C600013F0600EE66E7F0EB6EC13F0980EE66E83
:101C7000310EB6EC13F0950EE66E5D0EB6EC13F079
:101C80000F0EE66E020EA5EC14F0026EA00E02140A
:101C9000A008F6E1E60EE66E650EB6EC13F0030E54
:101CA0004BEC14F0020EE66E010ECFEC13F0E66A78
:101CB000C6C1E6FFB8DA42E944E9BBEF13F0ADEC88
:101CC00013F082E943E881A0F2820101CBA11ED08A
:101CD000ACC2F3F1ADC2F4F10101F56BF66BD89033
:101CE000F651000A08E6800EF35D000EF459000E6E
:101CF000F559000EF65906E30201AC6BAD6B01011C
:101D0000CB9104D00201AC2B000EAD230201AB69D4
:101D1000026A020E025C09E211EC14F0000803E210
:101D200002EBABF202D0022AF4D7020E0201AB5D45
:101D300001E3F6D0010E046EC0EC14F0400B01E19B
:101D4000046A0201786B806BE3EC14F0E92A000E60
:101D5000EA22EF50CC0B036E0350080A01E1C2D017
:101D6000840A6CE0040A49E0080A38E04C0A16E0EC
:101D7000040A01E0B7D08EEC14F005E194EC14F005
:101D800002E1020178850201788F045004E063ECDF
:101D900014F0070E5CD07FEC14F06AD00201788F4B
:101DA00004500AE063EC14F00D0E6AEC14F0E70F37
:101DB00072EC14F0150E62D00201B9EC14F0EFCF02
:101DC00081F2D2EC14F00E0ECFEC14F00F0E6AEC90
:101DD00014F0E50F72EC14F0170E50D00201788564
:101DE000788F010E806F63EC14F0050E6AEC14F02E
:101DF000F50F72EC14F0070E41D08EEC14F005E1F3
:101E000094EC14F002E1020178850201788F010E52
:101E1000806F045009E17FEC14F06AEC14F0F10FCC
:101E200072EC14F00B0E2AD063EC14F0070E6AEC7F
:101E300014F0F30F72EC14F0090E20D00201788F29
:101E4000010E806F04500AE063EC14F00C0E6AEC93
:101E500014F0ED0F72EC14F00F0E10D0E3EC14F050
:101E60000C0ED5EC14F0B9EC14F0DEEC14F00E0E00
:101E70006AEC14F0EB0F72EC14F0110E02017B27E8
:101E8000000E7C230201C0EC14F0080B22E040ECB1
:101E900014F0F550010A12E0050A0EE0030A0CE006
:101EA000040A08E0050A06E0040A02E0070A09E15C
:101EB000150E05D00D0E03D0090E01D0050E02013E
:101EC0007D5F050E02017B257B6F000E7C217C6F00
:101ED00078870201C0EC14F0070B0EE0030A08E05B
:101EE000020A03E021D8000E1CD00201789102D032
:101EF00002017881789303D002017881788387EC9E
:101F000014F0EF50FE0F51EC14F0EFCF7FF287EC9E
:101F100014F0EF0451EC14F0EFCF7EF2010E01D07B
:101F2000000E44E9BBEF13F0020E0201AB5D03E2C9
:101F3000A0EC13F0EF6A1200ADEC13F08CE94CE862
:101F40000D6A0E6AA9EC13F0040B02E0010E066E96
:101F5000A9EC13F0080B01E0076AA9EC13F0030BDE
:101F6000010802E1030E06D0A9EC13F0030B0009EF
:101F700002E1010E0E6E0101C75108180DE1C851B2
:101F800009180AE1C71D01E1C81D06E0050E0C6E27
:101F90000E8C010E0F6E03D0070E0C6E0F6A0650EA
:101FA00002E0020E01D0080E0C26075002E0020EDD
:101FB00001D0080E0C26CDDB080B01E00E86C9DB34
:101FC000200B04E0C6DB040B01E10E8AC2DB030B2D
:101FD000030807E10E6A070E0C6E0F6A010E076E0A
:101FE000039A0CEBE6FFC3EC14F0080B04E00C5072
:101FF0000024050F02D00C500024E66EA4DB0EEB8B
:10200000E6FFC3EC14F0030B030804E1800EAAEC16
:1020100014F02ED0065004E0075002E0880E0DD0D8
:10202000065004E0075002E1C80E07D0065004E154
:10203000070402E18C0E01D0CC0EAAEC14F083DB75
:1020400008EBE6FF80DB09EBE6FFC3EC14F0040BC2
:1020500004E0E66878DBE6680BD006500BE004EBA2
:10206000E9FF05EBEAFFC6EC14F0042858EC14F085
:102070006ADB0BD00E6A080E0E5C07E20E500424D9
:1020800058EC14F060DB0E2AF6D70F5006E1C7C1FA
:10209000E6FF59DBC8C1E6FF56DB075007E0C9C1C0
:1020A000E6FF51DBCAC1E6FF4EDB09D00E6A080E1F
:1020B0000E5C05E20E50D2DB46DB0E2AF8D749DB78
:1020C000080B3DE00E6A040E0E5C0AE20E50EA6A4E
:1020D000B50FE96E010EEA22C6EC14F00E2AF3D712
:1020E0000101B52B000EB623B723B823B55105E186
:1020F000030EB61502E19AEC14F0070EF66E000E10
:10210000F76E0800F5CFE6FF1EDB0E6A100E0E5CC0
:1021100011E20E50ACDB0E500101F46B800FF36F37
:10212000020EF423F3C1E6FFF4C1E6FFB5EC14F0B0
:102130000E2AECD7A5DBF5CFE6FF590E17DB0E6AAA
:1021400000500E5C0AE20E500124E96E000E0220DF
:10215000EA6EC6EC14F00E2AF3D70101CB81F9DA4E
:10216000200B07E0F6DA040B04E1050E0E6ECB83BC
:1021700003D0010E0E6ECB93ECDA080B01E00E8259
:102180000EEBE6FF370EF2DA3BDB106EF451116E08
:10219000F551126EF651136E81A0F2820101CBB19E
:1021A00004D0CBA53DD0CB9539D02ADB146EF451A9
:1021B000156EF551166EF651176E14EBF7F115EB1F
:1021C000F8F116EBF9F117EBFAF1D950100FE96EAF
:1021D000000EDA20EA6EEE50F75DF36FEE50F8591C
:1021E000F46FEE50F959F56FEE50FA59F66FD8804A
:1021F000C40EF355090EF455000EF555000EF655B4
:10220000CBE2B3DCC70EE66E010EE66EC90EE66EDB
:10221000010EE66E5FD844E90101CB91000E01D0BA
:10222000010E4DE9A8D299DA84E90B0E015C03E3B3
:1022300001501A0802E2000E10D001EBC6F10B0E9D
:10224000015C100DF350030926DB040EE66E6D0EE3
:102250008DDAE66A6D0E8ADA010E41E98CD27DDAFA
:1022600083E942E80A0EE66E00EBE6FFEFEC1AF0B7
:1022700041E9E750046E0A0EE66E00EBE6FFECEC77
:102280001AF041E9E750400DF350036E0450050881
:1022900002E2380E17D00450040802E2300E12D0C9
:1022A0000450030802E2280E0DD00450020802E296
:1022B000200E08D00450010802E2180E03D004508A
:1022C00002E0100E032603EBE6FF030E68DA010EB0
:1022D00043E951D242DA86E902EBE9FF03EBEAFF78
:1022E000EFCFC9F10228E96E000E0320EA6EEFCFAE
:1022F000CAF100EBE9FF01EBEAFFEFCFC7F10028DD
:10230000E96E000E0120EA6EEFCFC8F1C9C1E6FF09
:10231000070E2CDACAC1E6FF090E28DAC7C1E6FFAC
:10232000030E24DAC8C1E6FF050E20DA010E41E9EA
:1023300022D213DA85E941E800EBB2F101EBB3F107
:1023400002EBB4F1D6CFC5F101010B0EC66F0DDC67
:102350000101CB6B056A020E055C05E20550C8DA87
:10236000EF6A052AF8D7D9CFE9FFDACFEAFFEF50B5
:10237000040B0CE005DA76EC19F046E9040E0101D5
:10238000B627000EB723B823D5DA0CD00101B56B00
:10239000B66BB76BB86BCEDA0101010EB56FB66BD9
:1023A000B76BB86B010E42E9E6D1D8CFE4FFE0CFBE
:1023B000E4FFE46EE9CFE4FFEACFE4FFFBC1E4FF12
:1023C000FCC1E4FFFDC1E4FFFEC1E4FFF6CFE4FF82
:1023D000F7CFE4FFF5CFE4FFF3CFE4FFF4CFE4FF62
:1023E000FACFE4FF01EEF3F0080EE80403E3EECFCA
:1023F000E4FFFBD7E652B1D982E949E8F250100B6D
:1024000001E165D1F250020B01E161D1F292620E5D
:102410003DDA046E02DA010B14E00101CB910201F6
:10242000AC6BAD6B0101CBA30CD0480E2FDA066E5E
:10243000D950060F84DA010B02E00101CB850101BE
:10244000CB93EBD9080B01E1E0D00768026A020EDA
:10245000025C07E2E6D903E182EB07F002D0022A30
:10246000F6D7020E075C01E3CCD00101CBA783D0E5
:102470005E0E0CDA086E0101CB9708B27FD0060E13
:10248000026E010EB9D9096E09BC02D0020E0226F5
:10249000020EB2D9096E0C0E09140C0802E1080EE6
:1024A00001D0020E0226036A080E035C0BE2025002
:1024B0000201AA6B000F88D9B90FE96E010E6ADA22
:1024C000032AF2D7036A040E035C0BE202500201F6
:1024D000AA6B080F79D9C10FE96E010E5BDA032AE6
:1024E000F2D7026A0A0E025C1CE29FD90C0E62D976
:1024F000EF50800B14E0B90EE66E010EE66E95D932
:10250000040E58D9E9CFA7F2EACFA8F2E9CFE6FF47
:10251000EACFE6FFF1EC05F044E9000902E1022A06
:10252000E1D70A0E025C2CE25FD9EE500101C15DD9
:10253000EE50C259EE50C359EE50C4591FE3E8683B
:10254000C1190FE1E868C2190CE1E868C31909E193
:10255000E868C41906E148D9EE6AEE6AEE6AEE6AE6
:102560000FD042D9C1C1EEFFC2C1EEFFC3C1EEFF21
:10257000C4C1EEFF05D0CBA903D0CB99A0D93FD0E1
:10258000040EE66E730EF2D8E66A030EDED9020F71
:10259000E66E02D9E552E750EF6EFED8EFCFA7F214
:1025A000580E0201A75D28E20101CB8B010E026EDD
:1025B000F3D8EF50020FD88002541EE302500201FC
:1025C000AA6B000FA96F030EAA23A9C2E6FFAAC235
:1025D000E6FF77EC0DF042E9E66EDED8EE52E9CF89
:1025E000A7F2EACFA8F202040201EA6AE924E96E3E
:1025F000A851D0D9022ADCD7C0D9E66A730EB6D862
:1026000004D0BBD90101CB97CB9907D9100B5FE060
:102610000101CBA107D0CB89800EE66E590EA6D85A
:102620004ED954D0060E026E010EE6D80A6E0ABCD0
:1026300002D0020E0226020EDFD80A6E0C0E0A1419
:102640000C0802E1080E01D0020E0226036A0A0EEF
:102650000224035C07E203500201A86B010FEDD8CE
:10266000032AF5D702500201A86B0C0FE6D8036EBF
:10267000070EF66E000EF76E0800F550035C06E0DC
:10268000800EE66E590E72D80101CB890101CBB9DB
:102690001ED0026A100E025C10E20250E8D802500E
:1026A0000201A86BB00FA76F020EA823A7C2E6FF16
:1026B000A8C2E6FF5AD9022AEDD70101CB87E0D89C
:1026C000F550080DF3504009E66E590E4FD8F2A4AC
:1026D00009D0F2AA07D0F2940201AE2BAE5102E16A
:1026E0000201AF2BA7EC1AF04AE9E5CFDAFFE7CFFA
:1026F000D9FFE55201EEFAF0080EE80403E3E5CF56
:10270000EDFFFBD7E5CFFAFFE5CFF4FFE5CFF3FF11
:10271000E5CFF5FFE5CFF7FFE5CFF6FFE5CFFEF11B
:10272000E5CFFDF1E5CFFCF1E5CFFBF1E5CFEAFF29
:10273000E5CFE9FFE550E5CFE0FFE5CFD8FF10009A
:10274000AB5178EF14F00D500D2AE66EE66AB5EF46
:1027500014F0D950030F9FEF14F0D9CFE6FFDACF72
:10276000E6FFE1CFD9FFE2CFDAFF1200E66E44ECDC
:102770000DF042E91200E5CFDAFFE7CFD9FF1200F2
:10278000040EE66EE66AD4C1E6FFD5C1E6FFB50EDB
:10279000E66E010EE66E1200075078EF14F0E66E5A
:1027A000020EE66EB5EF14F0EE52E9CF79F2EACF01
:1027B0007AF21200E926000EEA221200EE52E9CF68
:1027C0007BF2EACF7CF21200A96F030EAA2303501A
:1027D000A925A76F000EAA21A86FA7C2E6FFB5D84A
:1027E000E66E0350EA6A12000250040DE2D8330E7E
:1027F000E926000EEA221200E66E030EA5EF14F0A1
:1028000087EC1CF0FBC1F3F1FCC1F4F1FDC1F5F163
:10281000FEC1F6F10101F3511200D950040F9FEFF0
:1028200014F0025065D8EF50120002500E0DC1D8BE
:10283000000EE926030EEA221200A76F030EA8235A
:10284000A7C2E6FFA8C2E6FF77EC0DF042E912004E
:1028500088D800EBE6FF85D88B8012000101EA6A78
:10286000B325E96EB451EA22EFCFE6FF1200F76A12
:102870002E0FF66E000EF7220800F5CFE6FF1200CD
:10288000060EF66E000EF76E08001200E66E5BECA8
:102890000DF041E91200E66EE66A020EE66EB5EF53
:1028A00014F00101EA6AF325E96EF451EA221200FC
:1028B000E96E000E0520EA6EEFCFE6FF1200010E72
:1028C000E66E1B0E12007FD8030E6FD86BD8040E75
:1028D000CFEF14F002017927000E7A23020130DFD6
:1028E000EF50120002017D6F02012ADFDEEF13F0CC
:1028F000590D5FD8000EE926010EEA22120063D8B6
:10290000070E53D84FD8080E4AD8090E12005BD8CC
:10291000E9CFF3F1EACFF4F1A0EF13F043D8050EBD
:1029200049DFEF50FF0812003DD8060E43DFEF509D
:10293000FF08120025DF8BEC19F046E91200E96E62
:10294000000EDA20EA6EEF501200E66E77EC0DF022
:1029500042E91200E66EF7DE0101C551C52BE66EB5
:102960001200C1EC1CF041E912000DEC0DF043E93E
:10297000120018D80D0EDAEF13F0A1DFB6EF13F046
:1029800011D8EF501200DFDEA9EF13F0EFCFE6FF12
:10299000A3EF13F0EA22E552E750EF6E12000ADFD0
:1029A000DEEF14F0CDDEEE52120004DFEFCF81F245
:1029B0001200F3CFE9FFF4CFEAFF1200EFCF82F26B
:0C29C000BFDED4EF13F00201D2EF14F0E0
:0429CC0020556E69BB
:1029D00063617374204661696C6564000D0A556E0D
:1029E0006963617374204661696C65640D0A003A1D
:1029F00020002066726F6D2000556E6963617374EC
:102A0000205061636B65742077697468205253535A
:102A100049200042726F6164636173742050616386
:102A20006B657420776974682052535349200053B2
:102A3000656375726564200020436F6E6E65637414
:102A40006564205065657220206F6E204368616E5A
:102A50006E656C20256400436F6E6E656374696EED
:102A600067205065657220206F6E204368616E6E2E
:102A7000656C2025642000206973206E6F742073BC
:102A80007570706F7274656420696E206375727200
:102A9000656E7420636F6E646974696F6E2E0D0AC3
:102AA000000D0A53656C656374696F6E206F662054
:102AB0006368616E6E656C20000D0A0D0A000D0AD8
:102AC0002020202020202020202020202020202006
:102AD0002020202020626520746F67676C65642069
:102AE00075706F6E20726563656976696E67206DBB
:102AF000657373616765732E20000D0A2020202006
:102B000020202020202020202020202020202020C5
:102B1000203220746F20756E696361737420656E56
:102B200063727970746564206D6573736167652E77
:102B3000204C454420322077696C6C000D0A20201F
:102B40002020202020202020202020202020202085
:102B5000202020427574746F6E203120746F2062C3
:102B6000726F616463617374206D6573736167650F
:102B70002E205075736820427574746F6E000D0AB4
:102B80002020202020202020202020202020202045
:102B90002020202020746F20696E64696361746551
:102BA00020636F6E6E656374696E67207769746801
:102BB00020706565722E2050757368000D0A202004
:102BC0002020202020202020202020202020202005
:102BD000202020506F776572206F6E20746865200A
:102BE000626F61726420756E74696C204C4544207C
:102BF00031206C6967687473207570000D0A20209D
:102C00002044656D6F20496E737472756374696FCB
:102C10006E3A000D0A202020202052462054726176
:102C20006E736365697665723A204D524632344A56
:102C30003430000D0A2020202020202020202020B9
:102C40002020204C454420323A20524131000D0AC8
:102C500020202020202020202020202020204C4523
:102C60004420313A20524130000D0A2020202020FB
:102C70002020202020202020202020202020202054
:102C8000525332333220706F7274000D0A4F7574D4
:102C900070757420436F6E66696775726174696FD1
:102CA0006E3A000D0A202020202020202020202005
:102CB000427574746F6E20323A20524234000D0A0D
:102CC0002020202020202020202020427574746F96
:102CD0006E20313A20524235000D0A496E707574EB
:102CE00020436F6E66696775726174696F6E3A0032
:102CF0000D0A5374617274696E67204E6F646520AB
:102D000032206F662053696D706C652044656D6F6D
:102D100020666F72204D69576928544D29205374DD
:102D200061636B202E2E2E0053696D706C65204DF3
:102D30006957692044656D6F4D524632344A3430CC
:102D4000204E6F64652032000D0A5363616E20438C
:102D500068616E6E656C200053686F7274416464C4
:102D6000723A002050414E49443A004368616E6E09
:102D7000656C3A002020000D0A417661696C616241
:102D80006C65206E6F6465730D0A48616E646C65D6
:102D90002052582044432050414E4944204144444D
:102DA00052204C4F4E475F41444452202020202067
:102DB000202020504545525F494E464F0D0A0020C5
:102DC000204368616E6E656C3A2000202050414EB1
:102DD00049443A2000202053686F72742041646493
:102DE000723A20000D0A0D0A416464726573733AE9
:102DF000203078000D0A4A6F696E20746865206E75
:102E00006574776F726B2073756363657373667532
:062E10006C6C790D0A0054
:0A2E1600D9CFE6FFDACFE6FFE1CFE7
:102E2000D9FFE2CFDAFF82E946E8036A046A056A5D
:102E3000066A2FEC1AF05FEC1BF0010EE66EE66AF4
:102E4000280EE66E2D0E66D9F00EE66E2C0E38D9E1
:102E5000D90EE66E2C0E34D9BE0EE66E2C0E30D98D
:102E6000A30EE66E2C0E2CD98B0EE66E2C0E28D9F6
:102E7000690EE66E2C0E24D94E0EE66E2C0E20D96D
:102E8000330EE66E2C0E1CD9130EE66E2C0E18D9DE
:102E9000FC0EE66E2B0E14D9BC0EE66E2B0E10D96E
:102EA0007E0EE66E2B0E0CD93C0EE66E2B0E08D96C
:102EB000FA0EE66E2A0E04D9BE0EE66E2A0E00D970
:102EC000B90EE66E2A0EFCD889908992E66A11EC5A
:102ED00006F041E9B1C2E6FFB4EC06F041E90009B1
:102EE0000EE1A10EE66E2A0EEBD8B1C2E6FF9EEC13
:102EF0001BF041E9770EE66E2A0EE2D8DBD0E66AD7
:102F0000C9EC06F041E9E66AB1C2E6FF570EE66E8B
:102F10002A0E00D9E66AE66877EC07F042E9026E0D
:102F2000FF0E025CF7E0010EE66EB1C2E6FF380E5E
:102F3000E66E2A0EEFD8E66824EC04F041E98980B9
:102F400080EC08F0000955E0020101A704D02F0E23
:102F5000E66E2A0EB5D802010151030B000904E008
:102F6000130EE66E2A0E03D0F90EE66E290EA8D8CF
:102F700009C2E6FF8CEC1BF041E9020101AD1ED055
:102F8000F20EE66E290E9CD8020101AF0CD0010EA4
:102F9000A4D804C2E9FF05C2EAFFEFCFE6FF8CEC3C
:102FA0001BF041E90BD0026A080E025C07E2070E33
:102FB000D8800254020191D8022AF6D7EF0EE66EAD
:102FC000290E7ED8026A02010851025C0DE202500D
:102FD000EA6A0625E96E0751EA22EFCFE6FF7EECAA
:102FE0001BF041E9022AEFD7897288EC08F0062A23
:102FF00059D051EC1AF0076E0750020A24E0030A78
:103000009FE102010B0E556F73D8000902E198D8B9
:1030100011D0026A150E025C0DE26AD8FF0F150D81
:10302000F3CFF3F1F4CFF4F1BC0E0101F327370E27
:1030300076D8F0D7032AE66A8CEC08F041E906EB73
:10304000E6FF052A31D002010B0E556F5AD8000950
:1030500002E176D811D0026A0B0E025C0DE251D863
:10306000FF0F0B0DF3CFF3F1F4CFF4F1250E0101B7
:10307000F327380E54D8F0D7042A010EE66EE66A1C
:10308000A1EC08F042E900090CE1DC0EE66E290E25
:1030900017D8010EE66EE66ACC0EE66E290E3AD817
:1030A00001D0052A06EBE6FF05EBE6FF49EC1AF036
:1030B00042E946D747E9E5CFDAFFE7CFD9FF12006B
:1030C000E66E68EC1BF042E912005551552BEA6A96
:1030D000000FE96E000EEA221200EA6A0425E96E8A
:1030E0000551EA22EFCFE6FF8CEC1BF041E912001C
:1030F000060EE66E03EBE6FFEFEC1AF041E9E7504F
:103100001200060EE66E04EBE6FFEFEC1AF041E962
:10311000E7501200E66E4DEC1AF044E91200F42379
:103120000250F76AF325F66EF451F7220800F550C5
:10313000E66E0201CADFE552E750EF6E022A120086
:103140000201C3DF0D0EEF6EC0DF0A0EEF6E12003C
:10315000D9CFE6FFDACFE6FFE1CFD9FFE2CFDAFF42
:1031600086E944E801D056D000EBE6FF01EBE6FF2C
:1031700002EBE6FF03EBE6FF280EE66EE66AE66A80
:10318000E66A0EEC1BF0E552E5CFF6F1E5CFF5F17E
:10319000E5CFF4F1E7CFF3F10101F351066EF451FD
:1031A000076EF551086EF651096ED950060FE96E9B
:1031B000000EDA20EA6EAF0EEE5E000EEE5A000E42
:1031C000EE5A000EEE5A093408E206502D08000EA1
:1031D0000754000E0854000E095401E31BD00934B3
:1031E00008E206500008000E0754000E0854000EB6
:1031F000095410E20000D950060FE96E000EDA20E3
:10320000EA6E2A0EEE5E000EEE5A000EEE5A000E28
:10321000EE5AE5D745E9E5CFDAFFE7CFD9FF12004F
:10322000D9CFE6FFDACFE6FFE1CFD9FFE2CFDAFF71
:1032300084E944E800EBE6FF01EBE6FFE66AE66AB4
:10324000A00EE66E0F0EE66EE66AE66A0EEC1BF066
:10325000E552E5CFF6F1E5CFF5F1E5CFF4F1E7CFB3
:10326000F3F10101F351046EF451056EF551066E50
:10327000F651076ED950040FE96E000EDA20EA6E9F
:10328000AA0EEE5E000EEE5A000EEE5A000EEE5A38
:10329000073408E20450C308000E0554000E06541B
:1032A000000E075402E31CD01BD0073408E2045080
:1032B0000008000E0554000E0654000E075410E2DC
:1032C0000000D950040FE96E000EDA20EA6E270ED6
:1032D000EE5E000EEE5A000EEE5A000EEE5AE5D7E4
:0C32E00045E9E5CFDAFFE7CFD9FF120087
:0432EC0095D888E900
:1032F000005001100EE09ED8A69EA69CA68038EC39
:1033000000F0A1D8A8CFEFFF0006015A022A03223D
:10331000EFD741E98AD080D888E941E80050011010
:1033200020E088D890D8EF50A86EA69EA69CA684D0
:10333000F250800B01E0010E086EF29E550EA76E52
:10334000AA0EA76EA6820850E8B0F28EE8A0F29E00
:10335000A6B2FED7A6940006000E015A022A032246
:10336000DDD742E962D058D886E9DA0EE96E010E5F
:10337000EA6E0101EE500224F36FED500320F46F6A
:10338000F3510008040EF45502E2000E0ED000EBDB
:10339000E9FF01EBEAFFDAC1EEFFDBC1EDFF01015E
:1033A0000250DA270350DB23010E41E93ED034D826
:1033B00082E941E8010E026E0101DA6BDB6BCC0E93
:1033C000E66E010EE66E020E21D8CE0EE66E010EFE
:1033D00042D8D00EE66E010E3ED8D20EE66E010E39
:1033E000E66E8C0E13D8D40EE66E010EE66E040E59
:1033F0000DD8D60EE66E010EE66E020E07D8D80E78
:10340000E66E010E28D8025042E90FD0E66EE66A59
:10341000AADF44E902161200D9CFE6FFDACFE6FFB1
:10342000E1CFD9FFE2CFDAFF1200E5CFDAFFE7CF35
:10343000D9FF1200010103EBF3F1F46BF3C1AAFF12
:1034400002EBA9FF120004EBE9FF05EBEAFF042AF7
:0E345000000E05221200E66E010E06EF1AF0C5
:02345E00D1900B
:10346000F26AF16AF06A9368FD0E8B6ED00E946E6C
:10347000C00EC76E200EC66E0F0EC16E040E896E92
:10348000F80E926E8B809490F292D08EF19CF28E18
:1034900012007BD884E941E98ED077D886E941E9EA
:1034A0008AD073D882E948E881BA06D000015B511E
:1034B0004BE174D8010E49D081B806D000015B51B0
:1034C00043E16CD8020E41D087EC1CF0FBC1F3F154
:1034D000FCC1F4F1FDC1F5F1FEC1F6F10101F351BA
:1034E000066EF451076EF551086EF651096ED9500B
:1034F000060FE96E000EDA20EA6E00015C51EE5C08
:103500000101F36F00015D51EE580101F46F0001FC
:103510005E51EE580101F56F00015F51EE58010157
:10352000F66FF351026EF451036EF551046EF651CD
:10353000056E0250FF083F0E0354000E0454000EA7
:10354000055402E200015B6B000E49E934D0F250F1
:10355000100B04E0F250020B01E0F292F050100B5D
:1035600004E0F050020B01E0F092F250080B04E08E
:10357000F250010B01E0F290A050020B05E0A150C7
:10358000020B02E0A19289701200D9CFE6FFDACFD8
:10359000E6FFE1CFD9FFE2CFDAFF1200010E5B6F49
:1035A00087EC1CF0FBC15CF0FCC15DF0FDC15EF07E
:1035B000FEC15FF01200E5CFDAFFE7CFD9FF1200BE
:1035C00042E8D9CFE6FFDACFE6FFE1CFD9FFE2CF7D
:1035D000DAFF86E9036A1200F3DF038003D0F0DF2D
:1035E00001D00382026A080EE76ED89001360236D7
:1035F0000050025C02E3026E012AE72EF7D703B205
:10360000120003B081EB00F003A082EB00F0E55262
:10361000E5CFDAFFE7CFD9FF43E9120044E8D9CF7D
:10362000E6FFDACFE6FFE1CFD9FFE2CFDAFF8EE99E
:1036300080EB08F081EB09F082EB0AF083EB0BF0F2
:1036400004500802F350006EF450016E0450090259
:10365000F3500126000EF420026E04500A02F350CB
:103660000226000EF420036E04500B02F3500326D2
:1036700005500802F3500126F4500222000E0322E6
:1036800005500902F3500226F450032205500A02A5
:10369000F350032606500802F3500226F45003228A
:1036A00006500902F350032607500802F350032680
:0E36B000E552E5CFDAFFE7CFD9FF48E9000C7D
:0236BE00948EE8
:1036C000949C240EAC6E900EAB6E330EAF6E120057
:1036D00061D884E941E800EBF6FF01EBF7FF002A2F
:1036E000000E01220800F550046E045005E004EBC2
:1036F000E6FF04D841E9EFD742E955D04BD883E93A
:10370000ACA2FED700EBADFF41E94DD0ABA202D099
:10371000AB98AB88AE5012003DD883E941E880EB0E
:1037200003F000380F0B0F0B006E005028D80F0E5F
:103730000314006E005023D842E935D02BD883E91A
:10374000640E005C05E3640EE66E00EBE6FF30D825
:103750000A0E005C09E30A0EE66E640EE66E00EBEC
:10376000E6FFEFEC1AF024D80A0EE66E00EBE6FF57
:10377000EFEC1AF041E9E75002D841E914D0F76ABA
:103780001E0FF66E000EF7220800F5CFE6FFB6DF3B
:1037900041E91200D9CFE6FFDACFE6FFE1CFD9FF4A
:1037A000E2CFDAFF1200E5CFDAFFE7CFD9FF120050
:0C37B000ECEC1AF041E9E750BFEF1BF011
:0437BC0020B22020F7
:1037C00020B22020B220B22020202020B220B20D32
:1037D0000AB220B220B220B2202020B22020B22093
:1037E00020B220200D0AB22020B22020B220B22028
:1037F000B22020B22020B220B20D0AB22020B22086
:1038000020B220B22020B220B220B22020B20D0A75
:10381000B22020B22020B220B2202020B220B2203C
:103820002020B20D0AB2B2B22020B2B2B2B20D0A5A
:10383000B22020B220B22020200D0AB22020B220D7
:10384000B2B2B2B20D0AB22020B220B22020200DB6
:0C3850000AB2B2B22020B2B2B2B20D0A2D
:04385C003E0EF66EB8
:10386000000EF76E000EF86E01010900F550EE6FC4
:103870000900F550EF6F03E1EE6701D03DD009007C
:10388000F550E96F0900F550EA6F0900F550EB6F4C
:1038900009000900F550E96E0900F550EA6E0900CB
:1038A00009000900F550EC6F0900F550ED6F0900B3
:1038B0000900F6CFF0F1F7CFF1F1F8CFF2F1E9C15D
:1038C000F6FFEAC1F7FFEBC1F8FF0101EC5302E19B
:1038D000ED5307E00900F550EE6EEC07F8E2ED0756
:1038E000F9D7F0C1F6FFF1C1F7FFF2C1F8FF01010E
:0A38F000EE07000EEF5BBFD71200D9
:0638FA00050ED56EF184FD
:10390000F294F28AD58E0201AE6BAF6B1200D9CF62
:10391000E6FFDACFE6FFE1CFD9FFE2CFDAFF82E9B7
:1039200046E8046A056AF29AF250040B01E0010EBF
:10393000066ED650026ED750036EF250040B01E0B3
:10394000010E076E0750065CEFE1065006E0F294A8
:103950000201AE2BAE5101E1AF2B0201AE510426A4
:10396000AF510526F28A02EBFBF103EBFCF104EB0D
:10397000FDF105EBFEF147E9E5CFDAFFE7CFD9FF2F
:02398000120033
:0E398200D9CFE6FFDACFE6FFE1CFD9FFE2CFE3
:10399000DAFF83E941E89E96C950036EC69E00EBAC
:1039A000C9FFC6BEFBD79EA6FED742E9E5CFDAFF28
:1039B000E7CFD9FF1200E66AE4DF41E9C9501200FF
:1039C00078000000B40000002C0100001C02000080
:1039D000FC030000BC0700003C0F00003C1E000080
:1039E0003C3C00003C7800003CF000003CE0010062
:0C39F0003CC003003C8007003C000F00BE
:0439FC00800EF36ED8
:103A000000EE00F00F0E01D81200EA6002D0EE6A5C
:0C3A1000FCD7F350E9601200EE6AFCD70E
:043A1C001EEE00F0AA
:103A20002EEE00F0F86A2EEC1CF007EC00F00BEC28
:063A300017F0FBD71200A5
:0A3A360002776655443322110000A8
:033A400004FF0080
:020000040030CA
:0100010006F8
:010002001FDE
:0100030016E6
:01000500807A
:01000600C138
:00000001FF
