:020000040000FA
:0600000098EF28F0120049
:020006001200E6
:060008006CEF12F0120083
:02000E000001EF
:06001000020304050607CF
:020016001200D6
:060018006CEF12F0120073
:02001E000500DB
:100020007B5100002B02000002000000795100000B
:1000300029020000020000007551000025020000A6
:100040000400000074510000FF00000001000000E7
:0C0050006B5100001802000009000000C5
:04005C00000012008E
:100060007DEC0DF049E800EBE6FFD6CFE6FF05ECAE
:1000700023F041E9E750026E025027E0020625EC2A
:100080000BF0036E0151046E0251056E0351066EB2
:1000900025EC0BF0076E0151086E0251096E0351F9
:1000A0000A6E07EB04F208EB05F209EB06F20AEB25
:1000B00007F2D950030F53EC0BF0D8803E0E0055D9
:1000C000000E89EC0DF0E4E2D7D74AE9E7CFD9FF7B
:1000D000120073EC0BF081E955E835EC11F00009E2
:1000E00001E1FED20001ADB577D3616BC951040BBC
:1000F00001E0010E030BF36EFC0E6115F310616F4E
:10010000C9516197080B01E06187C951030B0108D0
:1001100002E1010E01D0000E619BE8B0618BC95174
:10012000619D800B01E0618DC9AF05D0618FCAC0B0
:1001300064F0CBC065F0D0C06AF0CFC069F0AD9577
:10014000C951030B010A01E13ED2020A01E19BD130
:10015000030A01E0C0D2016A050E015C0AE275ECF7
:100160000DF0EF50000803E275EC0DF0EF06012AE8
:10017000F3D70001CE5169E00A0ECE5D01E2ABD2A9
:10018000020E0FEC0DF00A6E030E0FEC0DF00B6E6D
:10019000040E0FEC0DF0106E050E0FEC0DF0116E4D
:1001A000060E0FEC0DF00C6E070E0FEC0DF00D6E41
:1001B000080E0FEC0DF00E6E090E0FEC0DF00F6E29
:1001C000C9516197080B01E061876151030B000978
:1001D00006E11050FC08FF0E115401E374D09D514C
:1001E0000E180AE19E510F1807E19F510C1804E107
:1001F000A0510D1801E16FD2101C01E06CD2111C4E
:1002000001E069D2016A050E015C1BE275EC0DF09C
:10021000EF5015E06DEC0BF00E50EE1810E10F50A2
:10022000ED180DE16DEC0BF0C6EC0BF0EFCF00F22A
:100230000A0E00010FEC0DF00201005D02E0012A40
:10024000E2D7050E015C03E20001AD9B44D2016AD6
:10025000050E015C06E275EC0DF0EF5002E0012A9C
:10026000F7D7050E015C14E26DEC0BF00EEBEEFF20
:100270000FEBEDFF0A0EE2EC0DF06DEC0BF0C6ECAF
:100280000BF0E552E750EF6E75EC0DF0030EEF6EDC
:10029000101C06E1111C04E100016181619348D04A
:1002A000FE0E101806E1FF0E111803E10001618136
:1002B00008D0FD0E10183CE1FF0E111839E10001C5
:1002C0006191618335D09F510A1801E004D2A05199
:1002D0000B1801E000D29D51101801E0FCD19E5195
:1002E000111801E0F8D1010E0FEC0DF0040B20E025
:1002F00095EC0CF00CEB02F00DEB03F00EEB04F0C0
:100300000FEB05F0B3EC0BF00A0E000148EC0BF01C
:10031000EFCF0AF000010B6B300E0C6F00010D0ED9
:100320009C6FC66BC68BA1515DEC0DF00001618521
:100330000B0E00010FEC0DF001E07AD00C0E0FEC6B
:100340000DF0300864E00C0E0FEC0DF0420A5DE099
:10035000530A01E0C0D1126A040E125C0BE20B0ECC
:100360001224020F0FEC0DF0E66E1250D6EC0BF0DB
:10037000122AF2D78D0EAE6F110E0FEC0DF0800B1E
:1003800001E0AE91110E48EC0BF0EFCFA6F0120E8B
:1003900048EC0BF0DFEC0CF079DB0001BA6FFF0EDC
:1003A000BA5D08E0BA5109EC0DF0EFCFAEF0AE85C2
:1003B000AE8704D08D0EAE6FA6BFAE91BADB000142
:1003C000BA6FFF0EBA5D1EE2126A010E125C0CE2F9
:1003D000130E1224E2EC0DF0BA51DEEC0DF01250C7
:1003E00021EC0DF0122AF1D70A0EE66EE66A000142
:1003F000BA5134EC0CF00001BA510DEC0CF00001D4
:10040000B98101D0B991B99366D1AD9D64D10A0E7D
:100410000FEC0DF002011E5D08E10001AA510E185B
:1004200004E1AB510F1801E1AD970E50800853D194
:10043000AD9B0B0ECE5D686F0B0ECC25666F000E6C
:10044000CD21676F0CEB62F00DEB63F0080E0FEC43
:100450000DF0FF080AE1090E0FEC0DF0FF0805E1B1
:10046000CAC064F0CBC065F007D0618F080ECC2500
:10047000646F000ECD21656F618D6851000801E346
:100480002AD1AD8528D1040E136E13240FEC0DF084
:100490005D0807E0040E13240FEC0DF04D0801E099
:1004A0001AD1ADA118D1CCC0E9FFCDC0EAFFEFCF82
:1004B000A8F0010E48EC0BF0EFCFA9F0020E48ECCB
:1004C0000BF0EFCFA6F0030E48EC0BF0EFCFA7F048
:1004D00013500FEC0DF0FF0801E0FDD013280FECD6
:1004E0000DF0146E040E6B5D01E3F5D043EC0CF0DF
:1004F000E6EC0CF001E2EFD02DEC0EF01CC2EFFFA9
:100500002DEC0EF0070EECEC0DF069C0EFFF2DECBA
:100510000EF06BEC0BF06AC0EFFF6B51C3EC0DF00B
:10052000A8C0EEFFA9C0EDFF1DEC0DF0EF6A1DECB9
:100530000DF0EF8C43EC0CF0060BE8420201006F6B
:1005400000011DEC0DF002010051030BF36EFC0ED7
:10055000EF14F310EF6E43EC0CF0080B04E0000115
:100560001DEC0DF0EF8643EC0CF0E6EC0CF004E330
:1005700000011DEC0DF0EF8A016A040E015C0FE230
:1005800001500001EA6A6425E96E6551EA22EF50E4
:10059000E66E6B5199EC0DF01EEC0EF0EED7016A91
:1005A000010E015C0DE2060E13240124E2EC0DF0B5
:1005B0002DEC0EF00A0E84EC0BF01EEC0EF0F0D7D2
:1005C00000016B2B88D0CCC0E9FFCDC0EAFFEF5013
:1005D000030A59E0010A01E07ED0030E0FEC0DF092
:1005E00048E1010E48EC0BF0EFCF9DF0020E48EC15
:1005F0000BF0EFCF9EF09CEC0BF00001AD83BF0E33
:10060000AE6F016A040E015C03E251EC0DF0FAD703
:10061000A66B050E48EC0BF0DFEC0CF08ADA00015B
:10062000A16FA151DCEC0BF0016A010E015C0AE242
:10063000040E0124E2EC0DF0A151DEEC0DF01EECF5
:100640000EF0F3D7E6EC0DF063EC0DF070EC0BF070
:100650000A0EE66EE66A0001A15134EC0CF00001CE
:10066000A1510DEC0CF0FE0EE66E3F0EC8EC0BF047
:1006700032D0A1699F69A0694EEC0CF070EC0BF0D0
:1006800091EC0BF026D0ADA326D0016A040E015CDC
:1006900003E251EC0DF0FAD71DDA156EFF0E155C72
:1006A0001AE01550CDEC0DF0200B15E0016A0A0E92
:1006B000015C05E20150F7EC0DF0012AF8D76BEC74
:1006C0000DF070EC0BF063EC0DF0E6EC0DF0A8EC27
:1006D0000BF031EC0DF00001ADB502D043EC12F09F
:1006E00025EC0BF0026E0151036E0251046E0351B2
:1006F000056E0001ADA320D0ADAB1ED09BEC0CF07D
:100700009851EE5C0201006F00019951EE58020110
:10071000016F00019A51EE580201026F00019B51D6
:100720005CEC0CF0FF083F0E0754000E0854000E5E
:10073000095402E20001AD9B0001B0A32AD09BEC5A
:100740000CF0B551EE5C0201006F0001B651EE589D
:100750000201016F0001B751EE580201026F000162
:10076000B851EE580201036FD880480E0055E80ECC
:100770000155010E0255000E03550BE20001B05168
:10078000F80BE842E842E842E66E91EC0CF000011A
:10079000B06B0001B9A320D0B9B11ED09BEC0CF016
:1007A000C251EE5C0201006F0001C351EE5802011C
:1007B000016F0001C451EE580201026F0001C551E2
:1007C0005CEC0CF06C08DC0E0754020E0854000EB2
:1007D000095402E20001B99356E9E7CFD9FF1200AC
:1007E00073EC0BF084E90001C66B0050030BF36E51
:1007F000FC0EC615F310C66F0150021001E1C6854C
:10080000C651040B02E0000E01D0010EC69BE8B0F9
:10081000C68BC68F01EBC7F002EBC8F0CDEC0BF036
:1008200073EF0CF08FEC0DF0016A0A0E015C08E228
:10083000015036EC0EF002E1015003D0012AF5D749
:10084000FF0E4AEF0CF07DEC0DF042E8FF0E005C6D
:1008500028E1EE0EE66E3F0EC8EC0BF0026A040EC5
:10086000025C0CE2030ED8800254EA6A180FE96EAB
:10087000020EEA22BCEC0BF0022AF1D7DF0EE66E84
:100880003F0EC8EC0BF077EC0CF0D50EE66E3F0E89
:10089000C8EC0BF07EEC0CF0C90EE66E3F0EC6EC19
:1008A0000DF0810EE66E3F0EC8EC0BF0FF0E005C03
:1008B00062E1026A0A0E025C01E3AED0025036EC3D
:1008C0000EF057E002EBE6FF95EC0DF00CEC0DF0AE
:1008D0000CEC0DF03DEC0EF00250CDEC0DF0010BE8
:1008E00002E0590E01D04E0ED0EC0DF00250CDECCE
:1008F0000DF0020B02E0590E01D04E0ED0EC0DF0BF
:100900000250CDEC0DF0080B0FE0025066EC0DF03C
:10091000BCEC0BF0025001EC0EF0025005EC0EF0B6
:1009200002500AEC0EF002D030EC0EF041E93DEC42
:100930000EF00250CDEC0DF0040B08E0036A040E3B
:10094000035C04E202504AEC0DF0F9D73DEC0EF0E6
:10095000036A040E035C03E2ABEC0DF0FAD7036A02
:10096000010E035C04E2025060EC0DF0F9D7B1EC2B
:100970000DF0022A9FD7005036EC0EF04DE000EB50
:10098000E6FF95EC0DF00CEC0DF0200E39EC0EF0BE
:10099000010B02E0590E01D04E0E39EC0EF0020BA5
:1009A00002E0590E01D04E0E39EC0EF0080B0FE0AC
:1009B000005066EC0DF0BCEC0BF0005001EC0EF0BA
:1009C000005005EC0EF000500AEC0EF002D030ECB6
:1009D0000EF041E93DEC0EF00050CDEC0DF0040BB3
:1009E00008E0036A040E035C04E200504AEC0DF0D8
:1009F000F9D73DEC0EF0036A040E035C03E2ABECA6
:100A00000DF0FAD7036A010E035C04E2005060ECBB
:100A10000DF0F9D7B1EC0DF0F6EF0CF08FEC0DF016
:100A20000001B9910FEC27F0BBCEC2F0BCCEC3F0F1
:100A3000BDCEC4F0BECEC5F00001A66BA76BA0EC86
:100A40000DF0100EEF6E016A040E015C09E2015018
:100A5000EA6A180FE96E020E45EC0DF0012AF4D790
:100A6000016A010E015C05E201500FEC0EF0012A53
:100A7000F8D7E66AE66AA60EE66E000EE66E55EC5C
:100A800009F044E90001B9834AEF0CF08FEC0DF056
:100A9000016A0A0E015C1BE2015036EC0EF015E013
:100AA0000150CDEC0DF0080B10E0FAEC0DF0FAEC73
:100AB0000CF00001A6510201001907E10001A75145
:100AC0000201011902E1015003D0012AE2D7FF0E11
:100AD0004AEF0CF073EC0BF081E942E8016A0A0E70
:100AE000015C24E2015036EC0EF01EE00150CDEC2A
:100AF0000DF0040B19E0026A040E025C13E2A6EC8E
:100B00000DF0EACF02F202500201EA6AE924E96E2E
:100B10000251EA22EFCF00F2AFEC0CF0005D04E1ED
:100B2000022AEAD7015003D0012AD9D7FF0EF6EFE7
:100B30000CF073EC0BF081E942E801680001AEA50E
:100B400002D0C8DF03D0AEA702D0A0DF016EFF0E37
:100B5000015C02E167DE016EFF0E015C2BE00150DB
:100B600009EC0DF0AEC0EFFF0001AEA510D0026A97
:100B7000040E025C0CE2AFEC0CF0E66EA6EC0DF09D
:100B8000EACF01F2025021EC0DF0022AF1D7000168
:100B9000AEA706D0FAEC0DF0A6C0EEFFA7C0EDFFA1
:100BA00001501EEC0BF0A8C0EEFFA9C0EDFF0150F4
:100BB000DCEC0BF00150F6EF0CF073EC0BF085E978
:100BC00041E8056A040E055C14E2055002248CEC31
:100BD0000CF0EFCF00F205500024E96E000E01206A
:100BE000EA6EEF500201005D02E0000E03D0052A1C
:100BF000E9D7010E4AEF0CF08FEC0DF000019C518B
:100C0000016E9C6B63EC0BF0040EEF6E63EC0BF06B
:100C10009DC0EFFF63EC0BF09EC0EFFF010EE66E90
:100C2000040EE66E010EE66EDBDD43E9000910E01E
:100C30000001AD8B0FEC27F0BBCE98F0BCCE99F045
:100C4000BDCE9AF0BECE9BF001EB9CF0010E03D01E
:100C500001EB9CF0000E4AEF0CF07DEC0DF044E847
:100C60009DEC22F000019D699E69340E9F6F120E6B
:100C7000A06F056A0A0E055C05E20550F7EC0DF061
:100C8000052AF8D70001AD6BAF6BB96B606B05EC53
:100C900027F000019C6B056A050E055C08E2055013
:100CA000F0EC0DF071EC0CF0EF6A052AF5D7056A4F
:100CB0000A0E055C05E20550DCEC0BF0052AF8D7BE
:100CC000005048E0F5EC0BF0A7EC0CF0200E020110
:100CD0001C5D09E278EC0BF0A7EC0CF000019D1D07
:100CE00004E19E1D02E1000E6BD091EC0BF0E66E6C
:100CF000A7EC0CF001EC0CF0A7EC0CF0E7EC0BF01F
:100D0000A8EC0BF0E66EA7EC0CF078EC0BF0A7EC7F
:100D10000CF0D3EC0DF0E66EA7EC0CF0750EE66E61
:100D20003F0EC6EC0DF06D0EE66E3F0EC8EC0BF0FC
:100D30007EEC0CF0620EE66E3F0EC8EC0BF077EC2A
:100D40000CF01CC2E6FF91EC0CF09CEC0BF00001E7
:100D5000AD8310D0E6EC0DF0F5EC0BF0FDEC0DF0F2
:100D600001EC0CF0FDEC0DF022EC0EF063EC0DF05C
:100D700070EC0BF0026A02960298028A029C0282D0
:100D800000500294E8B00284180E036E020E046E46
:100D900002EBE6FF03EBE6FF04EBE6FFD4EC0FF01B
:100DA00043E99CEC0BF01CC2E6FF91EC0CF0000157
:100DB0006087E7EC0BF0D6CFACF0F094F08A010E30
:100DC00045E9E7CFD9FF12007DEC0DF041E8005076
:100DD000020A19E0030A10E0010A2AE10001AFA7A4
:100DE00004D022EC0EF00001AF97E66AFFEC0CF0A5
:100DF0000EE00001AD8F1AD0E668FFEC0CF007E0C2
:100E00000001AD9F13D0E668FFEC0CF002E1010E8B
:100E100010D00001AD9FF0DE000902E1020E09D002
:100E20000001ADAB03D069EC00F0FAD7000E01D0A1
:100E3000FF0E4AEF0CF07DEC0DF0E66A00EBE6FFEA
:100E40009DEC0FF042E9000908E000EB1CF2F5EC24
:100E50000BF0FDEC0DF0010E01D0000E73EF0CF065
:100E60007DEC0DF00050030809E300EB1DF2E7EC08
:100E70000BF001EC0CF029EC22F046E973EF0CF0DA
:100E800073EC0BF086E94EE8010E076E086A096AFA
:100E90000A6A02011C510B6E066A040E065C05E22A
:100EA0000650E0DBEF68062AF8D700016B6BAD81D6
:100EB000066A200E065C5CE207EB00F208EB01F22A
:100EC00009EB02F20AEB03F206501F0B04E00201E9
:100ED00085EC0CF0FDE11DEC0CF048E0520EE66EE6
:100EE0003F0EC8EC0BF006EBE6FF2DEC26F041E9D7
:100EF00006EBE6FF91EC0CF0C9EC0DF0070EEF6E7F
:100F0000E2DB1CC2EFFF010EE66E000EE66EE66A43
:100F100067DC43E99ADBB7EC0CF0ABEC0CF001E0DA
:100F200026D993DBBFEC0CF010EB04F211EB05F2C9
:100F300012EB06F213EB07F2D9500C0FB4DB04509E
:100F4000040DF3CFF6FFF4CFF7FF940EF626500E04
:100F5000F72200510900F55C01510900F5580251D2
:100F60000900F55803510900F558D7E2062AA1D720
:100F70000BEBE6FF91EC0CF00001AD916B514FE9EA
:100F8000E7CFD9FF1200AFDB83E94AE8030E036E17
:100F900000041CE15ADBC7EC0CF040DD0001B9A3F2
:100FA00011D0ABEC0CF001E0E2D823EC0DF0F6E24E
:100FB00023DE89EB05F08AEB06F08BEB07F08CEB78
:100FC00008F0ECD7B9A1C2D0BA51C5D0005001E0A9
:100FD000C1D0FF0E015C20E10201010E006F016B28
:100FE000026B036B02011C511F0B04E0020185EC34
:100FF0000CF0FDE100C2E6FF01C2E6FF02C2E6FF1F
:1010000003C2E6FF0A0EE66E3BDF45E9000903E195
:101010000306E2E19BD0016A0150C3EC0DF0EECF74
:10102000A8F0EDCFA9F0046A040E045C0BE20150B5
:1010300099EC0DF004506EDBEF50E66E0450B6DB19
:10104000042AF2D747DD0001A16FFF0EA15D07E181
:1010500012EC04F00001A16FFF0801E177D0A1516B
:10106000F7EC0DF00150C3EC0DF0FAEC0CF0A151CF
:10107000E5DA00C2EEFF01C2EDFF046A040E045C73
:1010800009E20150EFDAEE5234EC0DF0040E15ECEB
:101090000EF0F4D70001A15109EC0DF0EF84046AC1
:1010A000010E045C0BE20150DDDA0A0EECEC0DF0EF
:1010B00034EC0DF0090E15EC0EF0F2D70001A15141
:1010C00009EC0DF0EF82A15109EC0DF0EF8AA1516E
:1010D00009EC0DF0EF800150C5DAEFCFE6FF91EC9F
:1010E0000CF00001A151AADAEECF9FF0EDCFA0F0F5
:1010F000D5DBC9EC0DF0010EEF6EE5DA60C0EFFF55
:10110000046A010E045C05E204500FEC0EF0042AA0
:10111000F8D7010EE66EA15191DA040EF5DAE9CFA7
:10112000E6FFEACFE6FFF0EC03F043E98EDAC7EC26
:101130000CF00001A151CDEC0DF0100B09E1ABEC6E
:101140000CF001E014D823EC0DF0F3E2FF0E03D015
:10115000A15101D0FF0E4BE9E7CFD9FF120069EC96
:1011600000F00001AD51040B01E0010E120000017E
:10117000AD9543EF12F07DEC0DF000EBE6FF010EB4
:10118000E66E02D842E9AFD3AEDA83E9CEDB9FC088
:1011900002F0A0C003F00150020A0AE0010A06E0D2
:1011A000020A02E0000E15D0046904D0FE0E01D040
:1011B000FD0E046F0569D7DA0001B6EC0DF0C685A7
:1011C0000050C697E8B0C687020E015C01E1C68FE9
:1011D000E4DA89D388DA83E949E8015036EC0EF085
:1011E0005DE002011F510FE000010B510CE0000116
:1011F000AD87ACC01EF2FAEC0DF0EECFAAF0EDCF49
:10120000ABF0060E03D00001AD97020E036E20C2B4
:1012100000F003EB01F0015011DAEFCF02F00150C2
:1012200066EC0DF0EFCF03F0FAEC0DF0EFCF04F029
:10123000FAEC0DF0BDEC0DF012DBE8B0C68725EC42
:101240000EF02AE00001AD51080B2AE0FAEC0DF097
:10125000D1DB800E0201005D23E2F7D9046E01515B
:10126000056E0251066E0351076E75DB01E07FDFEC
:101270000001ADB702D0010E14D0E7D990DB08EB26
:1012800004F209EB05F20AEB06F20BEB07F2D95078
:10129000040FE9EC0DF0E9E20001AD97000E01D07A
:1012A000010E4AE9E7CFD9FF12001DDA85E953E8BC
:1012B000015030E1A9DBEFCFA6F002282DDBEFCF04
:1012C000A7F00001A651FC08FF0EA75523E2FD0E72
:1012D000A61902E1E868A71916E0FE0EA61902E1B8
:1012E000E868A7190CE0E868A61901E0D3D0E8681F
:1012F000A71901E0CFD000EBE6FF010E07D000EB0D
:10130000E6FF030E03D000EBE6FF020EE66E3CDFC5
:1013100042E9C3D002011F5109E000010B5106E070
:101320000001AD87ACC01EF2060E03D00001AD97E0
:10133000020E076E015066E0066A040E065C09E2C2
:1013400006500224E9DAEF50E66E06502FDA062A3C
:10135000F4D76AEC05F0056EFF0E055C11E1E5DAE5
:101360000269036904690569FED9000178DAE8B009
:10137000C68702EBC7F003EBC8F0AD970EDA8DD04D
:101380000550CDEC0DF0080BEAE002011F5106E01C
:10139000055050DBEECFAAF0EDCFABF020C200F04D
:1013A00007EB01F005504AD9EFCF02F005508EDB74
:1013B000EFCF03F005503EDBEFCF04F005503ADBF2
:1013C000DCDB00014CDAE8B0C68725EC0EF060E00B
:1013D0000001ADA747D039D9E2DABDDA01E0C7DEB6
:1013E0000001ADA73FD031D9C2DA0CEB04F20DEB0E
:1013F00005F20EEB06F20FEB07F2D950080FE9DB0E
:10140000ECE246D020C200F007EB01F09FC002F0F2
:10141000A0C003F0F9DAEFCF04F002287DDAEFCFB5
:1014200005F0A1D9AC51AC2B00010A6FEDDAEFCF7A
:10143000AAF0022871DAEFCFABF00001C66BC68BC1
:101440000050C697E8B0C68725EC0EF021E00001F9
:10145000ADA722D0FAD893DA7EDA01E088DE000167
:10146000ADB702D0010E19D0F0D8146E0151156E2F
:101470000251166E0351176E14EB04F215EB05F2D0
:1014800016EB06F217EB07F2D950100FA2DBE4E2DD
:101490000001AD97000E01D0010E54E9E7CFD9FF4E
:1014A000120021D987E90550020A02E0030A02E18D
:1014B000000E01D0000E17D216D986E94FE80201BE
:1014C0001C51086EC2D805DA0001AD8D066A030E04
:1014D000065C70E2010E116E126A136A146A076AE2
:1014E0000001ADAD56D0B1D80D6E01510E6E025156
:1014F0000F6E0351106E0DEB04F20EEB05F20FEBC5
:1015000006F210EB07F2D950090FCDD8D8803C0E67
:101510000055780EFEDA39E28DEB09F08EEB0AF019
:101520008FEB0BF090EB0CF007501F0832E311EB40
:1015300000F212EB01F213EB02F214EB03F207508C
:101540001F0B03E00201E1D9FEE177D905E1072A8B
:1015500007501F08ECE22AD03E0EE66E3F0E18D967
:1015600007EBE6FF2DEC26F041E907EBE6FFD9D9C2
:10157000072A0001E5DA410EEF6EA5D81CC2EFFF85
:10158000E66A04EBE6FF26DE42E9E5D9A9E0EFDDF5
:10159000A7D70001ADBD0AD0160EE66E3F0EF6DAF3
:1015A000130EE66E3F0EF4D8010E0AD02EEC00F0BA
:1015B000062A8DD708EBE6FFB4D90001AD9D000ED9
:1015C00050E9E7CFD9FF120098DA41E8FF0E005C3E
:1015D00014E1026A0A0E025C2BE2025047DB09E0CA
:1015E0000250DBDA200B05E0D4DAE1D9025065DAEB
:1015F000F4D90250FCDA022AEDD7005037DB1DE0A7
:101600000050CBDA200B19E00001A151005C15E17C
:101610009C6B59D8CCD9005050DA0050E8DADDD9AB
:10162000026A0A0E025C04E20250E1DA022AF9D7E9
:1016300052DA49DACBDA54D805DB2CD10A0D58DA64
:10164000000EE926010EEA2212000FEC27F0BBCEB5
:1016500000F2BCCE01F2BDCE02F2BECE03F2020118
:10166000005112000B0D44DA6C0EE926000EEA223E
:101670001200040EB1DAE9CFC7F0EACFC8F040DAC1
:10168000E9CFE6FFEACFE6FF6BEC10F046E9120087
:10169000EA6ACC25E96ECD51EA221200E66E0BEC27
:1016A00026F041E91200E96EDACFEAFFEE50045D60
:1016B000006FEE500559016FEE500659026FEE5063
:1016C0000759036F12009C519C2BEA6A000FE96EC8
:1016D000000EEA221200080E26D20150F0EF0DF0A3
:1016E00062DA31EF0DF0D9CFE6FFE1CFD9FF12007A
:1016F000020EE66EE66AF3C1E6FFF4C1E6FF9D0E58
:10170000E66E000EE66E120067DAE9CF00F2EACF6D
:1017100001F212000201EA6AE924E96E0151EA22AB
:101720001200020EE66EE66AE9C1E6FFEAC1E6FFD4
:101730009F0EE66E000E12009F0EE66E000EE66E25
:101740009D0EE66E000EE66E97EC0FF044E9120077
:10175000640EE66EE66AEFC1E6FFF0C1E6FF000E3A
:10176000E66E010E12009FC006F0A0C007F09DC0FB
:1017700008F09EC009F01200EFCFE6FF95EF0DF0E4
:10178000D880240E0055F40E89EF0DF0020ECBD157
:10179000E66EF0EC25F042E91200B2D9C7C0E6FFD0
:1017A000C8C0E6FF6BEC10F046E91200EA6AA20F2F
:1017B000E96E000EEA224DD2040D9AD9330EE926C5
:1017C000000EEA22EE6AEE6AEE6AEE6A120002018A
:1017D0001D510001030BF36EF346F346F346F34647
:1017E000CF0E6015F310606F1200010EE66EE66A10
:1017F000EBC1E6FFECC1E6FF1C0EE66E020EE66EE4
:101800001200010EE66EE66AEDC1E6FFEEC1E6FFEC
:101810001D0EE66E020EE66E12000A0DF3CF02F206
:10182000F4CF03F2000E02010227010E032302C2CD
:10183000E6FF03C2E6FFFDEF0DF0D9CFE9FFDACFF7
:10184000EAFFEE5002010017EE500117EE500217AA
:10185000EE5003170051011102110311120086D935
:10186000C68B0050C69712000A0D0101EF51F324F8
:101870000201006F0101F051F4200201016F00C26A
:10188000E6FFE66E1200D950140FE96EDACFEAFFD8
:10189000EF50120042E9E7CFD9FF1200A669A7690D
:1018A0009F0EE66E000EE66EA60EE66E000EE66E6B
:1018B00097EC0FF044E91200EE580201036F00515B
:1018C000066E0151076E0251086E0351096E0650F3
:1018D0001200096E01510A6E02510B6E03510C6E1B
:1018E0001200030E20D141E9E7CFD9FF12009EC0BC
:1018F000E6FF1BD99DC0E6FF95EF0DF0A0C0E6FF07
:1019000014D99FC0E6FF95EF0DF0D890003701374E
:1019100002370337E8061200E96E000E0320EA6E74
:1019200012001BEC07F041E9120020C200F0000198
:10193000020E016F1200D950020FE96EDACFEAFFF2
:1019400012001CC2E6FF2DEC26F041E9120005EC66
:1019500022F046E91200AFEC08F000091200025034
:10196000EA6AA20FE96E000EEA22EF5012000C6E36
:1019700001510D6E02510E6E03510F6E1200106E6A
:101980000151116E0251126E0351136E1200056E59
:101990000151066E0251076E0351086E1200086E67
:1019A0000151096E02510A6E03510B6E1200030EB3
:1019B000EF6EC66BC68BC681C693C68F1200EFCF83
:1019C000A7F09FC0A8F0A0C0A9F01200300BE84219
:1019D000E842E842E84201081200640EE66EE66A58
:1019E000F3EC24F042E91200050E9DD043E9E7CF65
:1019F000D9FF1200EECF00F2EFCF01F212004CEC53
:101A000012F041E90009120002EBE9FF03EBEAFFE3
:101A1000120014DE6BEF0BF030D93DEF0EF038DE24
:101A2000EF5012003F0E3ADE3F0E38DE3F0E36DE3C
:101A30003F0E120003DEC6EF0BF00FD9090EECEFDC
:101A40000DF068DE06D101DE44DF09EB04F20AEB9B
:101A500005F20BEB06F20CEB07F2D950050FE9EF9C
:101A60000DF0E66EFDEF0DF0E9CF02F2EACF03F2E2
:101A700004500201EA6AE924E96E0351EA22EF50B8
:101A8000E66E0001A1511EEF0BF0EA22EF50E66E68
:101A90001ADEDFD0D3DD040E37DE030ED880035408
:101AA000C9D00150EA6ACA25E96ECB51EA22EF504B
:101AB000E66E01507BDE012A1200C0DD39EF0BF02B
:101AC0007DD80350B7D014DEFDEF0DF0B7DDE92A65
:101AD000000EEA2212000001A1699D699E699F69BA
:101AE000A0692ADE0001AD931200F7DD71EF0CF062
:101AF000F3CFE9FFF4CFEAFF1200F5DD82E912002F
:101B00009CC0E6FF000EE66E000EE66EC6C0E6FF65
:101B100012000155000E0255000E03551200E3DDC0
:101B200081E941E81200ECEF0DF01AEC26F041E9F2
:101B3000120098DDEE52E9CF00F2EACF01F2120076
:101B40000B0E9C6FC0DDEF6A63EF0BF0015076DD8A
:101B5000040EECEF0DF07E0EE66E3F0E19DE032A4A
:101B600012000D0E9BDD0A0E4EEF0BF0AC51AC2BAC
:101B700000010A6F0001C66B1200E92AEA22EFCFCA
:101B800005F0B3EF0BF06EDDF4EF0CF001DEA1EF2A
:101B90000CF000019C6B63EF0BF03BDFEF50120089
:101BA0007DDD0CEF0DF0010EE66EE66AF5C1E6FF95
:101BB000F6C1E6FFA10EE66E000E12003FDD090E33
:101BC00084EF0BF000012BDFE66E1200AADD31EF8F
:101BD0000DF069DDC0EF0BF0E926000EEA221200DD
:101BE000080D86DFD10EE926000EEA22120011DF71
:101BF000EF6A120001501AEF0DF029EC22F046E9CD
:101C000012001CDDB9DD0CEF0DF014DFE92AEA2229
:101C1000BCEF0BF00FDFEFCFE6FF1AEF26F0EA6A1A
:101C20002B0FE96E020E45EF0DF06EDD045009DF5B
:101C3000042A12006FDDA0DD032A1200015001DF2B
:101C4000012A120085DD31EF0DF0A15136DF0009C8
:101C50001200E552E750EF6E12006B5132EF0BF0BD
:101C6000E1DE9EDFDFDEE66E0BEF26F096DF800B17
:101C7000120096DF0050CDEF0DF0200E4EEF0BF06E
:101C8000C0EC14F081E950E8060E016E026E036E9E
:101C9000050E046E056E040E066E076E086E030ECA
:101CA000096E0A6E020E0B6E0C6E010E0D6E0E6E3C
:101CB0000F6E106E03500201026F036B050E02C21D
:101CC00000F203C201F2000A06E00201D8900037D8
:101CD0000137E804FBE100C2F3FF01C2F4FF51E960
:101CE000E7CFD9FF1200C0EC14F083E941E8F050CF
:101CF000200B01E0010E036EF09A8B94020101EBC0
:101D000000F2016B00C2E6FF1CEC28F041E900EB99
:101D1000E6FF1CEC28F041E98B840350E8B0F08A20
:101D2000E8A0F09A63EF15F0C0EC14F081E943E805
:101D30008D50020B01E0010E016E8B50040B01E08F
:101D4000010E026EF050200B01E0010E036EF09ABE
:101D50008D828B942BEC28F00101AD6F2BEC28F0D9
:101D60000101AE6F0150E8B08D82E8A08D92025063
:101D7000E8B08B84E8A08B940350E8B0F08AE8A028
:101D8000F09A44E9E7CFD9FF1200C0EC14F083E9E0
:101D900052E8030E116E11501106000901E1C1D085
:101DA000126A0001FF6B106A00501FE0810E77EC91
:101DB00015F0146A0D6A050E0D5C0EE2B5DF010127
:101DC000AEBF142A010EE66EE66AE66AE66A94EC95
:101DD00024F044E90D2AEFD71450020806E210500F
:101DE000102A0408E6E2000E9ED0F09A010E77EC6D
:101DF00015F0B30E7FEC15F0210E77EC15F0010E07
:101E0000EDEC14F0046A136A8B94B80EE66E1CECC9
:101E100028F041E9AA0EE66E1CEC28F041E90E6AB2
:101E20000F6A020E0124045C3DE281AA20D0030E59
:101E3000135C13E21350020A09E0030A04E0010AEA
:101E40000AE12D0E01D0D40EE66E02D001EBE6FFC2
:101E50001CEC28F041E9132AE2D70450C4EC15F039
:101E6000EFCFE6FF1CEC28F041E9042AD8D70EEBAF
:101E700000F20FEB01F20E2A000E0F2202010051B8
:101E8000FE08FF0E0155CDE28B841250122A140871
:101E900009E3B9EC15F0D4EC15F0050EEDEC14F0F7
:101EA000F08A7FD78B84B9EC15F0D4EC15F03CDFC9
:101EB000F08A200E01016415000830E265C1B2F11C
:101EC000C5EC14F0056E0151066E0251076E035108
:101ED000086E0001FF5122E1C5EC14F0096E0151BA
:101EE0000A6E02510B6E03510C6E09EB04F20AEB01
:101EF00005F20BEB06F20CEB07F2D950050FE96E79
:101F0000DACFEAFFF9EC14F0350E00550C0E01554E
:101F1000000E0255000E0355DCE23DD7010E036EA4
:101F200001D0036A035053E9E7CFD9FF1200C0EC98
:101F300014F085E9000E67EF15F0C0EC14F083E9AA
:101F4000200E015C02E3000E19D00150690DF3CFA1
:101F500002F2F4CF03F2400E02010227A10E032386
:101F600000500225006F000E0321016F00C2E6FF42
:101F7000A6EC14F0140EEDEC14F0010E67EF15F062
:101F8000C0EC14F082E90050070802E2000E0AD00B
:101F900000500201006F016B100E0013980E35EC1B
:101FA00015F0010E67EF15F0C0EC14F084E941E87C
:101FB00000EBAFF101EBB0F102EBB1F18B848D825C
:101FC0008B9E8A98D6CFB3F10101B469046A020EE0
:101FD000045C06E2045098EC14F0EF6A042AF7D788
:101FE000D9CFE9FFDACFEAFFEF50040B0EE0B1ECF6
:101FF00014F005EC22F046E9040E0101DE27000E84
:10200000DF23E02395EC15F00DD00101DD6BDE6BD5
:10201000DF6BE06B95EC15F00101010EDD6FDE6BFF
:10202000DF6BE06B046A080E045C13E20450F76A8D
:102030000E0FF66E000EF7220800F550E66E045003
:10204000EA6AE10FE96E010EEA22A5EC15F0042A16
:10205000EAD7810E73EC15F0830ECAEC15F0B70EBB
:10206000E66EC40EA6EC14F0D00EE66EA70EA6EC3B
:1020700014F0230EE66EC60EA6EC14F0010E77ECFB
:1020800015F0FEDDF3CF00F2F4CF01F2040E0201F1
:102090000013940E35EC15F0100EE66E980EA6ECBB
:1020A00014F0AC0EE66EC20EA6EC14F0210E77EC26
:1020B00015F0050EEDEC14F0B9EC15F0810E73EC93
:1020C00015F0D4EC15F0000EE66EE66A0CDE42E97F
:1020D000010E63EF15F0C0EC14F087E945E80050FD
:1020E000280802E2000EBDD0039CDEEC14F0030BC6
:1020F000010801E1038E03EB64F10101B351B32B3D
:102100000101656F50EC15F06BEC15F0E5EC14F087
:10211000020E086EDEEC14F0400B0EE0076ABDEC18
:1021200014F0075C09E207500424E96E000E052054
:10213000EA6EABEC14F0F3D7DEEC14F0040B0BE119
:1021400056EC15F0BDEC14F0E66E04EBE6FF05EB83
:10215000E6FFE5EC14F0DEEC14F0800B1AE0076A01
:10216000BDEC14F0075C09E20750EA6AB025E96E9D
:10217000B151EA22ABEC14F0F3D756EC15F09AEC1F
:1021800015F0E66E9AEC15F0085C0FEC15F0E5EC36
:1021900014F0DEEC14F0080B3EE0076A040E075C56
:1021A00008E20750EA6ADD0FE96E010EEA22D3DB8E
:1021B000F5D70101DD2B000EDE23DF23E023DD5107
:1021C00005E1030EDE1502E195EC15F07BEC15F050
:1021D000EF6A88EB0BF0076A0050075C03E28DECB6
:1021E00015F0FAD7E10EE66E010EE66E00EBE6FFA3
:1021F0000BEBE6FF6BEC15F00DEC21F046E9020E5F
:10220000082656EC15F00024050FE66E050E0B5C53
:102210000FEC15F00FD0076A0050075C03E28DEC5D
:1022200015F0FAD756EC15F000EBE6FF01EBE6FFF0
:1022300002EBE6FFCADB02010AEB00F2016B7BEC6A
:1022400015F000C2EFFF7BEC15F009EBEFFF010189
:10225000AF51020B01E0010EE66E08EBE6FF95DDE3
:1022600042E946E9E7CFD9FF12008ADB81E94CE871
:1022700081A6F084016A050E015C32E286DB026E03
:102280000151036E0251046E0351056E015057DB7C
:10229000EF5024E0015086EC15F00250EE5C035044
:1022A000EE580450EE580550EE5818E202EB04F2D6
:1022B00003EB05F204EB06F205EB07F2015086ECA6
:1022C00015F097DB240E0055F40E0155000E025553
:1022D000000E035503E2015032DBEF6A012ACBD72F
:1022E000FF0E0101B45D01E0A6D0016A020E015C9F
:1022F00001E3C4D083EC15F0EF50010B01E1BCD039
:10230000D1EC15F0EFCFC9F083EC15F08AEC15F0A5
:10231000EFCFCEF0020E066E0001C9AD02D02DDB6C
:1023200006260001C9AF0BD0D1EC15F00650E92408
:10233000CA6F000EEA20CB6F20DB062602D0CA6BE4
:10234000CB6B0001C9A77DD0D1EC15F0EACF01F22B
:10235000040E06240201EA6AE924E96E0151EA2228
:10236000EF5067E10001C9AF4FD0076A0A0E075C62
:1023700015E260DB080E1EDBEF50800B0DE0CAC0DB
:10238000E6FFCBC0E6FF56DB040E14DB77DBDDECAB
:1023900005F044E9000902E1072AE8D70A0E075CC4
:1023A00033E20C6A040E0C5C1CE2D1EC15F0E9CFB0
:1023B00002F2EACF03F206500C240201EA6AE92491
:1023C000E96E0351EA22EF50E66ED950080F006F14
:1023D0000C50EA6A0025E96EDA50EA22B6DB0C2AD4
:1023E000E1D730DBEE50085CEE500958EE500A5849
:1023F000EE500B581EE326DB08EBEEFF09EBEEFF79
:102400000AEBEEFF0BEBEFFF050E0626E10EE66E84
:10241000010EE66E78DB7EDBEF50D8800654E66E68
:1024200006EBE6FFBEDB2ADB3FEC21F046E90009C4
:1024300004E169DBEF6A000E22D0020E06240001DF
:1024400001D00650CE5FADDB0650E924CC6F000E04
:10245000EA20CD6F58DBEF50020B03E0190ECF6F6F
:1024600001D0CF6B50DBEF50040B01E0010ED06FB9
:1024700001EBB4F1010E03D0012A38D7000E4DE96B
:10248000E7CFD9FF1200020E0101B45D04E2B4519E
:102490004FDAEF6AB469120073DA82E941E800505A
:1024A000FF0A0BE0FF0A02E0000E15D0810E72DB7E
:1024B000010E1DDB39DC8D820DD0090E18DB0A0EF2
:1024C0008CDA026A050E025C05E2025038DAEF6A25
:1024D000022AF8D7010EF7D2D8CFE4FFE0CFE4FF0D
:1024E000E46EDACFE4FFE2CFDAFFE9CFE4FFEACF30
:1024F000E4FFBBCEE4FFBCCEE4FFBDCEE4FFBECE26
:10250000E4FFF6CFE4FFF7CFE4FFF5CFE4FFF3CF2E
:10251000E4FFF4CFE4FFFACFE4FF02EE00F00E0E8A
:10252000E80403E3EECFE4FFFBD7E65229DA81E9C2
:1025300050E8F050200B01E1C2D1F050040B01E152
:10254000BED18B9481AAB5D18B848D922BEC28F0CF
:10255000026E036A020E035C06E2C2DAEF50010B60
:1025600002E0032AF7D7040E025C03E1010E066EB7
:1025700001D0066A490E025C07E2025005E0020E35
:10258000035C0DE306500BE18D82F094010EAFDA8F
:10259000810E00DB730EB3DA810EA9DA79D1016AFC
:1025A000046A056A83A676D1065007E02BEC28F072
:1025B000E66ECFDA0150012A07D02BEC28F0E66E48
:1025C000DDDA0150012A0101EA6AF925E96EFA51C2
:1025D000EA22BBDA0250015CE3E394EC0EF0010165
:1025E000AEAFD2D78D82810E7EDA06503BE0030E6D
:1025F0000714020822E109EBF9F1F9C1FAF101012E
:10260000F96B0A50F9250B6E000EFA210C6E48DAB0
:10261000D950070FE66EDACFE6FFC4D90D500B187C
:102620000FE10E500C180CE10101B251085C03E1FE
:102630000001010EFF6F016A2BD1020E035C02E361
:10264000016A98D09EDA07EBEFFFA8DA08EBEFFFFC
:1026500098DA020EAFD909EBEFFF93DA030EAAD98D
:102660000AEBEFFF83DA02EBEFFF8BDAE9CFFDF144
:10267000EACFFEF17BDAEF50FE0F0101EA6AFD2599
:10268000E96EFE51EA22EFCFFBF1FBC1FCF1FB6BDF
:1026900075DA6CDAEF04EA6AF925E96EFA51EA2292
:1026A000EF50FB250B6E000EFC210C6E6ADAEF502A
:1026B000040B04E166DAEF50400B09E0000EE66E11
:1026C000E66A54DAEF50FE0FE66E58DA18D0E8D911
:1026D00055DAE9CFE6FFEACFE6FF42DA4ED9E66EF9
:1026E000B0C1E6FFB1C1E6FF3BDA40DAEF50FC0FC4
:1026F000E66E44DA020E0101F927000EFA23F9C151
:10270000E6FFFAC1E6FF4ED90D500B1830E10E502E
:102710000C182DE1E5D9EF84E3D90101AD51010B8E
:1027200002E0EF8201D0EF9210682BDAEF50400BFD
:1027300025E00F6A22D90F5C21E223DAE9CFFAF112
:10274000EACFFBF1020E0F240101EA6AE924E96EE7
:10275000FB51EA22EFCFF9F10F500101EA6AB025EF
:10276000E96EB151EA22EF500101F95D05E0016A1D
:10277000FDD9EF6A19DA08D70F2ADCD702DAEF5051
:10278000200B35E011DA0F6A040E0F5C07E298D9CE
:10279000EF50E66E3CD9D9D90F2AF6D70101060EC3
:1027A000646FFCD9EFCF65F1E66EE66A020EE66E65
:1027B00092D9F8D801010EEBF9F1FA6BF9C166F183
:1027C0000DEB67F1020E09D9E66A040EE66EC5EC60
:1027D0000EF042E9810E87D90F6A040E0F5C07E202
:1027E00016D9EF50E66E6CD9B0D90F2AF6D70F6A1A
:1027F000050E0F5C28E20F50A2D8EF5019E00F50E1
:102800009ED8EE52EFCFF9F1C9D9EF500101F95D31
:102810000FE10F5094D8020ECDD80B50EE1808E1FE
:102820000C50ED1805E116D90F5070D930D90BD0E6
:10283000FF0E105C06E10F5082D8EF5002E18FEBE3
:1028400010F00F2AD5D7050E0F5C22E3050E105CA1
:1028500017E2105074D8010EEF6EA0D9EF50E66E5B
:1028600010506DD8EE5271D9105069D8020EA2D80E
:102870000BEBEEFF0CEBEDFFEDD8105047D907D96D
:102880000101020EF96F72D9F951EF5E29D9EF807B
:102890008BD914D004EBF9F105EBFAF1042A000E00
:1028A00005220101F951FE08FF0EFA5501E37AD61F
:1028B0006BD62BEC28F00101AD6F8B84F094F2A461
:1028C00009D0F2AA07D0F2940001FD2BFD5102E1DC
:1028D0000001FE2B5DEC24F051E9E7CFD9FFE55272
:1028E00002EE0DF00E0EE80403E3E5CFEDFFFBD79B
:1028F000E5CFFAFFE5CFF4FFE5CFF3FFE5CFF5FF36
:10290000E5CFF7FFE5CFF6FFE5CFBEFEE5CFBDFE95
:10291000E5CFBCFEE5CFBBFEE5CFEAFFE5CFE9FFA3
:10292000E5CFDAFFE550E5CFE0FFE5CFD8FF1000B7
:102930004B0D06D9000EE9260E0EEA221200080DF4
:10294000FFD8B50EE926010EEA221200E66E73ECFE
:102950000EF042E91200EF50E66ECDD8F6D8072A05
:102960001200040EE66EE66AF1C1E6FFF2C1E6FF70
:10297000DD0EE66E010EE66E120001019AEF15F013
:10298000D9CFE6FFE1CFD9FF12000FEC27F0BBCE85
:1029900000F2BCCE01F2BDCE02F2BECE03F20201C5
:1029A0000051120043EC27F045E9F3500D6EF4504E
:1029B0000E6E1200E926000EEA221200D950030F13
:1029C000E96EDACFEAFFEF50120043EC27F045E959
:1029D000F350096EF4500A6E1200E66EE66AF3ECEC
:1029E00024F042E91200EE52E9CFF9F1EACFFAF110
:1029F0001200EE50045D006FEE500559016FEE506D
:102A00000659026FEE500759036FD8801200A1D803
:102A10000F50EA6AF925E96EDA50EA221200020143
:102A2000016B640F006F010E012300C2E6FF01C2BB
:102A3000E6FF120007500A0D83D8000EE926010EAA
:102A4000EA2212000750040D7BD8330EE926000E4F
:102A5000EA2212000FEC27F0BBCEF9F1BCCEFAF15E
:102A6000BDCEFBF1BECEFCF11200011300C2E6FFA9
:102A700001C2E6FF73EC0EF042E91200E9CF00F26A
:102A8000EACF01F2E9CFE6FFEACFE6FF1200BBCEC4
:102A9000EEFFFAC1EEFFFBC1EEFFFCC1EEFF12003C
:102AA000000EE66EE66A020EE66E120009EBE6FF25
:102AB0000AEBE6FF1200EE52E92A000EEA221200AB
:102AC0000F50C4EF15F042E9E7CFD9FF120041E9FA
:102AD000E7CFD9FF1200640EE66E010EE66E12001B
:102AE000035098EF14F0E66ECA0EA6EF14F0E66EEF
:102AF000820EA6EF14F00850082AC4EF15F0E66E17
:102B0000800EA6EF14F0015098EF14F018DF040EB9
:102B1000DAEF14F04A0EDAEF14F007500124E96EF0
:102B2000000E0220EA6EABEF14F01BDF29EC22F05E
:102B300046E91200AF51780BE842E842E842120041
:102B4000F3CFE9FFF4CFEAFF1200E552E750EF6E52
:102B500012000101D950070FF96FDACFFAF1120014
:102B600021DF0DEBE6FF0EEBE6FF1200B9DF8AEF87
:102B700015F0810EBCDF730E7FEF15F0B1DFF3EFC0
:102B800014F0AEDFEE521200EA6A640FE96E010E35
:102B9000EA221200A8DF330E7FEF15F0A1DF5BEF12
:0E2BA00015F0B1DFEE521200830E73EF15F048
:022BAE0090DBBA
:102BB00086E90150010600090CE002EBE6FF03EB99
:102BC000E6FF00EBE6FF69DBF4E1011DF2E1010E37
:102BD00001D0000E41E9E5CFDAFFE7CFD9FF1200BF
:102BE00077DB89E97BE80A6A0B6A02EBF6FF03EB05
:102BF000F7FF04EBF8FF0800F550096E095001E1FA
:102C00002DD3250E095C01E01BD30C6A0D6A0E6AF8
:102C10000F6A106A2DDB2D0E095C0CE02B0E095C8F
:102C200009E0200E095C06E0230E095C03E0300E8B
:102C3000095C15E10950300A10E0130A0CE0030AA0
:102C400008E00B0A04E0060AE5E10C80E3D70C82F9
:102C5000E1D70C84DFD70C86DDD70C88DBD72A0EB2
:102C6000095C13E1A5DB0DE30C801CEB00F21DEB0E
:102C700001F20201006D011F000E012300510D6ED3
:102C800002D09CEB0DF0F4DA07D0126A3FDB02E0D1
:102C90006BDBFCD792EB0DF00CB00C982E0E095CA0
:102CA00015E1E6DA2A0E095C08E182DB04E29CEB1E
:102CB0000EF0010E0F6EDCDA09D0126A27DB02E09B
:102CC00053DBFCD792EB0EF0010E0F6E680E095C21
:102CD00007E1CEDA680E095C1DE1030E106E19D013
:102CE000740E095C16E07A0E095C13E0480E095C6C
:102CF00006E0540E095C03E05A0E095C02E1020E84
:102D000007D06C0E095C03E06A0E095C03E1010E5A
:102D1000106EAEDA09506E0A01E16ED21E0A01E1B0
:102D200028D1200A01E125D13F0A01E1FDD01A0A8C
:102D300001E1FAD00D0A01E1F7D0200A01E1F4D057
:102D40003A0A01E1F1D0200A01E1EED0260A01E1C0
:102D5000EAD00D0A01E1E7D01A0A01E19ED0200A6B
:102D60003BE0300A1AE0460A0EE0250A01E072D282
:102D7000D950020FE96E000EDA20EA6E010EEE5E07
:102D8000000EEE5AEE5A0FDB250EE66E86DA03E1F0
:102D9000011D01E159D20A2A5BD2116A0D500108C6
:102DA00003E20D04116EF5DA115007E0010E0C1468
:102DB00004E16DDA01E048D2116AD3DAEF50096E0E
:102DC000CBDA03E1011D01E13FD20A2A000E0B22FA
:102DD0005EDA01E13FD238D2020E105C08E1030E48
:102DE0004EDAEE50176EEE50186EEF5007D0E7DA5D
:102DF000026B0051176E0151186E0251196E17EBDC
:102E0000E6FF18EBE6FF19EBE6FFC4EC27F043E919
:102E1000BBCE00F2BCCE01F2BDCE02F202010051E7
:102E20001C6E01511D6E0F5006E01C500E5C03E23B
:102E30000E501C6E1D6A1C500D5C02E29CEB0DF0E6
:102E400050DA05E00D500E5C02E28EEB0DF00CB096
:102E500004D01DDA01E0F8D1116A126A17EBF6FF0F
:102E600018EBF7FF19EBF8FF0800F550096E095051
:102E700010E00D50125C0DE26FDA03E1011D01E17B
:102E8000E3D10A2A000E0B22122AD950170F55DA65
:102E9000EBD7FDD901E1DED1D7D163DAEE501A6E5E
:102EA000ED501B6E1AEBE6FF1BEBE6FFB6EC27F0CE
:102EB00042E9F3501C6EF4501D6E0F5006E01C509A
:102EC0000E5C03E20E501C6E1D6A1C500D5C02E28B
:102ED0009CEB0DF006DA05E00D500E5C02E28EEB85
:102EE0000DF00CB004D0D3D901E0AED1116A126A52
:102EF0001AEBE9FF1BEBEAFFEF50096E09500FE0F8
:102F00000D50125C0CE228DA03E1011D01E19CD1B5
:102F10000A2A000E0B22122A1A2A1B22E9D7B7D935
:102F200001E198D191D10C8E10040AE1040EA7D9C9
:102F3000EE50136EEE50146EEE50156EEF5032D010
:102F4000030E105C16E10CAE0CD00BDAEFCF00F2E2
:102F50000201016B026B036B00AF23D001690269B0
:102F60001FD0FFD9EFCF00F202010051136E146A97
:102F700020D0020E105C0CE10CAE06D0030E7FD9FF
:102F8000B6D902AF0ED00CD0030E79D9B0D909D082
:102F90000CAE0AD014DA026B036B01AF02D00269E7
:102FA0000369BCD9166E07D00ADA0051136E0151BD
:102FB000146E156A166A0F5002E1010E0E6E1E6A3B
:102FC0001F6AD950400FE66E000EDA20E66EE55219
:102FD000E550436EE750426E416A116A0A0E106E68
:102FE0000950780A12E0200A10E0280A0CE0200AB2
:102FF0000AE03F0A06E00D0A02E0200A08E1020E9C
:1030000005D0080E03D0080E0926100E106E0CBE57
:1030100002D00C920C94800E0C1417E0163415E3B9
:10302000E668E668E668E66842D924EC23F0E552F3
:10303000E5CF03F2E5CF02F2E5CF01F2E7CF00F2F0
:1030400002016CD9166E2D0E07D00CA202D02B0EE9
:1030500003D00CA404D0200E206E1E2A01D0206ABA
:103060000E5005E1135014101510161061E0020106
:103070004A0E006F510E016F000E026F83D984EC6F
:1030800023F0E552E5CF06F2E5CF05F2E5CF04F2F5
:10309000E7CF03F2020100510325F36E0151042131
:1030A000F46E02510521F86EF4CFF7FFF3CFF6FF6F
:1030B0000800F550126E580E095C05E1610E125CB5
:1030C00002E3200E125E5ED981EC23F0E552E5505A
:1030D000166EE550156EE550146EE750136E42EB18
:1030E000E9FF43EBEAFF4206000E435A12EBEFFF03
:1030F0001E2A1350141015101610B9E10CA619D081
:103100006F0E095C06E10E501E5C13E31E280E6E66
:1031100010D0780E095C09E0580E095C06E0620EDA
:10312000095C03E0420E095C04E1020E1F6E01D04F
:103130001E6A100E0C1407E00D500E5C04E20F50D6
:1031400002E18DEB0EF00E501E5C03E21E500E5E8F
:1031500001D00E6A0E501E241F24D8800D5407E2A1
:103160000E500D5CD8801E54D8801F54116E010E75
:103170000C1406E1115004E08AD866E10AD9116AFC
:10318000205007E010D920EBE6FF87D802E1011DAF
:103190005BE01F500BE007D9300EE66E7ED802E1EF
:1031A000011D52E0D9D802E1011D4EE00E501F5C16
:1031B00002E21F500E5E300EE66E0EEBE6FFDCD82C
:1031C00043E1422A000E432242EBE9FF43EBEAFFD0
:1031D000EF50126E125008E0E6D812EBE6FF5DD811
:1031E000F0E1011DEEE130D052D82EE10E501E2448
:1031F00011241F240A262CD01050030A1CE0010AB7
:1032000014E0030A07E0ADD8C9D80AEBEEFF0BEBD8
:10321000EDFF20D08BD8036B01AF02D002690369A8
:10322000A0D84ED803C2EEFF15D080D801BF0269E6
:1032300098D846D80FD095D8B1D80AEBEFFF0AD06E
:103240008BD805E1011D03E1F368F4680BD00A2A6D
:10325000000E0B22D950020F70D8CDD40AEBF3FF29
:103260000BEBF4FF7CE9E5CFDAFFE7CFD9FF1200E3
:10327000D950020F62D80800F550096E1200005EA6
:10328000000E015A00EBE9FF01EBEAFF1200200EED
:10329000E66E11EBE6FFBCEF19F0E9EC27F043E92D
:1032A000F3CF00F2F4CF01F20201F31C120013EB92
:1032B000E6FF14EBE6FF15EBE6FF16EBE6FF120068
:1032C0006DD800C2EEFF01C2EEFF02C2EEFF120097
:1032D000D9CFE6FFDACFE6FFE1CFD9FFE2CFDAFFC1
:1032E00012001C500D5C116E54D80F501200EECF1E
:1032F00000F2EECF01F2EFCF02F20201036B1200F7
:10330000EECF00F2EFCF01F2020112000950E66E9B
:10331000E66A68EC28F042E9F35012000051136E9F
:103320000151146E0251156E035112000AEB00F2A6
:103330000BEB01F20201026B1200E96E000EDA20C3
:10334000EA6EEF2AEECFF6FF000EEF22EECFF7FF88
:10335000EF22EECFF8FF120026D809EBE6FF4DEF83
:1033600019F0020E3FEF19F00A0E1202F350092471
:10337000D00F126E38EF19F016D8D7EC15F044E9DB
:103380000009120010EBE6FFE66AE66AE66A57EF0C
:1033900019F011500A26000E0B221200EE50EFCF4A
:1033A000EAFFE96E120005EBE6FF06EBE6FF12000E
:1033B000D8DFEE501C6EED501D6E1D341200D1DFB3
:0433C00080EF19F091
:0C33C400D9CFE6FFE1CFD9FF81E952E844
:1033D0000368046A056A0E6A0F6A106A116A126A43
:1033E000C7EC23F0E7EC25F0B40EE66E3E0EE66E79
:1033F000F0EC25F042E99D0EE66E3E0EE66EF0EC36
:1034000025F042E9820EE66E3E0EE66EF0EC25F007
:1034100042E9670EE66E3E0EE66EF0EC25F042E9FC
:103420004F0EE66E3E0EE66EF0EC25F042E9340EED
:10343000E66E3E0EE66EF0EC25F042E9190EE66E01
:103440003E0EE66EF0EC25F042E9FA0EE66E3D0E19
:10345000E66EF0EC25F042E9E30EE66E3D0EE66E18
:10346000F0EC25F042E9A30EE66E3D0EE66EF0ECC0
:1034700025F042E9630EE66E3D0EE66EF0EC25F0B7
:1034800042E9210EE66E3D0EE66EF0EC25F042E9D3
:10349000E10EE66E3C0EE66EF0EC25F042E99F0E82
:1034A000E66E3C0EE66EF0EC25F042E95F0EE66E4D
:1034B0003C0EE66EF0EC25F042E95A0EE66E3C0E4C
:1034C000E66EF0EC25F042E989948996010EE66EED
:1034D000E66A3A0EE66E3C0EE66E28EC24F044E90D
:1034E0008150010B1BE1010EE66E2DEC06F041E967
:1034F000010814E1010EE66EE66A1E0EE66E3C0E51
:10350000E66E28EC24F044E9D10EE66E3B0EE66E42
:10351000F0EC25F042E981A0FED796D0E66A2DECCA
:1035200006F041E9B70EE66E3B0EE66EF0EC25F0D4
:1035300042E9E66AE66AA70EE66E3B0EE66E28EC06
:1035400024F044E9E668E668E668E6680A0EE66E96
:1035500040EC07F045E9026E025049E08D0EE66E40
:103560003B0EE66EF0EC25F042E9016A0250015C88
:103570003EE2830EE66E3B0EE66EF0EC25F042E98D
:1035800001500B0DF3CFE9FFF4CFEAFF6C0EE926F3
:10359000000EEA22EFCFE6FF2DEC26F041E9790E8E
:1035A000E66E3B0EE66EF0EC25F042E901500B0DA5
:1035B000F3CFE9FFF4CFEAFF6C0EE926000EEA2212
:1035C000070EE926000EEA22EFCFE6FF1AEC26F0FE
:1035D00041E901500B0DF3CFE9FFF4CFEAFF6C0E88
:1035E000E926000EEA22EF50036E012ABFD7FF0E34
:1035F000035C06E003EBE6FF1BEC07F041E908D0B3
:10360000580EE66E3B0EE66EF0EC25F042E99AD7D6
:10361000E66A30EC07F041E9E66AE66AC3EC07F0D7
:1036200042E9016E430EE66E3B0EE66EF0EC25F0CD
:1036300042E9010EE66E1CC2E6FF240EE66E3B0E6A
:10364000E66E28EC24F044E98984E66823EC04F073
:1036500041E9E66AE66A070EE66E3B0EE66E28EC86
:1036600024F044E9AFEC08F0000901E180D000014A
:1036700061A707D0FE0EE66E3A0EE66EF0EC25F07E
:1036800042E900016151030B000908E0E20EE66E19
:103690003A0EE66EF0EC25F042E907D0C80EE66E71
:1036A0003A0EE66EF0EC25F042E969C0E6FF1AEC4E
:1036B00026F041E9000161AD34D0C10EE66E3A0E4C
:1036C000E66EF0EC25F042E9000161AF16D0010E84
:1036D0000001EA6A6425E96E6551EA22EFCFE6FF50
:1036E0001AEC26F041E964C0E9FF65C0EAFFEFCFBC
:1036F000E6FF1AEC26F041E914D0016A040E015CE1
:1037000010E2030ED88001540001EA6A6425E96ED4
:103710006551EA22EFCFE6FF1AEC26F041E9012AD3
:10372000EDD7BE0EE66E3A0EE66EF0EC25F042E9FD
:10373000016A00016851015C0EE201500001EA6A71
:103740006625E96E6751EA22EFCFE6FF0BEC26F023
:1037500041E9012AEED78976B7EC08F0112A11EB7E
:10376000E6FF10EBE6FF07EC24F042E947D10E50EC
:1037700003082AE2E66AE66A9F0EE66E3A0EE66EF5
:1037800028EC24F044E97B0EE66E3A0EE66EF0EC8F
:1037900025F042E9010EE66EE4EC06F041E9E66848
:1037A000E668E668E668E66A5CEC0AF045E90E6AF7
:1037B0000F6AE66A1CC2E6FF5C0EE66E3A0EE66E23
:1037C00028EC24F044E902D0010E0F6E0F5001E105
:1037D00015D10F6AE66AE4EC06F041E90400C08006
:1037E000F292F19CF288F092F198F088A8A2FED7AC
:1037F0000300F298F098C09049EC24F0126E020E8B
:10380000E66EE4EC06F041E9000813E2460EE66ECF
:103810003A0EE66EF0EC25F042E90E2AE66A0EEB6F
:10382000E6FF290EE66E3A0EE66E28EC24F044E937
:103830000AD00E5007E011EBE6FF10EBE6FF07ECB5
:1038400024F042E90E6A1250020A62E0030A01E023
:10385000D4D000010B0E9C6F060EE66E04EBE6FF63
:1038600005EC23F041E9E750000915E100019C5106
:103870009C2BEA6A000FE96E000EEA220D0EEF6E35
:1038800000019C519C2BEA6A000FE96E000EEA22AF
:103890000A0EEF6E2FD0016A150E015C2BE2060EA8
:1038A000E66E04EBE6FF05EC23F041E9E750FF0F7D
:1038B000150DF3CF00F2F4CF01F2CC0E0201002778
:1038C0004C0E0201012301500201F76A0025F66E39
:1038D0000151F7220800F550E66E00019C519C2B27
:1038E000EA6A000FE96E000EEA22E552E750EF6E39
:1038F000012AD2D7042AE66ABBEC08F041E911EBB1
:10390000E6FF102A10EBE6FF07EC24F042E976D040
:1039100000010B0E9C6F060EE66E05EBE6FF05EC54
:1039200023F041E9E750000915E100019C519C2B6F
:10393000EA6A000FE96E000EEA220D0EEF6E00013A
:103940009C519C2BEA6A000FE96E000EEA220A0ED7
:10395000EF6E2FD0016A0B0E015C2BE2060EE66EB5
:1039600005EBE6FF05EC23F041E9E750FF0F0B0DF7
:10397000F3CF00F2F4CF01F2350E020100274D0E15
:103980000201012301500201F76A0025F66E015180
:10399000F7220800F550E66E00019C519C2BEA6A64
:1039A000000FE96E000EEA22E552E750EF6E012AA1
:1039B000D2D7052A010EE66EE66AEAEC08F042E983
:1039C000000912E1160EE66E3A0EE66EF0EC25F0F6
:1039D00042E9010EE66EE66A060EE66E3A0EE66E05
:1039E00028EC24F044E901D0102A11EBE6FF10EB9B
:1039F000E6FF07EC24F042E901D000D033D653E9CA
:063A0000E7CFD9FF120020
:0A3A060020556E6963617374204659
:103A100061696C6564000D0A556E69636173742099
:103A20004661696C65640D0A00436F6E6E65637470
:103A3000696F6E204C6F7374202020202025642035
:103A400054696D6573000D0A44617461205265719B
:103A500075657374204661696C65640020526573F6
:103A6000796E6368726F6E697A65642020746F2066
:103A70004368616E6E656C202564000D0A526573A3
:103A8000796E6368726F6E697A696E6720746865B3
:103A900020436F6E6E656374696F6E2E2E2E00521A
:103AA0006573796E6368726F6E697A696E67207488
:103AB000686520436F6E6E656374696F6E003A20AF
:103AC000002066726F6D2000556E6963617374200B
:103AD0005061636B65742077697468205253534951
:103AE000200042726F616463617374205061636B84
:103AF00065742077697468205253534920005365D8
:103B0000637572656420005242303A2042726F61E0
:103B1000646361737420205242323A20556E6963A7
:103B20006173740020436F6E6E656374656420502A
:103B300065657220206F6E204368616E6E656C2033
:103B40002564000D0A436F6E6E656374696F6E20A5
:103B500043726561746564000D0A4E6F2053756988
:103B60007461626C652050414E2C20526573636114
:103B70006E6E696E672E2E2E002020205253534900
:103B80003A20004368616E6E656C3A20000D0A4170
:103B90006374697665205363616E20526573756C3A
:103BA00074733A200D0A004163746976652053638B
:103BB000616E6E696E67000D0A5374617274696E8E
:103BC0006720416374697665205363616E2E2E2EE3
:103BD000000D0A4E6574776F726B20467265657AC8
:103BE0006572204665617475726520697320656E23
:103BF00061626C65642E2054686572652077696C1B
:103C00006C206265206E6F2068616E642D73686140
:103C10006B652070726F636573732E0D0A00204E02
:103C20006574776F726B20467265657A65722020C5
:103C30002020454E41424C454400466561747572F2
:103C400065204D6957692050524F204D52463439F6
:103C50005841204E6F64652032000D0A0D0A000D98
:103C60000A2020202020202020202020202020206A
:103C700020202020202077696C6C20626520746FE2
:103C800067676C65642075706F6E20726563656927
:103C900076696E67206D657373616765732E000DBD
:103CA0000A2020202020202020202020202020202A
:103CB00020202020202050494344454D205A206F89
:103CC00072204578706C6F726572203136206465A1
:103CD0006D6F20626F617264732E204C45442032F8
:103CE000000D0A202020202020202020202020201D
:103CF0002020202020202020427574746F6E2032F6
:103D000020746F20756E696361737420656E6372D1
:103D10007970746564206D657373616765206F6E7B
:103D2000000D0A20202020202020202020202020DC
:103D30002020202020202020507573682042757498
:103D4000746F6E203120746F2062726F61646361E2
:103D500073742061206D6573736167652E205075E3
:103D60007368000D0A202020202020202020202001
:103D700020202020202020202020746F20696E64C5
:103D8000696361746520697420697320636F6E6E66
:103D9000656374656420746F207468652070656560
:103DA000722E000D0A2020202020202020202020FC
:103DB00020202020202020202020506F7765722096
:103DC0006F6E2074686520626F61726420756E7416
:103DD000696C204C45442031206C696768747320FD
:103DE0007570000D0A20202044656D6F20496E73A8
:103DF0007472756374696F6E3A000D0A202020207A
:103E0000205246205472616E736365697665723A1A
:103E1000204D524634395841000D0A2020202020E0
:103E20002020202020202020204C454420323A20F1
:103E3000524133000D0A2020202020202020202065
:103E4000202020204C454420313A20524132000DA0
:103E50000A4F757470757420436F6E66696775726A
:103E60006174696F6E3A000D0A2020202020202006
:103E700020202020427574746F6E20323A20524206
:103E800032000D0A20202020202020202020204247
:103E90007574746F6E20313A20524230000D0A4919
:103EA0006E70757420436F6E6669677572617469B0
:103EB0006F6E3A000D0A5374617274696E67204E1A
:103EC0006F64652032206F66204665617475726587
:103ED0002044656D6F20666F72204D6957692854C4
:103EE0004D292050524F20537461636B202E2E2E8B
:103EF000005258204D657373616765733A2025330E
:103F000064005458204D657373616765733A2025CA
:103F10003364000D0A000D0A526573796E6368728E
:103F20006F6E697A656420436F6E6E656374696F46
:103F30006E20746F204368616E6E656C20000D0A00
:103F4000436865636B696E67204368616E6E656C7C
:103F500020000D0A5363616E204368616E6E656CCC
:103F6000200053686F7274416464723A00205041BB
:103F70004E49443A004368616E6E656C3A002020F9
:103F8000000D0A417661696C61626C65206E6F6438
:103F900065730D0A48616E646C6520525820444375
:103FA0002050414E49442041444452204C4F4E47FA
:103FB0005F414444522020202020202020504545AD
:103FC000525F494E464F0D0A0020204368616E6ED5
:103FD000656C3A2000202050414E49443A20002090
:103FE0002053686F727420416464723A20000D0A95
:103FF0000D0A416464726573733A203078000D0ACB
:104000004A6F696E20746865206E6574776F726B95
:10401000207375636365737366756C6C790D0A0044
:10402000EFD985E949E802EBE9FF03EBEAFFEE503F
:10403000056EED50066ECCD9EE50076EED50086E51
:10404000096A0A6A370E0B6E9E0E0C6E0D6A200E00
:104050000D5C5CE202010838F00B076F07380F0BAC
:1040600007130738F00B066F07EB08F208EB09F2AD
:10407000050ED89009330833E804FBE1A1D90750B5
:104080000425026F08500521036F030E09140C6FFD
:104090000D6B010ED8900C370D37E806FBE12ED9D9
:1040A0000526015106220B5009260C500A2206381B
:1040B000F00B076F05380F0B07130538F00B066F71
:1040C00005EB08F206EB09F2050ED8900933083328
:1040D000E804FBE175D905500425026F065005215F
:1040E000036F0A38E8441F0B0C6F0D6B030E0C179F
:1040F000000E0D17010ED8900C370D37E806FBE1C6
:10410000FDD80726015108220D2AA1D702EBE9FFAD
:1041100003EBEAFF05EBEEFF06EBEDFF59D907EBEA
:10412000EEFF08EBEDFF4AE9E7CFD9FF12000AD90D
:1041300001E0010E0B6EF29E096A0850095C2DE247
:104140000A6A030E0A5C0BE20A5034D9EF50E66E9D
:104150000A50F2D8E552E750EF6E0A2AF2D709EB7F
:1041600024F202EBE6FF03EBE6FF210EE66E020E01
:10417000E66E56DF44E90A6A040E0A5C0CE22FD9A7
:104180000AE20A50D9D8EFCF00F2FBD80201005161
:10419000EF1A0A2AF1D7092AD0D70B50E8B0F28ECD
:1041A000E8A0F29E45E9E7CFD9FF1200CBD801E0A5
:1041B000010E0B6EF29E096A040E095C05E20950BD
:1041C000F9D8EF6A092AF8D7096A0850095C1CE295
:1041D0000A6A040E0A5C0CE202D90AE2D2D8EFCFD6
:1041E00000F20A50E7D802010051EF1A0A2AF1D76B
:1041F00002EBE6FF03EBE6FF00EBE6FF01EBE6FF79
:104200000FDF44E9092AE1D70B50E8B0F28EE8A0AD
:10421000F29E45E9E7CFD9FF1200C6D801E0010EB2
:10422000086EF29E80D803500224B5D8040E075CB5
:104230000AE2075081D8EF50E66E035002240724AB
:104240009AD8D4D8F3D7076A030E075C0AE2035062
:10425000075C04E207508FD8EF5001D0000ECBD896
:10426000F3D761D8040E0224E66E78D80850E8B07F
:10427000F28EE8A0F29E43E9E7CFD9FF120094D86E
:1042800001E0010E086EF29E076A030E075C0AE267
:104290000350075C04E207506ED8EF5001D0000EC7
:1042A000AAD8F3D740D802EBE6FF58D83CD8035041
:1042B0000224FE0F70D8020E075C16E207503CD8AD
:1042C000EFCF00F203500224FE0F072454D8EF5022
:1042D0000201005D07E00850E8B0F28EE8A0F29E0F
:1042E000000E08D0072AE7D70850E8B0F28EE8A001
:1042F000F29E010E43E9E7CFD9FF120002010C51F3
:104300000024E96E0D510120EA6EEE5009240A6F77
:10431000ED500A200B6F02510A19006F03510B195F
:10432000016F00511200210EE66E020EE66E00EBE8
:10433000E6FF01EBE6FF1200EA6A210FE96E020ECA
:10434000EA2212005DD888E944E80450FC0BE842F8
:10435000E842010F086EF250800B12000350020178
:104360000424006F000E0520016F00C2E6FFE66E18
:10437000DEDE47E912000424E96E000E0520EA6E35
:104380001200040E0902F3500A240524E96E000EFF
:104390000620EA6E1200E66E04EBE6FF05EBE6FF90
:1043A00005DF47E9076A12002BD887E942E8F25097
:1043B000800B12000024E96E000E0120EA6E12004C
:1043C000020106510819046F07510919056F1200FF
:1043D000020E0224E96E000E0320EA6E1200040EA3
:1043E0000902F3500A24D88004541200E552E75021
:1043F000EF6E072A1200E66E07509EDFF6EF21F0FF
:0A440000D9CFE6FFE1CFD9FF12008B
:06440A00DBD887E941E860
:10441000F250800B01E0010E076EF29E8C9A030EA3
:10442000C3D8005001100BE02BEC28F0E66ECED87C
:10443000E552E750EF6E0006000E015AF2D78C8A63
:104440000750E8B0F28EE8A0F29E42E9E7CFD9FF2C
:104450001200B7D887E942E8076AF250800B01E002
:10446000010E086EF29E8C9A050EE66EB7D82BEC04
:1044700028F0076E8C8A2EEC00F007B0F4D78C9AE7
:10448000060EE66EABD88C8A2EEC00F08C9A020EEB
:104490008BD8076A0050011018E098D8EFCFE6FFDC
:1044A0009DD80006000E015A072A07500201022477
:1044B000006F000E0320016F00513F0BEBE18C8A6F
:1044C00007500226000E0322CED78C8A0850E8B08F
:1044D000F28EE8A0F29E43E9E7CFD9FF120071D82F
:1044E00085E9F70EE96E010EEA6E0201EE50022434
:1044F000006FED500320016F026B0235000E0219B0
:1045000007E6D880000E0055800E0155000E0255BA
:1045100002E2000E0ED000EBE9FF01EBEAFFF7C16B
:10452000EEFFF8C1EDFF01010250F7270350F82319
:10453000010E41E9E7CFD9FF120043D881E941E8F4
:10454000010E016E0101F76BF86BE90EE66E010ECC
:10455000E66E020E23D8EB0EE66E010E43D8ED0E8A
:10456000E66E010E3FD8EF0EE66E010EE66E640EAB
:1045700015D8F10EE66E010EE66E040E0FD8F30E9E
:10458000E66E010EE66E020E09D8F50EE66E010E1D
:1045900029D8015042E9E7CFD9FF1200E66EE66A5A
:1045A0009EDF44E901161200E66E18D8020103EB03
:1045B00000F2016B00C2E6FF11D802EBE6FFEEEF5E
:1045C00022F0D9CFE6FFE1CFD9FF120004EBE9FFDB
:1045D00005EBEAFF042A000E052212001CEC28F06D
:0C45E00041E91200E66E010ECEEF22F061
:0445EC0042E8D9CFF9
:1045F000E6FFDACFE6FFE1CFD9FFE2CFDAFF86E9C7
:10460000036A1200F3DF038003D0F0DF01D00382DE
:10461000026A080EE76ED890013602360050025C3E
:1046200002E3026E012AE72EF7D703B2120003B0AD
:1046300081EB00F003A082EB00F0E552E5CFDAFF5A
:10464000E7CFD9FF43E9120044E8D9CFE6FFDACF3C
:10465000E6FFE1CFD9FFE2CFDAFF8EE980EB08F089
:1046600081EB09F082EB0AF083EB0BF004500802B7
:10467000F350006EF450016E04500902F35001260D
:10468000000EF420026E04500A02F3500226000EBF
:10469000F420036E04500B02F35003260550080269
:1046A000F3500126F4500222000E032205500902A5
:1046B000F3500226F450032205500A02F350032659
:1046C00006500802F3500226F45003220650090255
:1046D000F350032607500802F3500326E552E5CFB6
:1046E000DAFFE7CFD9FF48E9000C45E8D9CFE6FF6C
:1046F000DACFE6FFE1CFD9FFE2CFDAFF8FE90C6A2C
:104700001200F3DF0C8003D0F0DF01D00C820B6AC3
:104710000A6A096A086A200EE76ED89004360536E0
:1047200006360736083609360A360B360050085C5E
:104730000150095802500A5803500B5809E3005021
:10474000085E0150095A02500A5A03500B5A042AB3
:10475000E72EE4D70CB212000CB00AD088EB00F0C0
:1047600089EB01F08AEB02F08BEB03F00CA008D090
:1047700084EB00F085EB01F086EB02F087EB03F0B1
:0E478000E552E5CFDAFFE7CFD9FF49E9120095
:02478E007B0EA0
:10479000D36EC090550EA76EAA0EA76E0E01FF91A4
:1047A000050EE86F060EE96F130EF66F050ED76F54
:1047B000550EA76EAA0EA76EFF810F0148693F0E26
:1047C000496FF19E92689368946895689668896AC3
:1047D0008A6A8C6A8D6A9380938492949296949458
:1047E0008B84959E8C8E9386938A949E9398949CAA
:1047F000C00EC76E210EC66E969295868D82F1967A
:10480000959A8C8AF28EF094F08A98EF25F087D8EA
:1048100083E9B7EC25F00150E66EE66A020EE66E1B
:104820003F0EE66E73D80050E66EE66AF10EE66E55
:104830003E0EE66EE66AAA0EE66E0E0EE66E7DECA3
:1048400027F047E9CBEC25F041E9E7CFD9FF12008B
:1048500066D885E941E8B7EC25F00150E66EE66AD6
:1048600002EBE6FF03EBE6FF51D8CBEC25F000505E
:104870000CE0056A080E055C08E2FA0EE66EE66AD0
:10488000F3EC24F042E9052AF5D742E9E7CFD9FF56
:10489000120045D881E944E881B004D081A0FED758
:1048A000010E07D081B404D081A4FED7020E01D03E
:1048B000000E45E9E7CFD9FF1200F250100B04E0DB
:1048C000F250020B01E0F292F050100B04E0F050B5
:1048D000020B01E0F092F250080B04E0F250010BE1
:1048E00001E0F290A050020B05E0A150020B02E0A3
:1048F000A1928974A4AE09D0A49E51EC25F0050EB6
:10490000E66EE66AF3EC24F042E91200E66A9A0EDB
:10491000E66E0E0EE66E7DEC27F047E91200D9CF69
:08492000E6FFE1CFD9FF120010
:08492800D9CFE6FFE1CFD9FF72
:1049300085E944E854D000EBE6FF01EBE6FF02EB2B
:10494000E6FF03EBE6FF140EE66EE66AE66AE66A49
:1049500024EC23F0E552E5CF03F2E5CF02F2E5CFF8
:1049600001F2E7CF00F202010051056E0151066E1F
:104970000251076E0351086ED950050FE96EDACF68
:10498000EAFFAF0EEE5E000EEE5A000EEE5A000E7B
:10499000EE5A083408E205502D08000E0654000EA9
:1049A0000754000E085401E31AD0083408E20550F9
:1049B0000008000E0654000E0754000E08540FE2C3
:1049C0000000D950050FE96EDACFEAFF2A0EEE5E3D
:1049D000000EEE5A000EEE5A000EEE5AE6D745E9EA
:1049E000E7CFD9FF1200D9CFE6FFE1CFD9FF83E9A6
:1049F00044E800EBE6FF01EBE6FFE66AE66AD00E6C
:104A0000E66E070EE66EE66AE66A24EC23F0E552EF
:104A1000E5CF03F2E5CF02F2E5CF01F2E7CF00F2F6
:104A200002010051036E0151046E0251056E0351E3
:104A3000066ED950030FE96EDACFEAFFAA0EEE5EDA
:104A4000000EEE5A000EEE5A000EEE5A063408E240
:104A50000350C308000E0454000E0554000E065403
:104A600002E31BD01AD0063408E203500008000EFF
:104A70000454000E0554000E06540FE20000D950F5
:104A8000030FE96EDACFEAFF270EEE5E000EEE5A54
:104A9000000EEE5A000EEE5AE6D745E9E7CFD9FFF1
:024AA000120002
:0E4AA20002012551275D03E32651285D2CE219
:104AB00071B0FED702012551275D11E22751EA6A44
:104AC000960FE96E0E0EEA22EF50756E272B2551D8
:104AD000275D1AE1265118E17184D9EF25F026519E
:104AE000285D12E228516DD8EF5004E1285169D8B1
:104AF000200EEF6E285165D8EF50756E282B265189
:104B0000285D02E1718455D81200D9CFE6FFE1CFCC
:104B1000D9FF83E971B4FED70201276B286B01EB43
:104B200025F200EB26F2718041E9E7CFD9FF1200B0
:104B3000530E9512A49E736AF00E746E280E726E58
:104B4000716AA38EF28EF28C34D80E017C0E966FB1
:104B5000810E976F986BE66A030EE66ED6DF42E928
:104B6000C80EE66EE66AF3EC24F042E91200D9CFF3
:104B7000E6FFE1CFD9FF81E941E8016A200E015C3F
:104B800006E201501ED8200EEF6E012AF7D742E947
:104B9000E7CFD9FF12000E017C0E966F320E976F91
:104BA000986B200E996FE66E040EE66EAEDF42E95A
:104BB00012002C0EE66E010EE66EF3EC24F042E9D4
:0E4BC0001200EA6A9A0FE96E0E0EEA22120047
:024BCE009584CC
:104BD000949C240EA86E900E9C6E190EAB6E120063
:104BE000D9CFE6FFE1CFD9FF83E941E800EBF6FF3B
:104BF00001EBF7FF002A000E01220800F550036EBA
:104C0000035005E003EBE6FF06D841E9EFD742E9A0
:104C1000E7CFD9FF12004ED8A8A2FED700EBA9FF1C
:104C200041E9E7CFD9FF12009CA202D09C989C8852
:104C3000AA5012003FD841E880EB02F000380F0B79
:104C40000F0B006E00502BD80F0E0214006E005098
:104C500026D842E9E7CFD9FF12002CD8640E005CB9
:104C600005E3640EE66E00EBE6FF2AD80A0E005C50
:104C700009E30A0EE66E640EE66E00EBE6FF05EC55
:104C800023F01ED80A0EE66E00EBE6FF05EC23F0DB
:104C900041E9E75004D841E9E7CFD9FF1200F76AAC
:104CA0005B0FF66E510EF7220800F5CFE6FFB3DF7B
:104CB00041E91200D9CFE6FFE1CFD9FF82E9120026
:0C4CC00002EC23F041E9E7504FEF26F032
:044CCC0020B22020D2
:104CD00020B22020B220B22020202020B220B20D0D
:104CE0000AB220B220B220B2202020B22020B2206E
:104CF00020B220200D0AB22020B22020B220B22003
:104D0000B22020B22020B220B20D0AB22020B22060
:104D100020B220B22020B220B220B22020B20D0A50
:104D2000B22020B22020B220B2202020B220B22017
:104D30002020B20D0AB2B2B22020B2B2B2B20D0A35
:104D4000B22020B220B22020200D0AB22020B220B2
:104D5000B2B2B2B20D0AB22020B220B22020200D91
:0C4D60000AB2B2B22020B2B2B2B20D0A08
:044D6C001E0EF66EB3
:104D7000000EF76E000EF86E02010900F550136F79
:104D80000900F550146F03E1136701D03DD009000D
:104D9000F5500E6F0900F5500F6F0900F550106FB8
:104DA00009000900F550E96E0900F550EA6E0900A6
:104DB00009000900F550116F0900F550126F090044
:104DC0000900F6CF15F2F7CF16F2F8CF17F20EC2A0
:104DD000F6FF0FC2F7FF10C2F8FF0201115302E104
:104DE000125307E00900F550EE6E1107F8E21207C2
:104DF000F9D715C2F6FF16C2F7FF17C2F8FF020176
:0A4E00001307000E145BBFD7120069
:064E0A00040ED56EF184D8
:104E1000F294F28AD58E0001FD6BFE6B1200D9CFA1
:104E2000E6FFE1CFD9FF81E946E8036A046AF29A16
:104E3000F250040B01E0010E056ED650016ED75002
:104E4000026EF250040B01E0010E066E0650055C86
:104E5000EFE1055006E0F2940001FD2BFD5101E168
:104E6000FE2B0001FD510326FE510426F28A01EBC0
:104E7000BBFE02EBBCFE03EBBDFE04EBBEFE47E94E
:064E8000E7CFD9FF12008C
:0A4E8600D9CFE6FFE1CFD9FF86E99E
:104E900043E880EB06F081EB07F00206023425E2DE
:104EA00003EBE9FF04EBEAFF032A000E0422EFCF35
:104EB00000F200C201F20201006B0051061A01511A
:104EC000071A086A080E085CE8E20750800B08E041
:104ED000D89006360736210E061A100E071A03D090
:104EE000D89006360736082AEDD706EBF3FF07EB16
:0A4EF000F4FF44E9E7CFD9FF1200F8
:064EFA00D9CFE6FFDACF7C
:104F0000E6FFE1CFD9FFE2CFDAFF87E944E8D9CF66
:104F1000E6FFDACFE6FFE552E5500A6EE750096E8C
:104F200009EBE6FF0AEBE6FF00EBE6FF01EBE6FF2D
:104F300002EBE6FFD950030FE66E000EDA20E66EB4
:104F4000F0EC15F047E9F350076EF450086E03EBF0
:104F5000E9FF04EBEAFFEF6A07EBF3FF08EBF4FF6E
:0C4F600045E9E5CFDAFFE7CFD9FF1200EA
:044F6C00FE0EE3CF83
:104F7000E9FFFF0EE3CFEAFFF36AF46AEE5203E0C3
:104F8000F34AF42AFBD71200FF0EE3CFF8FFE552F5
:104F9000FF0EE3CFF7FFE552FF0EE3CFF6FFE5523A
:104FA000E66AE66AE66A0900F55209E0FD0EE32AC0
:104FB00005E1FE0EE32A02E1FF0EE32AF4D7FD0E1F
:104FC000E3CFBBFEFE0EE3CFBCFEFF0EE3CFBDFE84
:024FD0001200CD
:0E4FD200D9CFE6FFDACFE6FFE1CFD9FFE2CF7D
:104FE000DAFF85E9013415E200EBE9FF01EBEAFFA6
:104FF000EECFF3FFEDCFF4FFEE2A000EEF22F3CF5A
:10500000E9FFF4CFEAFF02EBEFFFEF50F36EF46A33
:105010000DD0FE0E005C05E102EBE6FF8AEC28F005
:1050200004D002EBE6FF03EC00F041E941E9E5CFF3
:08503000DAFFE7CFD9FF1200FF
:0850380026D89E96C950026EB5
:10504000C69E00EBC9FFC6BEFBD79EA6FED742E9AF
:10505000E7CFD9FF1200E66AEFDF41E9C95012003D
:1050600012D8A49E729E00EB75FF72BEFBD7A4AE51
:10507000FED7A49E42E9E7CFD9FF1200E66AF0DF2F
:1050800041E975501200D9CFE6FFE1CFD9FF82E99F
:0450900041E81200E1
:0C50940078000000B40000002C010000B7
:1050A0001C020000FC030000BC0700003C0F0000D5
:1050B0003C1E00003C3C00003C7800003CF000003E
:1050C0003CE001003CC003003C8007003C000F00B6
:1050D000F36AF46AFF0EE124E96EFF0EE220EA6E45
:1050E000ED6607D02F0EEF6404D03A0EEF6001D0CA
:0450F000F32A12008D
:0C50F400C00EF36E00EE00F00E0E01D8AE
:105100001200EA6002D0EE6AFCD7F350E9601200A8
:04511000EE6AFCD770
:0C511400FF0EE350ADBA04D0B06AAC8EC0
:10512000AD8A949CADA2FED7AE6EF36EF46A120007
:105130001DEE00F02DEE00F0F86AB6EC26F00BEC58
:0A51400000F0E2EC19F0FBD71200BA
:06514A0030313233343530
:0B515000363738396162636465660021
:05515B00303132333455
:0B51600035363738394142434445469C
:05516B0002776655000B
:0451700000FF00112B
:01517400003A
:045175000000000036
:02517900000034
:02517B00021917
:01FFF800EC1C
:01FFF900F611
:01FFFA00D82E
:01FFFB00FB0A
:00000001FF
